sim/axi4_vip.vcd
$date
	Tue Jul  7 15:39:25 2026
$end
$version
	QuestaSim Version 10.6b
$end
$timescale
	1ps
$end

$scope module tb_top $end
$var parameter 32 ! ADDR_WIDTH $end
$var parameter 32 " DATA_WIDTH $end
$var parameter 32 # ID_WIDTH $end
$var reg 1 $ clk $end
$var reg 1 % rst_n $end

$scope module u_axi4_sva $end
$var parameter 32 & ADDR_WIDTH $end
$var parameter 32 ' DATA_WIDTH $end
$var parameter 32 ( ID_WIDTH $end
$var parameter 32 ) STRB_WIDTH $end
$var wire 1 * clk $end
$var wire 1 + rst_n $end
$var wire 1 , AWID [3] $end
$var wire 1 - AWID [2] $end
$var wire 1 . AWID [1] $end
$var wire 1 / AWID [0] $end
$var wire 1 0 AWADDR [31] $end
$var wire 1 1 AWADDR [30] $end
$var wire 1 2 AWADDR [29] $end
$var wire 1 3 AWADDR [28] $end
$var wire 1 4 AWADDR [27] $end
$var wire 1 5 AWADDR [26] $end
$var wire 1 6 AWADDR [25] $end
$var wire 1 7 AWADDR [24] $end
$var wire 1 8 AWADDR [23] $end
$var wire 1 9 AWADDR [22] $end
$var wire 1 : AWADDR [21] $end
$var wire 1 ; AWADDR [20] $end
$var wire 1 < AWADDR [19] $end
$var wire 1 = AWADDR [18] $end
$var wire 1 > AWADDR [17] $end
$var wire 1 ? AWADDR [16] $end
$var wire 1 @ AWADDR [15] $end
$var wire 1 A AWADDR [14] $end
$var wire 1 B AWADDR [13] $end
$var wire 1 C AWADDR [12] $end
$var wire 1 D AWADDR [11] $end
$var wire 1 E AWADDR [10] $end
$var wire 1 F AWADDR [9] $end
$var wire 1 G AWADDR [8] $end
$var wire 1 H AWADDR [7] $end
$var wire 1 I AWADDR [6] $end
$var wire 1 J AWADDR [5] $end
$var wire 1 K AWADDR [4] $end
$var wire 1 L AWADDR [3] $end
$var wire 1 M AWADDR [2] $end
$var wire 1 N AWADDR [1] $end
$var wire 1 O AWADDR [0] $end
$var wire 1 P AWLEN [7] $end
$var wire 1 Q AWLEN [6] $end
$var wire 1 R AWLEN [5] $end
$var wire 1 S AWLEN [4] $end
$var wire 1 T AWLEN [3] $end
$var wire 1 U AWLEN [2] $end
$var wire 1 V AWLEN [1] $end
$var wire 1 W AWLEN [0] $end
$var wire 1 X AWSIZE [2] $end
$var wire 1 Y AWSIZE [1] $end
$var wire 1 Z AWSIZE [0] $end
$var wire 1 [ AWBURST [1] $end
$var wire 1 \ AWBURST [0] $end
$var wire 1 ] AWLOCK $end
$var wire 1 ^ AWCACHE [3] $end
$var wire 1 _ AWCACHE [2] $end
$var wire 1 ` AWCACHE [1] $end
$var wire 1 a AWCACHE [0] $end
$var wire 1 b AWPROT [2] $end
$var wire 1 c AWPROT [1] $end
$var wire 1 d AWPROT [0] $end
$var wire 1 e AWQOS [3] $end
$var wire 1 f AWQOS [2] $end
$var wire 1 g AWQOS [1] $end
$var wire 1 h AWQOS [0] $end
$var wire 1 i AWREGION [3] $end
$var wire 1 j AWREGION [2] $end
$var wire 1 k AWREGION [1] $end
$var wire 1 l AWREGION [0] $end
$var wire 1 m AWVALID $end
$var wire 1 n AWREADY $end
$var wire 1 o WDATA [31] $end
$var wire 1 p WDATA [30] $end
$var wire 1 q WDATA [29] $end
$var wire 1 r WDATA [28] $end
$var wire 1 s WDATA [27] $end
$var wire 1 t WDATA [26] $end
$var wire 1 u WDATA [25] $end
$var wire 1 v WDATA [24] $end
$var wire 1 w WDATA [23] $end
$var wire 1 x WDATA [22] $end
$var wire 1 y WDATA [21] $end
$var wire 1 z WDATA [20] $end
$var wire 1 { WDATA [19] $end
$var wire 1 | WDATA [18] $end
$var wire 1 } WDATA [17] $end
$var wire 1 ~ WDATA [16] $end
$var wire 1 !! WDATA [15] $end
$var wire 1 "! WDATA [14] $end
$var wire 1 #! WDATA [13] $end
$var wire 1 $! WDATA [12] $end
$var wire 1 %! WDATA [11] $end
$var wire 1 &! WDATA [10] $end
$var wire 1 '! WDATA [9] $end
$var wire 1 (! WDATA [8] $end
$var wire 1 )! WDATA [7] $end
$var wire 1 *! WDATA [6] $end
$var wire 1 +! WDATA [5] $end
$var wire 1 ,! WDATA [4] $end
$var wire 1 -! WDATA [3] $end
$var wire 1 .! WDATA [2] $end
$var wire 1 /! WDATA [1] $end
$var wire 1 0! WDATA [0] $end
$var wire 1 1! WSTRB [3] $end
$var wire 1 2! WSTRB [2] $end
$var wire 1 3! WSTRB [1] $end
$var wire 1 4! WSTRB [0] $end
$var wire 1 5! WLAST $end
$var wire 1 6! WVALID $end
$var wire 1 7! WREADY $end
$var wire 1 8! BID [3] $end
$var wire 1 9! BID [2] $end
$var wire 1 :! BID [1] $end
$var wire 1 ;! BID [0] $end
$var wire 1 <! BRESP [1] $end
$var wire 1 =! BRESP [0] $end
$var wire 1 >! BVALID $end
$var wire 1 ?! BREADY $end
$var wire 1 @! ARID [3] $end
$var wire 1 A! ARID [2] $end
$var wire 1 B! ARID [1] $end
$var wire 1 C! ARID [0] $end
$var wire 1 D! ARADDR [31] $end
$var wire 1 E! ARADDR [30] $end
$var wire 1 F! ARADDR [29] $end
$var wire 1 G! ARADDR [28] $end
$var wire 1 H! ARADDR [27] $end
$var wire 1 I! ARADDR [26] $end
$var wire 1 J! ARADDR [25] $end
$var wire 1 K! ARADDR [24] $end
$var wire 1 L! ARADDR [23] $end
$var wire 1 M! ARADDR [22] $end
$var wire 1 N! ARADDR [21] $end
$var wire 1 O! ARADDR [20] $end
$var wire 1 P! ARADDR [19] $end
$var wire 1 Q! ARADDR [18] $end
$var wire 1 R! ARADDR [17] $end
$var wire 1 S! ARADDR [16] $end
$var wire 1 T! ARADDR [15] $end
$var wire 1 U! ARADDR [14] $end
$var wire 1 V! ARADDR [13] $end
$var wire 1 W! ARADDR [12] $end
$var wire 1 X! ARADDR [11] $end
$var wire 1 Y! ARADDR [10] $end
$var wire 1 Z! ARADDR [9] $end
$var wire 1 [! ARADDR [8] $end
$var wire 1 \! ARADDR [7] $end
$var wire 1 ]! ARADDR [6] $end
$var wire 1 ^! ARADDR [5] $end
$var wire 1 _! ARADDR [4] $end
$var wire 1 `! ARADDR [3] $end
$var wire 1 a! ARADDR [2] $end
$var wire 1 b! ARADDR [1] $end
$var wire 1 c! ARADDR [0] $end
$var wire 1 d! ARLEN [7] $end
$var wire 1 e! ARLEN [6] $end
$var wire 1 f! ARLEN [5] $end
$var wire 1 g! ARLEN [4] $end
$var wire 1 h! ARLEN [3] $end
$var wire 1 i! ARLEN [2] $end
$var wire 1 j! ARLEN [1] $end
$var wire 1 k! ARLEN [0] $end
$var wire 1 l! ARSIZE [2] $end
$var wire 1 m! ARSIZE [1] $end
$var wire 1 n! ARSIZE [0] $end
$var wire 1 o! ARBURST [1] $end
$var wire 1 p! ARBURST [0] $end
$var wire 1 q! ARLOCK $end
$var wire 1 r! ARCACHE [3] $end
$var wire 1 s! ARCACHE [2] $end
$var wire 1 t! ARCACHE [1] $end
$var wire 1 u! ARCACHE [0] $end
$var wire 1 v! ARPROT [2] $end
$var wire 1 w! ARPROT [1] $end
$var wire 1 x! ARPROT [0] $end
$var wire 1 y! ARQOS [3] $end
$var wire 1 z! ARQOS [2] $end
$var wire 1 {! ARQOS [1] $end
$var wire 1 |! ARQOS [0] $end
$var wire 1 }! ARREGION [3] $end
$var wire 1 ~! ARREGION [2] $end
$var wire 1 !" ARREGION [1] $end
$var wire 1 "" ARREGION [0] $end
$var wire 1 #" ARVALID $end
$var wire 1 $" ARREADY $end
$var wire 1 %" RID [3] $end
$var wire 1 &" RID [2] $end
$var wire 1 '" RID [1] $end
$var wire 1 (" RID [0] $end
$var wire 1 )" RDATA [31] $end
$var wire 1 *" RDATA [30] $end
$var wire 1 +" RDATA [29] $end
$var wire 1 ," RDATA [28] $end
$var wire 1 -" RDATA [27] $end
$var wire 1 ." RDATA [26] $end
$var wire 1 /" RDATA [25] $end
$var wire 1 0" RDATA [24] $end
$var wire 1 1" RDATA [23] $end
$var wire 1 2" RDATA [22] $end
$var wire 1 3" RDATA [21] $end
$var wire 1 4" RDATA [20] $end
$var wire 1 5" RDATA [19] $end
$var wire 1 6" RDATA [18] $end
$var wire 1 7" RDATA [17] $end
$var wire 1 8" RDATA [16] $end
$var wire 1 9" RDATA [15] $end
$var wire 1 :" RDATA [14] $end
$var wire 1 ;" RDATA [13] $end
$var wire 1 <" RDATA [12] $end
$var wire 1 =" RDATA [11] $end
$var wire 1 >" RDATA [10] $end
$var wire 1 ?" RDATA [9] $end
$var wire 1 @" RDATA [8] $end
$var wire 1 A" RDATA [7] $end
$var wire 1 B" RDATA [6] $end
$var wire 1 C" RDATA [5] $end
$var wire 1 D" RDATA [4] $end
$var wire 1 E" RDATA [3] $end
$var wire 1 F" RDATA [2] $end
$var wire 1 G" RDATA [1] $end
$var wire 1 H" RDATA [0] $end
$var wire 1 I" RRESP [1] $end
$var wire 1 J" RRESP [0] $end
$var wire 1 K" RLAST $end
$var wire 1 L" RVALID $end
$var wire 1 M" RREADY $end
$var reg 1 N" rst_seen $end
$var integer 32 O" w_beat_cnt $end
$var reg 1 P" active_r_burst $end
$var reg 4 Q" active_rid [3:0] $end

$scope begin RESET_AWVALID $end
$upscope $end

$scope begin RESET_WVALID $end
$upscope $end

$scope begin RESET_BVALID $end
$upscope $end

$scope begin RESET_ARVALID $end
$upscope $end

$scope begin RESET_RVALID $end
$upscope $end

$scope begin AWVALID_STABLE $end
$upscope $end

$scope begin WVALID_STABLE $end
$upscope $end

$scope begin BVALID_STABLE $end
$upscope $end

$scope begin ARVALID_STABLE $end
$upscope $end

$scope begin RVALID_STABLE $end
$upscope $end

$scope begin AW_PAYLOAD_STABLE $end
$upscope $end

$scope begin W_PAYLOAD_STABLE $end
$upscope $end

$scope begin B_PAYLOAD_STABLE $end
$upscope $end

$scope begin AR_PAYLOAD_STABLE $end
$upscope $end

$scope begin R_PAYLOAD_STABLE $end
$upscope $end

$scope begin AWVALID_KNOWN $end
$upscope $end

$scope begin WVALID_KNOWN $end
$upscope $end

$scope begin BVALID_KNOWN $end
$upscope $end

$scope begin ARVALID_KNOWN $end
$upscope $end

$scope begin RVALID_KNOWN $end
$upscope $end

$scope begin AWREADY_KNOWN $end
$upscope $end

$scope begin WREADY_KNOWN $end
$upscope $end

$scope begin BREADY_KNOWN $end
$upscope $end

$scope begin ARREADY_KNOWN $end
$upscope $end

$scope begin RREADY_KNOWN $end
$upscope $end

$scope begin WLAST_MISSING_W_BEFORE_AW $end
$upscope $end

$scope begin WLAST_CORRECT_CHECK $end
$upscope $end

$scope begin WLAST_NOT_EARLY_CHECK $end
$upscope $end

$scope begin AWBURST_VALID $end
$upscope $end

$scope begin ARBURST_VALID $end
$upscope $end

$scope begin AWSIZE_VALID $end
$upscope $end

$scope begin ARSIZE_VALID $end
$upscope $end

$scope begin WRAP_AW_LEN $end
$upscope $end

$scope begin WRAP_AR_LEN $end
$upscope $end

$scope begin FIXED_AW_LEN $end
$upscope $end

$scope begin FIXED_AR_LEN $end
$upscope $end

$scope begin BRESP_KNOWN $end
$upscope $end

$scope begin RRESP_KNOWN $end
$upscope $end

$scope begin READ_NO_INTERLEAVE $end
$upscope $end

$scope begin AW_HANDSHAKE_COV $end
$upscope $end

$scope begin W_HANDSHAKE_COV $end
$upscope $end

$scope begin B_HANDSHAKE_COV $end
$upscope $end

$scope begin AR_HANDSHAKE_COV $end
$upscope $end

$scope begin R_HANDSHAKE_COV $end
$upscope $end

$scope begin AW_BACKPRESSURE_COV $end
$upscope $end

$scope begin W_BACKPRESSURE_COV $end
$upscope $end

$scope begin B_BACKPRESSURE_COV $end
$upscope $end

$scope begin AR_BACKPRESSURE_COV $end
$upscope $end

$scope begin R_BACKPRESSURE_COV $end
$upscope $end

$scope begin WRITE_INCR_COV $end
$upscope $end

$scope begin WRITE_FIXED_COV $end
$upscope $end

$scope begin WRITE_WRAP_COV $end
$upscope $end

$scope begin READ_INCR_COV $end
$upscope $end

$scope begin READ_FIXED_COV $end
$upscope $end

$scope begin READ_WRAP_COV $end
$upscope $end

$scope begin SINGLE_WRITE_COV $end
$upscope $end

$scope begin SINGLE_READ_COV $end
$upscope $end

$scope begin MAX_WRITE_COV $end
$upscope $end

$scope begin MAX_READ_COV $end
$upscope $end
$upscope $end
$upscope $end
$enddefinitions $end
#0
$dumpvars
0$
0%
0N"
0P"
b0 Q"
b100000 !
b100000 "
b100 #
b100000 &
b100000 '
b100 (
b100 )
b0 O"
0+
0*
x/
x.
x-
x,
xO
xN
xM
xL
xK
xJ
xI
xH
xG
xF
xE
xD
xC
xB
xA
x@
x?
x>
x=
x<
x;
x:
x9
x8
x7
x6
x5
x4
x3
x2
x1
x0
xW
xV
xU
xT
xS
xR
xQ
xP
xZ
xY
xX
x\
x[
x]
xa
x`
x_
x^
xd
xc
xb
xh
xg
xf
xe
xl
xk
xj
xi
xm
xn
x0!
x/!
x.!
x-!
x,!
x+!
x*!
x)!
x(!
x'!
x&!
x%!
x$!
x#!
x"!
x!!
x~
x}
x|
x{
xz
xy
xx
xw
xv
xu
xt
xs
xr
xq
xp
xo
x4!
x3!
x2!
x1!
x5!
x6!
x7!
x;!
x:!
x9!
x8!
x=!
x<!
x>!
x?!
xC!
xB!
xA!
x@!
xc!
xb!
xa!
x`!
x_!
x^!
x]!
x\!
x[!
xZ!
xY!
xX!
xW!
xV!
xU!
xT!
xS!
xR!
xQ!
xP!
xO!
xN!
xM!
xL!
xK!
xJ!
xI!
xH!
xG!
xF!
xE!
xD!
xk!
xj!
xi!
xh!
xg!
xf!
xe!
xd!
xn!
xm!
xl!
xp!
xo!
xq!
xu!
xt!
xs!
xr!
xx!
xw!
xv!
x|!
x{!
xz!
xy!
x""
x!"
x~!
x}!
x#"
x$"
x("
x'"
x&"
x%"
xH"
xG"
xF"
xE"
xD"
xC"
xB"
xA"
x@"
x?"
x>"
x="
x<"
x;"
x:"
x9"
x8"
x7"
x6"
x5"
x4"
x3"
x2"
x1"
x0"
x/"
x."
x-"
x,"
x+"
x*"
x)"
xJ"
xI"
xK"
xL"
xM"
$end
#5000
1$
1*
1N"
#6000
0m
06!
0?!
0#"
0M"
05!
0n
07!
0>!
0$"
0L"
0K"
#10000
0$
0*
#15000
1$
1*
#20000
0$
0*
#25000
1$
1*
#30000
0$
0*
#35000
1$
1*
#40000
0$
0*
#45000
1$
1*
#50000
0$
0*
#55000
1$
1*
#60000
0$
0*
#65000
1$
1*
#70000
0$
0*
#75000
1$
1*
#80000
0$
0*
#85000
1$
1*
#90000
0$
0*
#95000
1$
1*
1%
1+
#96000
1?!
1M"
1#"
0q!
16!
1m
0]
0l
1k
1j
0i
1h
1g
1f
0e
1d
1c
0b
0a
0`
0_
1^
1\
0[
0Z
0Y
0X
0W
0V
1U
1T
1S
1R
0Q
1P
1O
1N
1M
1L
0K
1J
0I
0H
0G
1F
0E
1D
0C
1B
0A
0@
1?
1>
1=
0<
0;
1:
19
08
07
16
05
14
13
02
01
10
0/
0.
1-
1,
04!
13!
12!
01!
10!
1/!
1.!
0-!
0,!
0+!
0*!
0)!
1(!
1'!
1&!
1%!
1$!
0#!
0"!
0!!
0~
1}
1|
0{
1z
0y
0x
0w
1v
1u
0t
0s
1r
0q
0p
1o
1""
1!"
1~!
0}!
0|!
1{!
1z!
1y!
0x!
0w!
1v!
1u!
1t!
1s!
1r!
0p!
0o!
0n!
0m!
0l!
0k!
0j!
1i!
1h!
0g!
0f!
0e!
0d!
1c!
1b!
0a!
1`!
1_!
0^!
0]!
1\!
1[!
1Z!
1Y!
0X!
1W!
0V!
1U!
0T!
1S!
0R!
0Q!
0P!
1O!
1N!
1M!
1L!
1K!
1J!
1I!
0H!
0G!
1F!
1E!
0D!
0C!
1B!
0A!
0@!
#100000
0$
0*
#105000
1$
1*
#110000
0$
0*
#115000
1$
1*
#116000
17!
#120000
0$
0*
#125000
1$
1*
b1 O"
#126000
07!
#130000
0$
0*
#135000
1$
1*
#136000
11!
00!
0/!
1,!
1+!
1*!
1)!
0(!
0'!
1#!
1"!
0}
0z
1t
0r
1q
#140000
0$
0*
#145000
1$
1*
#150000
0$
0*
#155000
1$
1*
#160000
0$
0*
#165000
1$
1*
#166000
1$"
#170000
0$
0*
#175000
1$
1*
#176000
0#"
0$"
1n
#180000
0$
0*
#185000
1$
1*
#186000
0m
1#"
0~!
1}!
1|!
0z!
0y!
1x!
1w!
0v!
0t!
0s!
0r!
1n!
0b!
0`!
1]!
0\!
0Z!
1V!
0U!
1R!
0O!
0M!
0I!
0F!
0E!
0B!
0n
17!
#190000
0$
0*
#195000
1$
1*
b10 O"
#196000
1m
0j
0h
1e
0d
1a
1Y
1W
1V
0R
0P
0O
1K
0J
1I
1H
1G
0F
1E
0D
1C
0?
1<
09
18
17
06
04
11
1.
07!
#200000
0$
0*
#205000
1$
1*
#206000
14!
01!
10!
1/!
0.!
1-!
0,!
0+!
0*!
0)!
1(!
1'!
0$!
1!!
1}
0|
1x
1w
0u
1s
1r
1p
0o
#210000
0$
0*
#215000
1$
1*
#220000
0$
0*
#225000
1$
1*
#226000
0J"
0I"
0H"
0G"
0F"
0E"
0D"
0C"
0B"
0A"
0@"
0?"
0>"
0="
0<"
0;"
0:"
09"
08"
07"
06"
05"
04"
03"
02"
01"
00"
0/"
0."
0-"
0,"
0+"
0*"
0)"
0("
1'"
0&"
0%"
1L"
#230000
0$
0*
#235000
1$
1*
1P"
b10 Q"
#236000
0L"
#240000
0$
0*
#245000
1$
1*
#246000
1$"
#250000
0$
0*
#255000
1$
1*
#256000
0#"
0$"
1n
#260000
0$
0*
#265000
1$
1*
#266000
0m
1#"
0|!
0{!
1z!
0x!
0w!
1v!
0u!
1t!
1s!
1p!
0n!
1k!
1j!
0h!
1e!
1d!
0c!
1b!
1`!
0_!
1^!
0]!
1\!
0Y!
1X!
0W!
0V!
1T!
0S!
1P!
0K!
1H!
1G!
1D!
1B!
1@!
0n
17!
#270000
0$
0*
#275000
1$
1*
b11 O"
#276000
1m
0k
1i
1h
0e
0a
0^
1Z
0Y
0U
0T
0S
1Q
0N
0M
0L
0K
1J
0H
1D
0B
0>
0=
0<
1;
0:
08
07
16
15
14
03
12
01
00
1/
0.
0,
07!
#280000
0$
0*
#285000
1$
1*
#286000
02!
11!
1.!
1+!
1*!
1)!
0(!
0&!
0#!
0"!
0}
1z
1y
0x
0w
0s
0r
0q
0p
1o
1L"
#290000
0$
0*
#295000
1$
1*
#296000
0L"
#300000
0$
0*
#305000
1$
1*
#310000
0$
0*
#315000
1$
1*
#320000
0$
0*
#325000
1$
1*
#326000
1$"
#330000
0$
0*
#335000
1$
1*
#336000
0#"
0$"
17!
1n
1L"
#340000
0$
0*
#345000
1$
1*
b100 O"
#346000
0m
1#"
1~!
0}!
1|!
0z!
0t!
1r!
1m!
1g!
1c!
0\!
0[!
1Z!
1W!
1V!
1U!
1S!
1O!
0N!
1M!
0L!
1K!
0J!
0H!
1E!
0B!
1A!
0@!
0L"
0n
07!
#350000
0$
0*
#355000
1$
1*
#356000
1m
1l
1k
0g
0f
1e
1d
0c
1^
0\
0W
1U
0Q
1O
1N
1M
0I
0G
1F
0C
1B
1@
1?
1>
1=
06
05
04
0/
1.
0-
03!
12!
01!
0/!
0*!
0)!
1(!
0!!
1~
1}
1x
1s
1q
1p
#360000
0$
0*
#365000
1$
1*
#370000
0$
0*
#375000
1$
1*
#376000
1L"
#380000
0$
0*
#385000
1$
1*
#386000
0L"
17!
#390000
0$
0*
#395000
1$
1*
b101 O"
#396000
07!
#400000
0$
0*
#405000
1$
1*
#406000
04!
02!
1/!
0.!
0-!
0+!
0(!
0'!
1&!
0%!
1$!
1#!
1"!
1!!
0~
1{
0z
0x
1w
0v
1u
0s
0q
0p
#410000
0$
0*
#415000
1$
1*
#420000
0$
0*
#425000
1$
1*
#426000
1$"
#430000
0$
0*
#435000
1$
1*
#436000
0#"
0$"
17!
1n
#440000
0$
0*
#445000
1$
1*
b110 O"
#446000
0m
1#"
0""
1}!
1{!
1x!
1w!
1t!
0m!
0k!
1h!
0g!
0e!
0d!
0b!
1a!
1_!
1]!
1\!
1[!
1Y!
0X!
0W!
0V!
0S!
0R!
0P!
1N!
0K!
1J!
0E!
1C!
0A!
1L"
0n
07!
#450000
0$
0*
#455000
1$
1*
#456000
1m
1j
0i
1f
0e
0d
1a
1\
0Z
1Y
0V
1T
1S
1R
1Q
0O
0N
0M
1K
0J
1I
1A
0=
18
17
16
02
10
1/
0.
14!
12!
00!
1*!
1'!
0&!
1%!
0#!
0!!
1~
0}
1|
1z
0w
0u
0L"
#460000
0$
0*
#465000
1$
1*
#470000
0$
0*
#475000
1$
1*
#480000
0$
0*
#485000
1$
1*
#490000
0$
0*
#495000
1$
1*
#496000
17!
1L"
#500000
0$
0*
#505000
1$
1*
b111 O"
#506000
0L"
07!
#510000
0$
0*
#515000
1$
1*
#516000
04!
13!
02!
11!
1.!
0*!
1)!
0'!
1&!
1#!
1!!
0{
0z
1x
1w
1u
0t
1s
1p
0o
1n
#520000
0$
0*
#525000
1$
1*
#526000
0m
0n
1$"
#530000
0$
0*
#535000
1$
1*
#536000
0#"
1m
0j
0h
0f
1e
1d
1c
0a
1`
0^
1Z
0Y
0U
0R
1L
0I
1H
0D
1C
0?
1=
08
07
06
12
11
1.
1,
0$"
#540000
0$
0*
#545000
1$
1*
#546000
1#"
0!"
0~!
0}!
1z!
1y!
0w!
1u!
0s!
0r!
0p!
1n!
1k!
0`!
0[!
0Y!
1X!
1V!
0T!
1S!
0O!
0N!
0M!
0J!
1H!
1F!
0D!
0C!
1B!
#550000
0$
0*
#555000
1$
1*
#560000
0$
0*
#565000
1$
1*
#566000
1L"
17!
#570000
0$
0*
#575000
1$
1*
b1000 O"
#576000
07!
0L"
#580000
0$
0*
#585000
1$
1*
#586000
14!
03!
10!
1-!
1,!
1+!
1*!
1(!
1'!
0&!
0%!
0"!
0!!
1}
0|
0y
0w
1t
0s
1r
1q
1o
#590000
0$
0*
#595000
1$
1*
#600000
0$
0*
#605000
1$
1*
#606000
1L"
#610000
0$
0*
#615000
1$
1*
#616000
17!
0L"
#620000
0$
0*
#625000
1$
1*
b1001 O"
#626000
1n
07!
1$"
#630000
0$
0*
#635000
1$
1*
#636000
0#"
13!
01!
0/!
0.!
0-!
0*!
0'!
1&!
0#!
1"!
1!!
1y
0x
1w
1s
0r
0m
0$"
0n
#640000
0$
0*
#645000
1$
1*
#646000
1#"
1q!
1!"
1~!
1}!
0y!
0x!
1r!
0h!
0c!
0a!
0_!
0^!
1Y!
0X!
1W!
0V!
1T!
0S!
1Q!
1O!
1N!
1M!
1L!
1J!
1I!
1E!
1D!
1C!
1A!
1@!
#650000
0$
0*
#655000
1$
1*
#656000
1L"
#660000
0$
0*
#665000
1$
1*
#666000
0L"
#670000
0$
0*
#675000
1$
1*
#680000
0$
0*
#685000
1$
1*
#690000
0$
0*
#695000
1$
1*
#696000
1$"
17!
#700000
0$
0*
#705000
1$
1*
b1010 O"
#706000
0#"
1L"
07!
0$"
#710000
0$
0*
#715000
1$
1*
#716000
1#"
0q!
04!
03!
12!
1/!
1-!
0,!
0)!
0(!
1'!
1%!
0"!
0~
0}
1|
1{
1z
1x
1v
0u
1r
0p
1""
0!"
0}!
0{!
0z!
1y!
1x!
0n!
1m!
0k!
0i!
1h!
1`!
1^!
0\!
0Z!
0W!
0T!
0Q!
1P!
0O!
0L!
0I!
0E!
0C!
0B!
0A!
0L"
#720000
0$
0*
#725000
1$
1*
#730000
0$
0*
#735000
1$
1*
#740000
0$
0*
#745000
1$
1*
#750000
0$
0*
#755000
1$
1*
#756000
17!
1L"
#760000
0$
0*
#765000
1$
1*
b1011 O"
#766000
0L"
07!
#770000
0$
0*
#775000
1$
1*
#776000
02!
00!
0/!
1.!
1,!
1*!
1)!
1(!
0'!
0&!
0%!
0$!
0!!
1~
1}
0|
0z
0y
0x
0s
0o
1$"
#780000
0$
0*
#785000
1$
1*
#786000
0#"
0$"
#790000
0$
0*
#795000
1$
1*
#796000
1#"
0""
1!"
0|!
1z!
0x!
1w!
0u!
1p!
1k!
0h!
1f!
1d!
1a!
1[!
1Z!
0Y!
1X!
1W!
0U!
1S!
0P!
1O!
1L!
0J!
1I!
0H!
0G!
1C!
1A!
#800000
0$
0*
#805000
1$
1*
#810000
0$
0*
#815000
1$
1*
#820000
0$
0*
#825000
1$
1*
#826000
17!
#830000
0$
0*
#835000
1$
1*
b1100 O"
#836000
1$"
07!
1L"
#840000
0$
0*
#845000
1$
1*
#846000
13!
11!
10!
0.!
0*!
0)!
0(!
1%!
1!!
0~
0}
1|
1x
0w
0#"
0L"
0$"
#850000
0$
0*
#855000
1$
1*
#860000
0$
0*
#865000
1$
1*
#870000
0$
0*
#875000
1$
1*
#876000
1K"
1L"
#880000
0$
0*
#885000
1$
1*
0P"
#886000
0L"
0K"
#890000
0$
0*
#895000
1$
1*
#900000
0$
0*
#905000
1$
1*
#906000
17!
#910000
0$
0*
#915000
1$
1*
b1101 O"
#916000
0'"
1L"
07!
#920000
0$
0*
#925000
1$
1*
1P"
b0 Q"
#926000
01!
1/!
1.!
0,!
1)!
1'!
1&!
0%!
1"!
0!!
1}
1z
1y
0x
0v
1u
1s
1o
0L"
#930000
0$
0*
#935000
1$
1*
#940000
0$
0*
#945000
1$
1*
#950000
0$
0*
#955000
1$
1*
#956000
1L"
#960000
0$
0*
#965000
1$
1*
#966000
17!
0L"
#970000
0$
0*
#975000
1$
1*
b1110 O"
#976000
07!
#980000
0$
0*
#985000
1$
1*
#986000
03!
12!
00!
0.!
1,!
0+!
1(!
0'!
0&!
0"!
1!!
0}
0{
0z
0y
1w
0u
0t
0r
0q
#990000
0$
0*
#995000
1$
1*
#996000
1L"
#1000000
0$
0*
#1005000
1$
1*
#1006000
0L"
#1010000
0$
0*
#1015000
1$
1*
#1020000
0$
0*
#1025000
1$
1*
#1030000
0$
0*
#1035000
1$
1*
#1036000
17!
#1040000
0$
0*
#1045000
1$
1*
b1111 O"
#1046000
07!
#1050000
0$
0*
#1055000
1$
1*
#1056000
14!
11!
10!
0/!
0,!
0(!
1'!
1"!
1~
1}
0|
1y
0w
1v
1u
1r
1p
0o
1L"
#1060000
0$
0*
#1065000
1$
1*
#1066000
0L"
#1070000
0$
0*
#1075000
1$
1*
#1080000
0$
0*
#1085000
1$
1*
#1090000
0$
0*
#1095000
1$
1*
#1100000
0$
0*
#1105000
1$
1*
#1110000
0$
0*
#1115000
1$
1*
#1120000
0$
0*
#1125000
1$
1*
#1130000
0$
0*
#1135000
1$
1*
#1136000
1L"
17!
#1140000
0$
0*
#1145000
1$
1*
b10000 O"
#1146000
07!
0L"
#1150000
0$
0*
#1155000
1$
1*
#1156000
1/!
1.!
1+!
1(!
0}
1|
1{
1x
0u
0r
1q
#1160000
0$
0*
#1165000
1$
1*
#1170000
0$
0*
#1175000
1$
1*
#1176000
1L"
#1180000
0$
0*
#1185000
1$
1*
#1186000
17!
0L"
#1190000
0$
0*
#1195000
1$
1*
b10001 O"
#1196000
07!
#1200000
0$
0*
#1205000
1$
1*
#1206000
04!
13!
02!
0.!
0(!
0'!
1&!
0"!
0{
0y
0x
1w
1t
1r
0p
#1210000
0$
0*
#1215000
1$
1*
#1220000
0$
0*
#1225000
1$
1*
#1226000
1L"
#1230000
0$
0*
#1235000
1$
1*
#1236000
0L"
#1240000
0$
0*
#1245000
1$
1*
#1250000
0$
0*
#1255000
1$
1*
#1260000
0$
0*
#1265000
1$
1*
#1266000
1L"
#1270000
0$
0*
#1275000
1$
1*
#1276000
0L"
17!
#1280000
0$
0*
#1285000
1$
1*
b10010 O"
#1286000
07!
#1290000
0$
0*
#1295000
1$
1*
#1296000
12!
01!
00!
0)!
1(!
0&!
1%!
1#!
0~
1z
1y
1x
1u
0q
#1300000
0$
0*
#1305000
1$
1*
#1310000
0$
0*
#1315000
1$
1*
#1316000
1L"
#1320000
0$
0*
#1325000
1$
1*
#1326000
0L"
#1330000
0$
0*
#1335000
1$
1*
#1340000
0$
0*
#1345000
1$
1*
#1350000
0$
0*
#1355000
1$
1*
#1360000
0$
0*
#1365000
1$
1*
#1366000
17!
#1370000
0$
0*
#1375000
1$
1*
b10011 O"
#1376000
07!
#1380000
0$
0*
#1385000
1$
1*
#1386000
03!
02!
11!
0-!
1,!
0+!
1*!
0(!
1'!
1&!
0%!
1$!
1"!
1}
0|
1{
0y
0x
0s
1q
1L"
#1390000
0$
0*
#1395000
1$
1*
#1396000
0L"
#1400000
0$
0*
#1405000
1$
1*
#1410000
0$
0*
#1415000
1$
1*
#1420000
0$
0*
#1425000
1$
1*
#1430000
0$
0*
#1435000
1$
1*
#1436000
17!
#1440000
0$
0*
#1445000
1$
1*
b10100 O"
#1446000
07!
1L"
#1450000
0$
0*
#1455000
1$
1*
#1456000
14!
12!
01!
10!
0/!
1-!
1+!
0*!
0$!
0#!
0"!
0}
0z
1x
1s
0r
0L"
#1460000
0$
0*
#1465000
1$
1*
#1470000
0$
0*
#1475000
1$
1*
#1480000
0$
0*
#1485000
1$
1*
#1486000
1L"
#1490000
0$
0*
#1495000
1$
1*
#1496000
0L"
#1500000
0$
0*
#1505000
1$
1*
#1510000
0$
0*
#1515000
1$
1*
#1520000
0$
0*
#1525000
1$
1*
#1526000
17!
#1530000
0$
0*
#1535000
1$
1*
b10101 O"
#1536000
07!
#1540000
0$
0*
#1545000
1$
1*
#1546000
13!
1/!
1.!
0-!
1)!
0'!
0&!
1%!
1$!
1~
1}
1|
0{
1z
1y
0x
0v
0t
1r
0q
1p
#1550000
0$
0*
#1555000
1$
1*
#1556000
1K"
1L"
#1560000
0$
0*
#1565000
1$
1*
0P"
