sim/axi4_vip.vcd
$date
	Mon Jun  8 14:59:16 2026
$end
$version
	QuestaSim Version 10.6b
$end
$timescale
	1ps
$end

$scope module tb_top $end
$var parameter 32 ! ADDR_WIDTH $end
$var parameter 32 " DATA_WIDTH $end
$var parameter 32 # ID_WIDTH $end
$var reg 1 $ clk $end
$var reg 1 % rst_n $end

$scope module u_axi4_sva $end
$var parameter 32 & ADDR_WIDTH $end
$var parameter 32 ' DATA_WIDTH $end
$var parameter 32 ( ID_WIDTH $end
$var parameter 32 ) STRB_WIDTH $end
$var wire 1 * clk $end
$var wire 1 + rst_n $end
$var wire 1 , AWID [3] $end
$var wire 1 - AWID [2] $end
$var wire 1 . AWID [1] $end
$var wire 1 / AWID [0] $end
$var wire 1 0 AWADDR [31] $end
$var wire 1 1 AWADDR [30] $end
$var wire 1 2 AWADDR [29] $end
$var wire 1 3 AWADDR [28] $end
$var wire 1 4 AWADDR [27] $end
$var wire 1 5 AWADDR [26] $end
$var wire 1 6 AWADDR [25] $end
$var wire 1 7 AWADDR [24] $end
$var wire 1 8 AWADDR [23] $end
$var wire 1 9 AWADDR [22] $end
$var wire 1 : AWADDR [21] $end
$var wire 1 ; AWADDR [20] $end
$var wire 1 < AWADDR [19] $end
$var wire 1 = AWADDR [18] $end
$var wire 1 > AWADDR [17] $end
$var wire 1 ? AWADDR [16] $end
$var wire 1 @ AWADDR [15] $end
$var wire 1 A AWADDR [14] $end
$var wire 1 B AWADDR [13] $end
$var wire 1 C AWADDR [12] $end
$var wire 1 D AWADDR [11] $end
$var wire 1 E AWADDR [10] $end
$var wire 1 F AWADDR [9] $end
$var wire 1 G AWADDR [8] $end
$var wire 1 H AWADDR [7] $end
$var wire 1 I AWADDR [6] $end
$var wire 1 J AWADDR [5] $end
$var wire 1 K AWADDR [4] $end
$var wire 1 L AWADDR [3] $end
$var wire 1 M AWADDR [2] $end
$var wire 1 N AWADDR [1] $end
$var wire 1 O AWADDR [0] $end
$var wire 1 P AWLEN [7] $end
$var wire 1 Q AWLEN [6] $end
$var wire 1 R AWLEN [5] $end
$var wire 1 S AWLEN [4] $end
$var wire 1 T AWLEN [3] $end
$var wire 1 U AWLEN [2] $end
$var wire 1 V AWLEN [1] $end
$var wire 1 W AWLEN [0] $end
$var wire 1 X AWSIZE [2] $end
$var wire 1 Y AWSIZE [1] $end
$var wire 1 Z AWSIZE [0] $end
$var wire 1 [ AWBURST [1] $end
$var wire 1 \ AWBURST [0] $end
$var wire 1 ] AWLOCK $end
$var wire 1 ^ AWCACHE [3] $end
$var wire 1 _ AWCACHE [2] $end
$var wire 1 ` AWCACHE [1] $end
$var wire 1 a AWCACHE [0] $end
$var wire 1 b AWPROT [2] $end
$var wire 1 c AWPROT [1] $end
$var wire 1 d AWPROT [0] $end
$var wire 1 e AWQOS [3] $end
$var wire 1 f AWQOS [2] $end
$var wire 1 g AWQOS [1] $end
$var wire 1 h AWQOS [0] $end
$var wire 1 i AWREGION [3] $end
$var wire 1 j AWREGION [2] $end
$var wire 1 k AWREGION [1] $end
$var wire 1 l AWREGION [0] $end
$var wire 1 m AWVALID $end
$var wire 1 n AWREADY $end
$var wire 1 o WDATA [31] $end
$var wire 1 p WDATA [30] $end
$var wire 1 q WDATA [29] $end
$var wire 1 r WDATA [28] $end
$var wire 1 s WDATA [27] $end
$var wire 1 t WDATA [26] $end
$var wire 1 u WDATA [25] $end
$var wire 1 v WDATA [24] $end
$var wire 1 w WDATA [23] $end
$var wire 1 x WDATA [22] $end
$var wire 1 y WDATA [21] $end
$var wire 1 z WDATA [20] $end
$var wire 1 { WDATA [19] $end
$var wire 1 | WDATA [18] $end
$var wire 1 } WDATA [17] $end
$var wire 1 ~ WDATA [16] $end
$var wire 1 !! WDATA [15] $end
$var wire 1 "! WDATA [14] $end
$var wire 1 #! WDATA [13] $end
$var wire 1 $! WDATA [12] $end
$var wire 1 %! WDATA [11] $end
$var wire 1 &! WDATA [10] $end
$var wire 1 '! WDATA [9] $end
$var wire 1 (! WDATA [8] $end
$var wire 1 )! WDATA [7] $end
$var wire 1 *! WDATA [6] $end
$var wire 1 +! WDATA [5] $end
$var wire 1 ,! WDATA [4] $end
$var wire 1 -! WDATA [3] $end
$var wire 1 .! WDATA [2] $end
$var wire 1 /! WDATA [1] $end
$var wire 1 0! WDATA [0] $end
$var wire 1 1! WSTRB [3] $end
$var wire 1 2! WSTRB [2] $end
$var wire 1 3! WSTRB [1] $end
$var wire 1 4! WSTRB [0] $end
$var wire 1 5! WLAST $end
$var wire 1 6! WVALID $end
$var wire 1 7! WREADY $end
$var wire 1 8! BID [3] $end
$var wire 1 9! BID [2] $end
$var wire 1 :! BID [1] $end
$var wire 1 ;! BID [0] $end
$var wire 1 <! BRESP [1] $end
$var wire 1 =! BRESP [0] $end
$var wire 1 >! BVALID $end
$var wire 1 ?! BREADY $end
$var wire 1 @! ARID [3] $end
$var wire 1 A! ARID [2] $end
$var wire 1 B! ARID [1] $end
$var wire 1 C! ARID [0] $end
$var wire 1 D! ARADDR [31] $end
$var wire 1 E! ARADDR [30] $end
$var wire 1 F! ARADDR [29] $end
$var wire 1 G! ARADDR [28] $end
$var wire 1 H! ARADDR [27] $end
$var wire 1 I! ARADDR [26] $end
$var wire 1 J! ARADDR [25] $end
$var wire 1 K! ARADDR [24] $end
$var wire 1 L! ARADDR [23] $end
$var wire 1 M! ARADDR [22] $end
$var wire 1 N! ARADDR [21] $end
$var wire 1 O! ARADDR [20] $end
$var wire 1 P! ARADDR [19] $end
$var wire 1 Q! ARADDR [18] $end
$var wire 1 R! ARADDR [17] $end
$var wire 1 S! ARADDR [16] $end
$var wire 1 T! ARADDR [15] $end
$var wire 1 U! ARADDR [14] $end
$var wire 1 V! ARADDR [13] $end
$var wire 1 W! ARADDR [12] $end
$var wire 1 X! ARADDR [11] $end
$var wire 1 Y! ARADDR [10] $end
$var wire 1 Z! ARADDR [9] $end
$var wire 1 [! ARADDR [8] $end
$var wire 1 \! ARADDR [7] $end
$var wire 1 ]! ARADDR [6] $end
$var wire 1 ^! ARADDR [5] $end
$var wire 1 _! ARADDR [4] $end
$var wire 1 `! ARADDR [3] $end
$var wire 1 a! ARADDR [2] $end
$var wire 1 b! ARADDR [1] $end
$var wire 1 c! ARADDR [0] $end
$var wire 1 d! ARLEN [7] $end
$var wire 1 e! ARLEN [6] $end
$var wire 1 f! ARLEN [5] $end
$var wire 1 g! ARLEN [4] $end
$var wire 1 h! ARLEN [3] $end
$var wire 1 i! ARLEN [2] $end
$var wire 1 j! ARLEN [1] $end
$var wire 1 k! ARLEN [0] $end
$var wire 1 l! ARSIZE [2] $end
$var wire 1 m! ARSIZE [1] $end
$var wire 1 n! ARSIZE [0] $end
$var wire 1 o! ARBURST [1] $end
$var wire 1 p! ARBURST [0] $end
$var wire 1 q! ARLOCK $end
$var wire 1 r! ARCACHE [3] $end
$var wire 1 s! ARCACHE [2] $end
$var wire 1 t! ARCACHE [1] $end
$var wire 1 u! ARCACHE [0] $end
$var wire 1 v! ARPROT [2] $end
$var wire 1 w! ARPROT [1] $end
$var wire 1 x! ARPROT [0] $end
$var wire 1 y! ARQOS [3] $end
$var wire 1 z! ARQOS [2] $end
$var wire 1 {! ARQOS [1] $end
$var wire 1 |! ARQOS [0] $end
$var wire 1 }! ARREGION [3] $end
$var wire 1 ~! ARREGION [2] $end
$var wire 1 !" ARREGION [1] $end
$var wire 1 "" ARREGION [0] $end
$var wire 1 #" ARVALID $end
$var wire 1 $" ARREADY $end
$var wire 1 %" RID [3] $end
$var wire 1 &" RID [2] $end
$var wire 1 '" RID [1] $end
$var wire 1 (" RID [0] $end
$var wire 1 )" RDATA [31] $end
$var wire 1 *" RDATA [30] $end
$var wire 1 +" RDATA [29] $end
$var wire 1 ," RDATA [28] $end
$var wire 1 -" RDATA [27] $end
$var wire 1 ." RDATA [26] $end
$var wire 1 /" RDATA [25] $end
$var wire 1 0" RDATA [24] $end
$var wire 1 1" RDATA [23] $end
$var wire 1 2" RDATA [22] $end
$var wire 1 3" RDATA [21] $end
$var wire 1 4" RDATA [20] $end
$var wire 1 5" RDATA [19] $end
$var wire 1 6" RDATA [18] $end
$var wire 1 7" RDATA [17] $end
$var wire 1 8" RDATA [16] $end
$var wire 1 9" RDATA [15] $end
$var wire 1 :" RDATA [14] $end
$var wire 1 ;" RDATA [13] $end
$var wire 1 <" RDATA [12] $end
$var wire 1 =" RDATA [11] $end
$var wire 1 >" RDATA [10] $end
$var wire 1 ?" RDATA [9] $end
$var wire 1 @" RDATA [8] $end
$var wire 1 A" RDATA [7] $end
$var wire 1 B" RDATA [6] $end
$var wire 1 C" RDATA [5] $end
$var wire 1 D" RDATA [4] $end
$var wire 1 E" RDATA [3] $end
$var wire 1 F" RDATA [2] $end
$var wire 1 G" RDATA [1] $end
$var wire 1 H" RDATA [0] $end
$var wire 1 I" RRESP [1] $end
$var wire 1 J" RRESP [0] $end
$var wire 1 K" RLAST $end
$var wire 1 L" RVALID $end
$var wire 1 M" RREADY $end
$var reg 1 N" rst_seen $end
$var integer 32 O" w_beat_cnt $end
$var integer 32 P" r_beat_cnt $end

$scope begin RESET_AWVALID $end
$upscope $end

$scope begin RESET_WVALID $end
$upscope $end

$scope begin RESET_BVALID $end
$upscope $end

$scope begin RESET_ARVALID $end
$upscope $end

$scope begin RESET_RVALID $end
$upscope $end

$scope begin AWVALID_STABLE $end
$upscope $end

$scope begin WVALID_STABLE $end
$upscope $end

$scope begin BVALID_STABLE $end
$upscope $end

$scope begin ARVALID_STABLE $end
$upscope $end

$scope begin RVALID_STABLE $end
$upscope $end

$scope begin AW_PAYLOAD_STABLE $end
$upscope $end

$scope begin W_PAYLOAD_STABLE $end
$upscope $end

$scope begin B_PAYLOAD_STABLE $end
$upscope $end

$scope begin AR_PAYLOAD_STABLE $end
$upscope $end

$scope begin R_PAYLOAD_STABLE $end
$upscope $end

$scope begin AWVALID_KNOWN $end
$upscope $end

$scope begin WVALID_KNOWN $end
$upscope $end

$scope begin BVALID_KNOWN $end
$upscope $end

$scope begin ARVALID_KNOWN $end
$upscope $end

$scope begin RVALID_KNOWN $end
$upscope $end

$scope begin AWREADY_KNOWN $end
$upscope $end

$scope begin WREADY_KNOWN $end
$upscope $end

$scope begin BREADY_KNOWN $end
$upscope $end

$scope begin ARREADY_KNOWN $end
$upscope $end

$scope begin RREADY_KNOWN $end
$upscope $end

$scope begin WLAST_CORRECT_CHECK $end
$upscope $end

$scope begin WLAST_NOT_EARLY_CHECK $end
$upscope $end

$scope begin RLAST_CORRECT_CHECK $end
$upscope $end

$scope begin RLAST_NOT_EARLY_CHECK $end
$upscope $end

$scope begin RLAST_WITHOUT_AR $end
$upscope $end

$scope begin AWBURST_VALID $end
$upscope $end

$scope begin ARBURST_VALID $end
$upscope $end

$scope begin AWSIZE_VALID $end
$upscope $end

$scope begin ARSIZE_VALID $end
$upscope $end

$scope begin WRAP_AW_LEN $end
$upscope $end

$scope begin WRAP_AR_LEN $end
$upscope $end

$scope begin FIXED_AW_LEN $end
$upscope $end

$scope begin FIXED_AR_LEN $end
$upscope $end

$scope begin BRESP_KNOWN $end
$upscope $end

$scope begin RRESP_KNOWN $end
$upscope $end

$scope begin AW_HANDSHAKE_COV $end
$upscope $end

$scope begin W_HANDSHAKE_COV $end
$upscope $end

$scope begin B_HANDSHAKE_COV $end
$upscope $end

$scope begin AR_HANDSHAKE_COV $end
$upscope $end

$scope begin R_HANDSHAKE_COV $end
$upscope $end

$scope begin AW_BACKPRESSURE_COV $end
$upscope $end

$scope begin W_BACKPRESSURE_COV $end
$upscope $end

$scope begin B_BACKPRESSURE_COV $end
$upscope $end

$scope begin AR_BACKPRESSURE_COV $end
$upscope $end

$scope begin R_BACKPRESSURE_COV $end
$upscope $end

$scope begin WRITE_INCR_COV $end
$upscope $end

$scope begin WRITE_FIXED_COV $end
$upscope $end

$scope begin WRITE_WRAP_COV $end
$upscope $end

$scope begin READ_INCR_COV $end
$upscope $end

$scope begin READ_FIXED_COV $end
$upscope $end

$scope begin READ_WRAP_COV $end
$upscope $end

$scope begin SINGLE_WRITE_COV $end
$upscope $end

$scope begin SINGLE_READ_COV $end
$upscope $end

$scope begin MAX_WRITE_COV $end
$upscope $end

$scope begin MAX_READ_COV $end
$upscope $end
$upscope $end
$upscope $end
$enddefinitions $end
#0
$dumpvars
0$
0%
0N"
b100000 !
b100000 "
b100 #
b100000 &
b100000 '
b100 (
b100 )
b0 O"
b0 P"
0+
0*
x/
x.
x-
x,
xO
xN
xM
xL
xK
xJ
xI
xH
xG
xF
xE
xD
xC
xB
xA
x@
x?
x>
x=
x<
x;
x:
x9
x8
x7
x6
x5
x4
x3
x2
x1
x0
xW
xV
xU
xT
xS
xR
xQ
xP
xZ
xY
xX
x\
x[
x]
xa
x`
x_
x^
xd
xc
xb
xh
xg
xf
xe
xl
xk
xj
xi
xm
xn
x0!
x/!
x.!
x-!
x,!
x+!
x*!
x)!
x(!
x'!
x&!
x%!
x$!
x#!
x"!
x!!
x~
x}
x|
x{
xz
xy
xx
xw
xv
xu
xt
xs
xr
xq
xp
xo
x4!
x3!
x2!
x1!
x5!
x6!
x7!
x;!
x:!
x9!
x8!
x=!
x<!
x>!
x?!
xC!
xB!
xA!
x@!
xc!
xb!
xa!
x`!
x_!
x^!
x]!
x\!
x[!
xZ!
xY!
xX!
xW!
xV!
xU!
xT!
xS!
xR!
xQ!
xP!
xO!
xN!
xM!
xL!
xK!
xJ!
xI!
xH!
xG!
xF!
xE!
xD!
xk!
xj!
xi!
xh!
xg!
xf!
xe!
xd!
xn!
xm!
xl!
xp!
xo!
xq!
xu!
xt!
xs!
xr!
xx!
xw!
xv!
x|!
x{!
xz!
xy!
x""
x!"
x~!
x}!
x#"
x$"
x("
x'"
x&"
x%"
xH"
xG"
xF"
xE"
xD"
xC"
xB"
xA"
x@"
x?"
x>"
x="
x<"
x;"
x:"
x9"
x8"
x7"
x6"
x5"
x4"
x3"
x2"
x1"
x0"
x/"
x."
x-"
x,"
x+"
x*"
x)"
xJ"
xI"
xK"
xL"
xM"
$end
#5000
1$
1*
1N"
#6000
0m
06!
0?!
0#"
0M"
05!
0n
07!
0>!
0$"
0L"
0K"
#10000
0$
0*
#15000
1$
1*
#20000
0$
0*
#25000
1$
1*
#30000
0$
0*
#35000
1$
1*
#40000
0$
0*
#45000
1$
1*
#50000
0$
0*
#55000
1$
1*
#60000
0$
0*
#65000
1$
1*
#70000
0$
0*
#75000
1$
1*
#80000
0$
0*
#85000
1$
1*
#90000
0$
0*
#95000
1$
1*
1%
1+
#96000
17!
1?!
1M"
1#"
0q!
16!
14!
03!
12!
11!
10!
0/!
1.!
0-!
0,!
1+!
1*!
1)!
0(!
1'!
1&!
1%!
0$!
1#!
0"!
1!!
1~
1}
1|
0{
1z
0y
1x
0w
1v
1u
1t
1s
1r
1q
0p
1o
1""
1!"
1~!
0}!
0|!
1{!
1z!
0y!
1x!
0w!
0v!
1u!
1t!
0s!
0r!
0p!
0o!
0n!
0m!
0l!
0k!
0j!
0i!
0h!
0g!
0f!
0e!
0d!
0c!
1b!
0a!
1`!
0_!
1^!
1]!
1\!
0[!
1Z!
1Y!
1X!
0W!
0V!
1U!
1T!
0S!
1R!
0Q!
0P!
0O!
0N!
0M!
1L!
1K!
0J!
0I!
0H!
1G!
0F!
0E!
0D!
0C!
1B!
1A!
1@!
15!
#100000
0$
0*
#105000
1$
1*
#106000
06!
05!
07!
1$"
#110000
0$
0*
#115000
1$
1*
#116000
0#"
16!
04!
01!
1/!
1-!
1,!
1(!
1$!
1"!
1y
0x
1w
0u
0t
0o
15!
0$"
17!
#120000
0$
0*
#125000
1$
1*
#126000
06!
05!
1#"
1q!
0J"
0I"
0H"
0G"
0F"
0E"
0D"
0C"
0B"
0A"
0@"
0?"
0>"
0="
0<"
0;"
0:"
09"
08"
07"
06"
05"
04"
03"
02"
01"
00"
0/"
0."
0-"
0,"
0+"
0*"
0)"
0("
1'"
1&"
1%"
0!"
1}!
1|!
0{!
1w!
0u!
0t!
1s!
1r!
1n!
1c!
0b!
0`!
1_!
0]!
1[!
0Z!
0Y!
0X!
1W!
1V!
0T!
1Q!
1O!
0L!
1I!
1D!
0A!
0@!
1K"
1L"
07!
#130000
0$
0*
#135000
1$
1*
#136000
16!
14!
13!
00!
0-!
0,!
0+!
0*!
0)!
0%!
0$!
0#!
0"!
0!!
0z
0w
15!
1$"
17!
0L"
0K"
#140000
0$
0*
#145000
1$
1*
#146000
06!
05!
1m
0]
1l
0k
1j
0i
0h
0g
1f
0e
0d
1c
0b
1a
0`
1_
1^
0\
0[
0Z
0Y
0X
0W
0V
0U
0T
0S
0R
0Q
0P
1O
1N
1M
0L
0K
1J
0I
0H
1G
1F
1E
0D
1C
0B
1A
0@
0?
0>
0=
1<
0;
1:
19
18
17
16
05
14
03
02
01
00
1/
0.
1-
1,
0#"
07!
0$"
#150000
0$
0*
#155000
1$
1*
#156000
1#"
16!
1J"
0&"
0%"
04!
10!
0.!
1,!
1*!
0(!
0&!
1%!
1#!
0~
0}
1{
0y
1x
1u
1t
0r
0q
0""
0|!
1{!
0z!
1y!
1t!
0s!
0n!
1m!
1b!
0^!
1]!
0[!
1Z!
1Y!
0W!
0U!
0R!
0Q!
1P!
0O!
1L!
0K!
1J!
1H!
0G!
1F!
0D!
0B!
1A!
1K"
1L"
17!
1n
#160000
0$
0*
#165000
1$
1*
b1 O"
#166000
0m
0n
07!
1$"
0L"
0K"
#170000
0$
0*
#175000
1$
1*
#176000
0#"
1m
15!
0=!
0<!
1;!
0:!
19!
18!
14!
11!
0/!
1-!
0*!
1)!
0'!
1$!
0#!
1"!
1!!
1~
1}
0|
0x
1w
0v
0s
1r
1q
1p
1o
0l
1i
1g
1e
0^
1Z
0M
1K
1I
0E
1D
1B
1?
1>
1;
09
07
06
15
04
13
12
11
0/
0-
1>!
0$"
17!
#180000
0$
0*
#185000
1$
1*
b0 O"
#186000
06!
05!
1#"
0'"
1&"
1|!
0{!
0y!
0x!
0w!
1v!
0m!
1k!
0c!
0b!
1a!
0_!
0]!
0Y!
1X!
1W!
0V!
0P!
1O!
1N!
1M!
0L!
1K!
0I!
0H!
0F!
1E!
1D!
1@!
1K"
1L"
1n
07!
0>!
#190000
0$
0*
#195000
1$
1*
#196000
0m
16!
03!
0-!
1*!
1&!
0%!
0$!
1|
1z
0w
1v
0u
0t
1s
0r
0q
1$"
17!
0n
0L"
0K"
#200000
0$
0*
#205000
1$
1*
b1 O"
#206000
0#"
0;!
09!
1>!
07!
0$"
#210000
0$
0*
#215000
1$
1*
#216000
1#"
15!
1%"
13!
00!
1+!
1'!
1%!
1$!
0"!
0}
0{
0z
1y
1x
1w
0v
0s
0p
1""
1!"
1z!
1y!
1x!
0t!
1s!
1n!
1c!
1`!
1_!
1]!
1[!
0X!
0W!
1U!
1S!
1Q!
1P!
0N!
1L!
1I!
1H!
1G!
1F!
0E!
0D!
1B!
1L"
17!
0>!
#220000
0$
0*
#225000
1$
1*
b1 P"
b0 O"
#226000
06!
05!
1m
1]
1k
0j
0i
1h
0f
0c
0a
1`
1^
0Z
1Y
1L
0J
1H
0G
0C
0B
1@
0>
0<
0;
0:
19
08
05
14
07!
1$"
0L"
#230000
0$
0*
#235000
1$
1*
#236000
0#"
16!
1/!
1.!
0,!
0$!
1"!
0!!
1{
1z
0y
1v
1s
1r
1p
1K"
1L"
0$"
17!
1n
#240000
0$
0*
#245000
1$
1*
b0 P"
b1 O"
#246000
0m
1#"
0q!
0""
0!"
0~!
0}!
0|!
0y!
1w!
0v!
0s!
0r!
0n!
1m!
0c!
1b!
0a!
0_!
1^!
0]!
0\!
0[!
0Z!
1W!
1V!
0U!
0S!
0Q!
0P!
0O!
0L!
0K!
0F!
1E!
1D!
1C!
0B!
0A!
0@!
0n
07!
0L"
0K"
#250000
0$
0*
#255000
1$
1*
#256000
1m
15!
1>!
1'"
01!
10!
0.!
1,!
0+!
0*!
0'!
0%!
1#!
0"!
1!!
1}
0{
0z
1y
0x
1t
1q
0o
1l
0k
1i
0e
1d
1c
1b
1a
0^
0Y
1W
0O
0N
1M
1J
0I
0H
1G
1E
0A
0@
1;
09
03
02
01
1-
0,
1L"
1$"
17!
#260000
0$
0*
#265000
1$
1*
b1 P"
b0 O"
#266000
06!
05!
0#"
1n
07!
0$"
0L"
0>!
#270000
0$
0*
#275000
1$
1*
#276000
1#"
0m
16!
04!
02!
11!
00!
1-!
0,!
1*!
0)!
0&!
1%!
1$!
1"!
0!!
0~
0}
0|
1{
0y
1x
0v
1u
1""
1!"
0x!
1v!
1u!
1t!
1s!
1r!
0m!
1j!
1c!
1a!
1_!
0^!
1]!
1[!
1Z!
1Y!
1X!
0W!
1U!
1R!
1Q!
1P!
1L!
0J!
0H!
0G!
0C!
1K"
1L"
17!
0n
#280000
0$
0*
#285000
1$
1*
b0 P"
b1 O"
#286000
19!
08!
1>!
07!
1$"
0L"
0K"
#290000
0$
0*
#295000
1$
1*
#296000
0#"
0J"
1("
0'"
0&"
0%"
0-!
1+!
1&!
0%!
0$!
0#!
0"!
1~
1}
0{
1z
1y
0w
1v
0q
0p
1o
1L"
0$"
17!
0>!
#300000
0$
0*
#305000
1$
1*
b10 O"
b1 P"
#306000
1#"
1q!
0""
0!"
1~!
1}!
0z!
1x!
0w!
0u!
0t!
0s!
0r!
1n!
0a!
0`!
1^!
0]!
1\!
0Y!
1W!
0V!
0R!
0P!
0M!
1J!
0I!
1H!
1F!
0D!
1C!
1A!
07!
0L"
#310000
0$
0*
#315000
1$
1*
#316000
14!
12!
01!
10!
0/!
1.!
1,!
0+!
0*!
0&!
0}
0y
1w
0u
0r
1q
1p
0o
1K"
1L"
1$"
17!
#320000
0$
0*
#325000
1$
1*
b11 O"
b0 P"
#326000
1m
1k
1j
0g
1f
0b
0`
0_
1^
1Z
1O
1I
0G
0E
0?
1>
1=
1<
0;
1:
19
16
15
04
11
1/
1,
0#"
07!
0$"
0L"
0K"
#330000
0$
0*
#335000
1$
1*
#336000
1#"
15!
0("
11!
00!
0.!
1-!
1+!
1*!
1'!
1&!
1$!
1#!
0~
1}
1{
0z
1y
0v
1u
0t
0q
1o
1""
1!"
0}!
0x!
0v!
1u!
1r!
0n!
1m!
0b!
1a!
1`!
0[!
0Z!
0X!
0Q!
1O!
0L!
0H!
0E!
0C!
1B!
1L"
17!
1n
#340000
0$
0*
#345000
1$
1*
b1 P"
b0 O"
#346000
06!
05!
0m
0n
07!
1$"
0L"
#350000
0$
0*
#355000
1$
1*
#356000
0#"
1m
16!
1;!
18!
03!
02!
1.!
0-!
0+!
1(!
0&!
1%!
0$!
0#!
1"!
1~
1|
0{
1z
1v
1t
0s
1r
1q
0p
0o
0k
0h
1e
0c
1`
0Z
1Y
0O
0M
0K
0I
1H
1E
1A
1@
1?
0>
1;
09
18
06
05
01
10
0/
1.
0,
1>!
1L"
0$"
17!
#360000
0$
0*
#365000
1$
1*
b10 P"
b1 O"
#366000
1#"
0""
0!"
0~!
1}!
1|!
1{!
1z!
1w!
0u!
1s!
0m!
1i!
0_!
1X!
0W!
0U!
1T!
1R!
1Q!
1P!
1K!
0J!
1I!
1H!
1G!
1E!
1C!
0B!
1@!
1n
07!
0L"
0>!
#370000
0$
0*
#375000
1$
1*
#376000
0m
10!
1/!
0,!
0*!
1)!
0(!
1&!
1$!
0"!
1!!
0}
0|
0x
0v
0u
0t
1L"
1$"
17!
0n
#380000
0$
0*
#385000
1$
1*
b10 O"
b11 P"
#386000
1m
0]
0#"
0;!
1:!
08!
1k
0j
0i
1h
0f
0a
0`
1_
0Y
1V
1O
1M
0L
1K
0J
1I
0H
1G
0E
0A
0=
0;
19
16
14
13
11
00
1,
1>!
07!
0$"
0L"
#390000
0$
0*
#395000
1$
1*
#396000
1#"
0q!
04!
13!
01!
0/!
1,!
1+!
0)!
1(!
0'!
0%!
0$!
1}
1|
0z
1x
0w
1v
1u
1t
1s
0r
1""
1~!
1x!
1u!
0s!
1n!
0c!
1b!
0a!
1_!
1]!
0\!
1[!
1Z!
1Y!
1W!
1U!
0R!
0Q!
0O!
1N!
1M!
0C!
0A!
1K"
1L"
17!
1n
0>!
#400000
0$
0*
#405000
1$
1*
b11 O"
b0 P"
#406000
0m
0n
07!
1$"
0L"
0K"
#410000
0$
0*
#415000
1$
1*
#416000
0#"
1m
15!
1>!
1J"
1("
1&"
18!
03!
12!
11!
00!
0.!
0,!
1)!
0(!
1'!
0&!
1%!
1$!
1"!
0!!
0~
0}
0|
1{
0v
0t
1o
0l
0k
1j
0e
0d
1c
1b
0^
1Z
1L
1J
1H
1B
0@
1>
1=
1;
0:
08
17
06
04
0.
0-
1L"
0$"
17!
#420000
0$
0*
#425000
1$
1*
b1 P"
b0 O"
#426000
06!
05!
1#"
1q!
1!"
0{!
1v!
1t!
0n!
1m!
1c!
1a!
1\!
0Z!
1V!
0U!
0T!
1R!
0K!
1J!
0H!
0G!
0F!
0@!
1n
07!
0L"
0>!
#430000
0$
0*
#435000
1$
1*
#436000
0m
16!
01!
1.!
1-!
1*!
0)!
1(!
0%!
0$!
1#!
1|
0{
0x
1w
0s
1L"
1$"
17!
0n
#440000
0$
0*
#445000
1$
1*
b10 P"
b1 O"
#446000
0#"
0:!
09!
1>!
07!
0$"
0L"
#450000
0$
0*
#455000
1$
1*
#456000
1#"
14!
10!
0.!
0-!
1)!
1&!
1~
1}
0|
1{
1v
1s
1r
0o
0""
0~!
0}!
0|!
1{!
0w!
0v!
0t!
0m!
1h!
0c!
0b!
0`!
0_!
0^!
0[!
0Y!
0W!
0V!
1U!
1T!
0R!
1O!
1L!
0J!
0I!
1B!
1L"
17!
0>!
#460000
0$
0*
#465000
1$
1*
b10 O"
b11 P"
#466000
1m
1k
0j
1i
1e
0c
1^
0Z
1Y
0O
1N
0J
0I
0G
0F
0D
1C
1@
0?
0>
0;
07
16
15
01
10
1.
1-
07!
1$"
0L"
#470000
0$
0*
#475000
1$
1*
#476000
0#"
04!
02!
11!
1/!
0+!
0)!
0'!
1%!
1$!
0"!
0}
0{
1z
0w
0u
1t
0s
0r
1K"
1L"
0$"
17!
1n
#480000
0$
0*
#485000
1$
1*
b11 O"
b0 P"
#486000
0m
1#"
0q!
1""
0z!
1y!
1v!
0u!
1t!
1s!
1n!
1c!
1b!
1`!
0\!
1Z!
0X!
1V!
0U!
0T!
1S!
0N!
0L!
1K!
1I!
1G!
1F!
0E!
1D!
1C!
0B!
1A!
0n
07!
0L"
0K"
#490000
0$
0*
#495000
1$
1*
#496000
1m
1]
15!
0("
1'"
14!
13!
12!
01!
00!
1.!
1+!
1)!
0(!
0&!
0#!
1}
1|
0y
0v
0k
0h
1g
0e
1d
1c
0b
0Y
1U
1O
0N
0L
1J
1F
1?
0=
0<
1;
09
18
17
06
14
03
1/
0-
1L"
1$"
17!
#500000
0$
0*
#505000
1$
1*
b1 P"
b0 O"
#506000
06!
05!
0#"
1n
07!
0$"
0L"
#510000
0$
0*
#515000
1$
1*
#516000
1#"
1}!
1z!
1w!
0v!
0s!
0r!
0n!
1m!
0b!
0a!
0`!
0]!
1Y!
1W!
0V!
1U!
1T!
0S!
1R!
0O!
0M!
1L!
0K!
1H!
1E!
0D!
1B!
1@!
0m
1L"
17!
0n
#520000
0$
0*
#525000
1$
1*
b10 P"
#526000
16!
1:!
19!
04!
03!
0.!
1,!
0)!
1(!
1&!
1"!
0}
1{
0t
1r
0q
1>!
1$"
0L"
#530000
0$
0*
#535000
1$
1*
b1 O"
#536000
0#"
1L"
0$"
07!
0>!
#540000
0$
0*
#545000
1$
1*
b11 P"
#546000
1#"
1~!
0}!
1|!
0y!
0x!
0w!
1u!
1s!
1r!
1o!
0m!
0j!
0i!
0h!
1]!
0Z!
0W!
0U!
0R!
1M!
0I!
0H!
0F!
1D!
14!
13!
10!
1.!
0,!
0*!
1'!
0%!
0"!
1!!
1}
0|
0{
1x
1v
1s
1p
1o
17!
0L"
#550000
0$
0*
#555000
1$
1*
b10 O"
#556000
1K"
1L"
1$"
07!
#560000
0$
0*
#565000
1$
1*
b0 P"
#566000
04!
02!
11!
00!
1-!
1,!
0+!
1*!
1)!
1%!
0$!
1"!
0!!
1{
0z
1y
1w
1u
1t
0s
0r
0p
0o
0#"
17!
0$"
0L"
0K"
#570000
0$
0*
#575000
1$
1*
b11 O"
#576000
1#"
1("
0'"
1%"
0""
1}!
0{!
0z!
1x!
1v!
0t!
1n!
0c!
1b!
1a!
1`!
0]!
1\!
1Z!
1W!
1V!
1U!
1S!
1R!
1Q!
1O!
1N!
0M!
0L!
1I!
0G!
1F!
0E!
0D!
0C!
1L"
07!
#580000
0$
0*
#585000
1$
1*
b1 P"
#586000
03!
01!
10!
0.!
0,!
0(!
0'!
0&!
0%!
0"!
1!!
0y
0x
0w
0v
0t
1p
17!
1$"
0L"
#590000
0$
0*
#595000
1$
1*
b100 O"
#596000
0#"
1L"
0$"
07!
#600000
0$
0*
#605000
1$
1*
b10 P"
#606000
1#"
0|!
1{!
1y!
0x!
1w!
1t!
0s!
0r!
0n!
1m!
0b!
1^!
1]!
1[!
1X!
0V!
0T!
0R!
0Q!
0P!
1M!
1J!
0I!
1E!
0B!
0A!
0@!
14!
13!
11!
00!
0-!
1,!
0*!
0)!
1(!
1&!
1%!
1$!
1#!
1"!
0~
0}
1z
1v
1r
1o
17!
0L"
#610000
0$
0*
#615000
1$
1*
b101 O"
#616000
1L"
1$"
07!
#620000
0$
0*
#625000
1$
1*
b11 P"
#626000
10!
0/!
1-!
1*!
1)!
0(!
1'!
0!!
1}
0z
1x
1w
0v
1s
1q
0p
0o
0#"
17!
0$"
0L"
#630000
0$
0*
