sim/report/logs/axi4_reset_mid_burst_test_run_5_seed_11240585.log
# vsim -c -coverage -sv_seed 11240585 "+UVM_TESTNAME=axi4_reset_mid_burst_test" "+UVM_VERBOSITY=UVM_HIGH" "+DUMP_VCD" -l ./report/logs/axi4_reset_mid_burst_test_run_5_seed_11240585.log -do "coverage save -onexit ./report/coverage/axi4_reset_mid_burst_test_run_5_seed_11240585.ucdb; run -all; quit -f" opt_tb_top 
# Start time: 14:43:30 on Jul 08,2026
# //  Questa Sim-64
# //  Version 10.6b linux_x86_64 May 25 2017
# //
# //  Copyright 1991-2017 Mentor Graphics Corporation
# //  All Rights Reserved.
# //
# //  QuestaSim and its associated documentation contain trade
# //  secrets and commercial or financial information that are the property of
# //  Mentor Graphics Corporation and are privileged, confidential,
# //  and exempt from disclosure under the Freedom of Information Act,
# //  5 U.S.C. Section 552. Furthermore, this information
# //  is prohibited from disclosure under the Trade Secrets Act,
# //  18 U.S.C. Section 1905.
# //
# Loading sv_std.std
# Loading work.axi4_if(fast)
# Loading mtiUvm.uvm_pkg
# Loading work.axi4_pkg(fast)
# Loading work.axi4_test_pkg(fast)
# Loading work.tb_top(fast)
# Loading work.axi4_if(fast)
# Loading work.axi4_sva(fast)
# Loading mtiUvm.questa_uvm_pkg(fast)
# Loading /cadtools/mentor/Questa_10.6b/questasim/uvm-1.1d/linux_x86_64/uvm_dpi.so
# coverage save -onexit ./report/coverage/axi4_reset_mid_burst_test_run_5_seed_11240585.ucdb
#  run -all
# ----------------------------------------------------------------
# UVM-1.1d
# (C) 2007-2013 Mentor Graphics Corporation
# (C) 2007-2013 Cadence Design Systems, Inc.
# (C) 2006-2013 Synopsys, Inc.
# (C) 2011-2013 Cypress Semiconductor Corp.
# ----------------------------------------------------------------
# 
#   ***********       IMPORTANT RELEASE NOTES         ************
# 
#   You are using a version of the UVM library that has been compiled
#   with `UVM_NO_DEPRECATED undefined.
#   See http://www.eda.org/svdb/view.php?id=3313 for more details.
# 
#   You are using a version of the UVM library that has been compiled
#   with `UVM_OBJECT_MUST_HAVE_CONSTRUCTOR undefined.
#   See http://www.eda.org/svdb/view.php?id=3770 for more details.
# 
#       (Specify +UVM_NO_RELNOTES to turn off this notice)
# 
# UVM_INFO verilog_src/questa_uvm_pkg-1.2/src/questa_uvm_pkg.sv(215) @ 0: reporter [Questa UVM] QUESTA_UVM-1.2.3
# UVM_INFO verilog_src/questa_uvm_pkg-1.2/src/questa_uvm_pkg.sv(217) @ 0: reporter [Questa UVM]  questa_uvm::init(+struct)
# UVM_INFO ../src/tb_top.sv(147) @ 0: reporter [TB_TOP] Virtual interface set in config_db
# UVM_INFO @ 0: reporter [RNTST] Running test axi4_reset_mid_burst_test...
# UVM_INFO ../src/tb_top.sv(161) @ 0: reporter [TB_TOP] Waveform VCD dumping enabled (axi4_vip.vcd)
# UVM_INFO ../src/env/axi4_vip_env.sv(83) @ 0: uvm_test_top.env [axi4_vip_env] slave_vif not set - reusing master_vif (passthrough mode)
# UVM_INFO ../src/env/axi4_vip_env.sv(100) @ 0: uvm_test_top.env [axi4_vip_env] Coverage collectors created
# UVM_INFO ../src/mst/axi4_master_agent.sv(69) @ 0: uvm_test_top.env.master_agent [axi4_master_agent] ACTIVE mode - driver + sequencer created
# UVM_INFO ../src/slv/axi4_slave_agent.sv(82) @ 0: uvm_test_top.env.slave_agent [axi4_slave_agent] ACTIVE mode - ready_delay=[0:0] resp_delay=[0:0]
# UVM_INFO ../src/env/axi4_vip_env.sv(124) @ 0: uvm_test_top.env [axi4_vip_env] Coverage connected: master_mon.ap -> master_cov, slave_mon.ap -> slave_cov
# UVM_INFO @ 0: reporter [UVMTOP] UVM testbench topology:
# -----------------------------------------------------------------
# Name                       Type                       Size  Value
# -----------------------------------------------------------------
# uvm_test_top               axi4_reset_mid_burst_test  -     @475 
#   env                      axi4_vip_env               -     @490 
#     master_agent           axi4_master_agent          -     @505 
#       drv                  axi4_master_driver         -     @562 
#         rsp_port           uvm_analysis_port          -     @577 
#         seq_item_port      uvm_seq_item_pull_port     -     @569 
#       mon                  axi4_master_monitor        -     @554 
#         ap                 uvm_analysis_port          -     @695 
#       sqr                  axi4_master_sequencer      -     @585 
#         rsp_export         uvm_analysis_export        -     @592 
#         seq_item_export    uvm_seq_item_pull_imp      -     @686 
#         arbitration_queue  array                      0     -    
#         lock_queue         array                      0     -    
#         num_last_reqs      integral                   32    'd1  
#         num_last_rsps      integral                   32    'd1  
#     master_cov             axi4_coverage              -     @519 
#       analysis_imp         uvm_analysis_imp           -     @526 
#     slave_agent            axi4_slave_agent           -     @512 
#       drv                  axi4_slave_driver          -     @732 
#         rsp_port           uvm_analysis_port          -     @747 
#         seq_item_port      uvm_seq_item_pull_port     -     @739 
#       mon                  axi4_slave_monitor         -     @714 
#         ap                 uvm_analysis_port          -     @871 
#       sqr                  axi4_slave_sequencer       -     @755 
#         rsp_export         uvm_analysis_export        -     @762 
#         seq_item_export    uvm_seq_item_pull_imp      -     @856 
#         arbitration_queue  array                      0     -    
#         lock_queue         array                      0     -    
#         num_last_reqs      integral                   32    'd1  
#         num_last_rsps      integral                   32    'd1  
#     slave_cov              axi4_coverage              -     @534 
#       analysis_imp         uvm_analysis_imp           -     @541 
# -----------------------------------------------------------------
# 
# UVM_INFO verilog_src/questa_uvm_pkg-1.2/src/questa_uvm_pkg.sv(277) @ 0: reporter [Questa UVM] End Of Elaboration
# UVM_INFO ../src/test/axi4_reset_mid_burst_test.sv(45) @ 0: uvm_test_top [axi4_reset_mid_burst_test] Starting mid-burst reset recovery test
# UVM_INFO ../src/seq/axi4_reset_traffic_seq.sv(43) @ 0: uvm_test_top.env.master_agent.sqr@@traffic_seq [axi4_reset_traffic_seq] Background reset-traffic sequence started (30 bursts, fire-and-forget)
# UVM_INFO ../src/tb_top.sv(49) @ 95000: reporter [TOP_TB] Reset de-asserted
# UVM_INFO ../src/slv/axi4_slave_driver.sv(131) @ 95000: uvm_test_top.env.slave_agent.drv [axi4_slave_driver] Reset deasserted - slave driver active
# UVM_INFO ../src/mst/axi4_master_driver.sv(64) @ 95000: uvm_test_top.env.master_agent.drv [axi4_master_driver] Reset deasserted - master driver active
# UVM_INFO ../src/mst/axi4_master_monitor.sv(77) @ 95000: uvm_test_top.env.master_agent.mon [axi4_master_monitor] Reset deasserted - monitor active
# UVM_INFO ../src/slv/axi4_slave_monitor.sv(71) @ 95000: uvm_test_top.env.slave_agent.mon [axi4_slave_monitor] Reset deasserted - monitor active
# UVM_INFO ../src/mst/axi4_master_driver.sv(73) @ 95000: uvm_test_top.env.master_agent.drv [axi4_master_driver] Driving AXI4_WRITE  ID=0xc  ADDR=0x00008346  LEN=3
# UVM_INFO ../src/mst/axi4_master_driver.sv(73) @ 95000: uvm_test_top.env.master_agent.drv [axi4_master_driver] Driving AXI4_WRITE  ID=0x8  ADDR=0x0000895f  LEN=7
# UVM_INFO ../src/mst/axi4_master_driver.sv(73) @ 95000: uvm_test_top.env.master_agent.drv [axi4_master_driver] Driving AXI4_WRITE  ID=0xf  ADDR=0x00008d95  LEN=3
# UVM_INFO ../src/mst/axi4_master_driver.sv(73) @ 95000: uvm_test_top.env.master_agent.drv [axi4_master_driver] Driving AXI4_WRITE  ID=0x9  ADDR=0x0000881a  LEN=7
# UVM_INFO ../src/mst/axi4_master_driver.sv(73) @ 95000: uvm_test_top.env.master_agent.drv [axi4_master_driver] Driving AXI4_READ  ID=0xa  ADDR=0x00008194  LEN=7
# UVM_INFO ../src/mst/axi4_master_driver.sv(73) @ 95000: uvm_test_top.env.master_agent.drv [axi4_master_driver] Driving AXI4_READ  ID=0x6  ADDR=0x00008923  LEN=3
# UVM_INFO ../src/mst/axi4_master_driver.sv(73) @ 95000: uvm_test_top.env.master_agent.drv [axi4_master_driver] Driving AXI4_WRITE  ID=0x9  ADDR=0x00008591  LEN=7
# UVM_INFO ../src/mst/axi4_master_driver.sv(73) @ 95000: uvm_test_top.env.master_agent.drv [axi4_master_driver] Driving AXI4_WRITE  ID=0x8  ADDR=0x000082b1  LEN=7
# UVM_INFO ../src/mst/axi4_master_driver.sv(73) @ 95000: uvm_test_top.env.master_agent.drv [axi4_master_driver] Driving AXI4_WRITE  ID=0xa  ADDR=0x00008934  LEN=7
# UVM_INFO ../src/mst/axi4_master_driver.sv(73) @ 95000: uvm_test_top.env.master_agent.drv [axi4_master_driver] Driving AXI4_READ  ID=0xc  ADDR=0x000081b9  LEN=3
# UVM_INFO ../src/mst/axi4_master_driver.sv(73) @ 95000: uvm_test_top.env.master_agent.drv [axi4_master_driver] Driving AXI4_READ  ID=0xc  ADDR=0x00008b6e  LEN=7
# UVM_INFO ../src/mst/axi4_master_driver.sv(73) @ 95000: uvm_test_top.env.master_agent.drv [axi4_master_driver] Driving AXI4_READ  ID=0xb  ADDR=0x00008e53  LEN=7
# UVM_INFO ../src/mst/axi4_master_driver.sv(73) @ 95000: uvm_test_top.env.master_agent.drv [axi4_master_driver] Driving AXI4_WRITE  ID=0x6  ADDR=0x000082da  LEN=7
# UVM_INFO ../src/mst/axi4_master_driver.sv(73) @ 95000: uvm_test_top.env.master_agent.drv [axi4_master_driver] Driving AXI4_WRITE  ID=0x1  ADDR=0x0000883a  LEN=7
# UVM_INFO ../src/mst/axi4_master_driver.sv(73) @ 95000: uvm_test_top.env.master_agent.drv [axi4_master_driver] Driving AXI4_WRITE  ID=0xe  ADDR=0x00008a5e  LEN=7
# UVM_INFO ../src/mst/axi4_master_driver.sv(73) @ 95000: uvm_test_top.env.master_agent.drv [axi4_master_driver] Driving AXI4_READ  ID=0xf  ADDR=0x00008408  LEN=7
# UVM_INFO ../src/mst/axi4_master_driver.sv(73) @ 95000: uvm_test_top.env.master_agent.drv [axi4_master_driver] Driving AXI4_WRITE  ID=0x2  ADDR=0x0000821d  LEN=7
# UVM_INFO ../src/mst/axi4_master_driver.sv(73) @ 95000: uvm_test_top.env.master_agent.drv [axi4_master_driver] Driving AXI4_WRITE  ID=0xa  ADDR=0x00008ef5  LEN=3
# UVM_INFO ../src/mst/axi4_master_driver.sv(73) @ 95000: uvm_test_top.env.master_agent.drv [axi4_master_driver] Driving AXI4_WRITE  ID=0xb  ADDR=0x00008d86  LEN=7
# UVM_INFO ../src/mst/axi4_master_driver.sv(73) @ 95000: uvm_test_top.env.master_agent.drv [axi4_master_driver] Driving AXI4_WRITE  ID=0xb  ADDR=0x000084bf  LEN=7
# UVM_INFO ../src/mst/axi4_master_driver.sv(73) @ 95000: uvm_test_top.env.master_agent.drv [axi4_master_driver] Driving AXI4_READ  ID=0x1  ADDR=0x000082d7  LEN=7
# UVM_INFO ../src/mst/axi4_master_driver.sv(73) @ 95000: uvm_test_top.env.master_agent.drv [axi4_master_driver] Driving AXI4_WRITE  ID=0x0  ADDR=0x00008f0e  LEN=7
# UVM_INFO ../src/mst/axi4_master_driver.sv(73) @ 95000: uvm_test_top.env.master_agent.drv [axi4_master_driver] Driving AXI4_WRITE  ID=0x8  ADDR=0x00008e3c  LEN=3
# UVM_INFO ../src/mst/axi4_master_driver.sv(73) @ 95000: uvm_test_top.env.master_agent.drv [axi4_master_driver] Driving AXI4_WRITE  ID=0x9  ADDR=0x00008bd5  LEN=7
# UVM_INFO ../src/mst/axi4_master_driver.sv(73) @ 95000: uvm_test_top.env.master_agent.drv [axi4_master_driver] Driving AXI4_READ  ID=0x3  ADDR=0x00008704  LEN=7
# UVM_INFO ../src/mst/axi4_master_driver.sv(73) @ 95000: uvm_test_top.env.master_agent.drv [axi4_master_driver] Driving AXI4_WRITE  ID=0x9  ADDR=0x00008aa8  LEN=3
# UVM_INFO ../src/mst/axi4_master_driver.sv(73) @ 95000: uvm_test_top.env.master_agent.drv [axi4_master_driver] Driving AXI4_READ  ID=0xe  ADDR=0x00008b47  LEN=7
# UVM_INFO ../src/mst/axi4_master_driver.sv(73) @ 95000: uvm_test_top.env.master_agent.drv [axi4_master_driver] Driving AXI4_WRITE  ID=0xe  ADDR=0x000081ab  LEN=7
# UVM_INFO ../src/mst/axi4_master_driver.sv(73) @ 95000: uvm_test_top.env.master_agent.drv [axi4_master_driver] Driving AXI4_READ  ID=0x4  ADDR=0x00008911  LEN=7
# UVM_INFO ../src/mst/axi4_master_driver.sv(73) @ 95000: uvm_test_top.env.master_agent.drv [axi4_master_driver] Driving AXI4_WRITE  ID=0xc  ADDR=0x00008ad0  LEN=7
# UVM_INFO ../src/slv/axi4_slave_driver.sv(386) @ 115000: uvm_test_top.env.slave_agent.drv [axi4_slave_driver] AR received: ID=0xa ADDR=0x00008194 LEN=7 LOCK=AXI4_LOCK_NORMAL
# UVM_INFO ../src/slv/axi4_slave_driver.sv(228) @ 115000: uvm_test_top.env.slave_agent.drv [axi4_slave_driver] AW received: ID=0xc ADDR=0x00008346 LEN=3 LOCK=AXI4_LOCK_NORMAL
# UVM_INFO ../src/slv/axi4_slave_monitor.sv(224) @ 115000: uvm_test_top.env.slave_agent.mon [axi4_slave_monitor] AR received: ID=0xa ADDR=0x00008194 LEN=7
# UVM_INFO ../src/slv/axi4_slave_monitor.sv(116) @ 115000: uvm_test_top.env.slave_agent.mon [axi4_slave_monitor] AW received: ID=0xc ADDR=0x00008346 LEN=3
# UVM_INFO ../src/mst/axi4_master_monitor.sv(246) @ 115000: uvm_test_top.env.master_agent.mon [axi4_master_monitor] AR observed: ID=0xa ADDR=0x00008194 LEN=7
# UVM_INFO ../src/mst/axi4_master_monitor.sv(124) @ 115000: uvm_test_top.env.master_agent.mon [axi4_master_monitor] AW observed: ID=0xc ADDR=0x00008346 LEN=3
# UVM_INFO ../src/slv/axi4_slave_driver.sv(386) @ 145000: uvm_test_top.env.slave_agent.drv [axi4_slave_driver] AR received: ID=0x6 ADDR=0x00008923 LEN=3 LOCK=AXI4_LOCK_NORMAL
# UVM_INFO ../src/mst/axi4_master_monitor.sv(246) @ 145000: uvm_test_top.env.master_agent.mon [axi4_master_monitor] AR observed: ID=0x6 ADDR=0x00008923 LEN=3
# UVM_INFO ../src/slv/axi4_slave_monitor.sv(224) @ 145000: uvm_test_top.env.slave_agent.mon [axi4_slave_monitor] AR received: ID=0x6 ADDR=0x00008923 LEN=3
# UVM_INFO ../src/slv/axi4_slave_driver.sv(386) @ 175000: uvm_test_top.env.slave_agent.drv [axi4_slave_driver] AR received: ID=0xc ADDR=0x000081b9 LEN=3 LOCK=AXI4_LOCK_NORMAL
# UVM_INFO ../src/slv/axi4_slave_monitor.sv(224) @ 175000: uvm_test_top.env.slave_agent.mon [axi4_slave_monitor] AR received: ID=0xc ADDR=0x000081b9 LEN=3
# UVM_INFO ../src/mst/axi4_master_monitor.sv(246) @ 175000: uvm_test_top.env.master_agent.mon [axi4_master_monitor] AR observed: ID=0xc ADDR=0x000081b9 LEN=3
# UVM_INFO ../src/slv/axi4_slave_monitor.sv(167) @ 195000: uvm_test_top.env.slave_agent.mon [axi4_slave_monitor] W data assembled: ID=0xc ADDR=0x00008346 4 beats
# UVM_INFO ../src/mst/axi4_master_monitor.sv(184) @ 195000: uvm_test_top.env.master_agent.mon [axi4_master_monitor] W data assembled: ID=0xc ADDR=0x00008346 4 beats
# UVM_INFO ../src/slv/axi4_slave_driver.sv(386) @ 205000: uvm_test_top.env.slave_agent.drv [axi4_slave_driver] AR received: ID=0xc ADDR=0x00008b6e LEN=7 LOCK=AXI4_LOCK_NORMAL
# UVM_INFO ../src/mst/axi4_master_monitor.sv(246) @ 205000: uvm_test_top.env.master_agent.mon [axi4_master_monitor] AR observed: ID=0xc ADDR=0x00008b6e LEN=7
# UVM_INFO ../src/slv/axi4_slave_monitor.sv(224) @ 205000: uvm_test_top.env.slave_agent.mon [axi4_slave_monitor] AR received: ID=0xc ADDR=0x00008b6e LEN=7
# UVM_INFO ../src/mst/axi4_master_driver.sv(289) @ 225000: uvm_test_top.env.master_agent.drv [axi4_master_driver] Master driver received B response: ID=0xc RESP=AXI4_RESP_OKAY
# UVM_INFO ../src/slv/axi4_slave_driver.sv(348) @ 225000: uvm_test_top.env.slave_agent.drv [axi4_slave_driver] Write complete: ID=0xc RESP=AXI4_RESP_OKAY
# UVM_INFO ../src/mst/axi4_master_monitor.sv(210) @ 225000: uvm_test_top.env.master_agent.mon [axi4_master_monitor] Write complete: ID=0xc ADDR=0x00008346 RESP=AXI4_RESP_OKAY
# UVM_INFO ../src/slv/axi4_slave_monitor.sv(189) @ 225000: uvm_test_top.env.slave_agent.mon [axi4_slave_monitor] Write response sent: ID=0xc ADDR=0x00008346 RESP=AXI4_RESP_OKAY
# UVM_INFO ../src/slv/axi4_slave_driver.sv(386) @ 235000: uvm_test_top.env.slave_agent.drv [axi4_slave_driver] AR received: ID=0xb ADDR=0x00008e53 LEN=7 LOCK=AXI4_LOCK_NORMAL
# UVM_INFO ../src/slv/axi4_slave_monitor.sv(224) @ 235000: uvm_test_top.env.slave_agent.mon [axi4_slave_monitor] AR received: ID=0xb ADDR=0x00008e53 LEN=7
# UVM_INFO ../src/mst/axi4_master_monitor.sv(246) @ 235000: uvm_test_top.env.master_agent.mon [axi4_master_monitor] AR observed: ID=0xb ADDR=0x00008e53 LEN=7
# UVM_INFO ../src/slv/axi4_slave_driver.sv(386) @ 265000: uvm_test_top.env.slave_agent.drv [axi4_slave_driver] AR received: ID=0xf ADDR=0x00008408 LEN=7 LOCK=AXI4_LOCK_NORMAL
# UVM_INFO ../src/mst/axi4_master_monitor.sv(246) @ 265000: uvm_test_top.env.master_agent.mon [axi4_master_monitor] AR observed: ID=0xf ADDR=0x00008408 LEN=7
# UVM_INFO ../src/slv/axi4_slave_monitor.sv(224) @ 265000: uvm_test_top.env.slave_agent.mon [axi4_slave_monitor] AR received: ID=0xf ADDR=0x00008408 LEN=7
# UVM_INFO ../src/mst/axi4_master_driver.sv(348) @ 275000: uvm_test_top.env.master_agent.drv [axi4_master_driver] Master driver received all R beats for ID=0xa
# UVM_INFO ../src/slv/axi4_slave_driver.sv(228) @ 275000: uvm_test_top.env.slave_agent.drv [axi4_slave_driver] AW received: ID=0x8 ADDR=0x0000895f LEN=7 LOCK=AXI4_LOCK_NORMAL
# UVM_INFO ../src/slv/axi4_slave_driver.sv(501) @ 275000: uvm_test_top.env.slave_agent.drv [axi4_slave_driver] Read complete: ID=0xa ADDR=0x00008194 RESP=AXI4_RESP_OKAY  8 beats sent
# UVM_INFO ../src/slv/axi4_slave_monitor.sv(287) @ 275000: uvm_test_top.env.slave_agent.mon [axi4_slave_monitor] Read data sent: ID=0xa ADDR=0x00008194 8 beats
# UVM_INFO ../src/slv/axi4_slave_monitor.sv(116) @ 275000: uvm_test_top.env.slave_agent.mon [axi4_slave_monitor] AW received: ID=0x8 ADDR=0x0000895f LEN=7
# UVM_INFO ../src/mst/axi4_master_monitor.sv(314) @ 275000: uvm_test_top.env.master_agent.mon [axi4_master_monitor] Read complete: ID=0xa ADDR=0x00008194 8 beats
# UVM_INFO ../src/mst/axi4_master_monitor.sv(124) @ 275000: uvm_test_top.env.master_agent.mon [axi4_master_monitor] AW observed: ID=0x8 ADDR=0x0000895f LEN=7
# UVM_INFO ../src/slv/axi4_slave_driver.sv(386) @ 295000: uvm_test_top.env.slave_agent.drv [axi4_slave_driver] AR received: ID=0x1 ADDR=0x000082d7 LEN=7 LOCK=AXI4_LOCK_NORMAL
# UVM_INFO ../src/slv/axi4_slave_monitor.sv(224) @ 295000: uvm_test_top.env.slave_agent.mon [axi4_slave_monitor] AR received: ID=0x1 ADDR=0x000082d7 LEN=7
# UVM_INFO ../src/mst/axi4_master_monitor.sv(246) @ 295000: uvm_test_top.env.master_agent.mon [axi4_master_monitor] AR observed: ID=0x1 ADDR=0x000082d7 LEN=7
# UVM_INFO ../src/slv/axi4_slave_driver.sv(228) @ 305000: uvm_test_top.env.slave_agent.drv [axi4_slave_driver] AW received: ID=0xf ADDR=0x00008d95 LEN=3 LOCK=AXI4_LOCK_NORMAL
# UVM_INFO ../src/mst/axi4_master_monitor.sv(124) @ 305000: uvm_test_top.env.master_agent.mon [axi4_master_monitor] AW observed: ID=0xf ADDR=0x00008d95 LEN=3
# UVM_INFO ../src/slv/axi4_slave_monitor.sv(116) @ 305000: uvm_test_top.env.slave_agent.mon [axi4_slave_monitor] AW received: ID=0xf ADDR=0x00008d95 LEN=3
# UVM_INFO ../src/slv/axi4_slave_driver.sv(386) @ 325000: uvm_test_top.env.slave_agent.drv [axi4_slave_driver] AR received: ID=0x3 ADDR=0x00008704 LEN=7 LOCK=AXI4_LOCK_NORMAL
# UVM_INFO ../src/mst/axi4_master_monitor.sv(246) @ 325000: uvm_test_top.env.master_agent.mon [axi4_master_monitor] AR observed: ID=0x3 ADDR=0x00008704 LEN=7
# UVM_INFO ../src/slv/axi4_slave_monitor.sv(224) @ 325000: uvm_test_top.env.slave_agent.mon [axi4_slave_monitor] AR received: ID=0x3 ADDR=0x00008704 LEN=7
# UVM_INFO ../src/slv/axi4_slave_driver.sv(228) @ 335000: uvm_test_top.env.slave_agent.drv [axi4_slave_driver] AW received: ID=0x9 ADDR=0x0000881a LEN=7 LOCK=AXI4_LOCK_NORMAL
# UVM_INFO ../src/slv/axi4_slave_monitor.sv(116) @ 335000: uvm_test_top.env.slave_agent.mon [axi4_slave_monitor] AW received: ID=0x9 ADDR=0x0000881a LEN=7
# UVM_INFO ../src/mst/axi4_master_monitor.sv(124) @ 335000: uvm_test_top.env.master_agent.mon [axi4_master_monitor] AW observed: ID=0x9 ADDR=0x0000881a LEN=7
# UVM_INFO ../src/mst/axi4_master_driver.sv(348) @ 355000: uvm_test_top.env.master_agent.drv [axi4_master_driver] Master driver received all R beats for ID=0x6
# UVM_INFO ../src/slv/axi4_slave_driver.sv(386) @ 355000: uvm_test_top.env.slave_agent.drv [axi4_slave_driver] AR received: ID=0xe ADDR=0x00008b47 LEN=7 LOCK=AXI4_LOCK_NORMAL
# UVM_INFO ../src/slv/axi4_slave_driver.sv(501) @ 355000: uvm_test_top.env.slave_agent.drv [axi4_slave_driver] Read complete: ID=0x6 ADDR=0x00008923 RESP=AXI4_RESP_OKAY  4 beats sent
# UVM_INFO ../src/slv/axi4_slave_monitor.sv(287) @ 355000: uvm_test_top.env.slave_agent.mon [axi4_slave_monitor] Read data sent: ID=0x6 ADDR=0x00008923 4 beats
# UVM_INFO ../src/slv/axi4_slave_monitor.sv(224) @ 355000: uvm_test_top.env.slave_agent.mon [axi4_slave_monitor] AR received: ID=0xe ADDR=0x00008b47 LEN=7
# UVM_INFO ../src/mst/axi4_master_monitor.sv(314) @ 355000: uvm_test_top.env.master_agent.mon [axi4_master_monitor] Read complete: ID=0x6 ADDR=0x00008923 4 beats
# UVM_INFO ../src/mst/axi4_master_monitor.sv(246) @ 355000: uvm_test_top.env.master_agent.mon [axi4_master_monitor] AR observed: ID=0xe ADDR=0x00008b47 LEN=7
# UVM_INFO ../src/slv/axi4_slave_monitor.sv(167) @ 355000: uvm_test_top.env.slave_agent.mon [axi4_slave_monitor] W data assembled: ID=0x8 ADDR=0x0000895f 8 beats
# UVM_INFO ../src/mst/axi4_master_monitor.sv(184) @ 355000: uvm_test_top.env.master_agent.mon [axi4_master_monitor] W data assembled: ID=0x8 ADDR=0x0000895f 8 beats
# UVM_INFO ../src/slv/axi4_slave_driver.sv(228) @ 365000: uvm_test_top.env.slave_agent.drv [axi4_slave_driver] AW received: ID=0x9 ADDR=0x00008591 LEN=7 LOCK=AXI4_LOCK_NORMAL
# UVM_INFO ../src/mst/axi4_master_monitor.sv(124) @ 365000: uvm_test_top.env.master_agent.mon [axi4_master_monitor] AW observed: ID=0x9 ADDR=0x00008591 LEN=7
# UVM_INFO ../src/slv/axi4_slave_monitor.sv(116) @ 365000: uvm_test_top.env.slave_agent.mon [axi4_slave_monitor] AW received: ID=0x9 ADDR=0x00008591 LEN=7
# UVM_INFO ../src/mst/axi4_master_driver.sv(289) @ 385000: uvm_test_top.env.master_agent.drv [axi4_master_driver] Master driver received B response: ID=0x8 RESP=AXI4_RESP_OKAY
# UVM_INFO ../src/slv/axi4_slave_driver.sv(386) @ 385000: uvm_test_top.env.slave_agent.drv [axi4_slave_driver] AR received: ID=0x4 ADDR=0x00008911 LEN=7 LOCK=AXI4_LOCK_NORMAL
# UVM_INFO ../src/slv/axi4_slave_driver.sv(348) @ 385000: uvm_test_top.env.slave_agent.drv [axi4_slave_driver] Write complete: ID=0x8 RESP=AXI4_RESP_OKAY
# UVM_INFO ../src/mst/axi4_master_monitor.sv(210) @ 385000: uvm_test_top.env.master_agent.mon [axi4_master_monitor] Write complete: ID=0x8 ADDR=0x0000895f RESP=AXI4_RESP_OKAY
# UVM_INFO ../src/mst/axi4_master_monitor.sv(246) @ 385000: uvm_test_top.env.master_agent.mon [axi4_master_monitor] AR observed: ID=0x4 ADDR=0x00008911 LEN=7
# UVM_INFO ../src/slv/axi4_slave_monitor.sv(189) @ 385000: uvm_test_top.env.slave_agent.mon [axi4_slave_monitor] Write response sent: ID=0x8 ADDR=0x0000895f RESP=AXI4_RESP_OKAY
# UVM_INFO ../src/slv/axi4_slave_monitor.sv(224) @ 385000: uvm_test_top.env.slave_agent.mon [axi4_slave_monitor] AR received: ID=0x4 ADDR=0x00008911 LEN=7
# UVM_INFO ../src/test/axi4_reset_mid_burst_test.sv(56) @ 395000: uvm_test_top [axi4_reset_mid_burst_test] Asserting mid-burst reset now
# UVM_INFO ../src/tb_top.sv(63) @ 395000: reporter [TB_TOP] Mid-sim reset requested - asserting rst_n
# UVM_INFO ../src/test/axi4_reset_mid_burst_test.sv(60) @ 395000: uvm_test_top [axi4_reset_mid_burst_test] rst_n asserted (mid-burst)
# UVM_INFO ../src/slv/axi4_slave_monitor.sv(82) @ 395000: uvm_test_top.env.slave_agent.mon [axi4_slave_monitor] Reset asserted - flushing state
# UVM_INFO ../src/mst/axi4_master_monitor.sv(88) @ 395000: uvm_test_top.env.master_agent.mon [axi4_master_monitor] Reset asserted - flushing state
# UVM_INFO ../src/mst/axi4_master_driver.sv(96) @ 395000: uvm_test_top.env.master_agent.drv [axi4_master_driver] Reset asserted - aborting
# UVM_INFO ../src/slv/axi4_slave_driver.sv(142) @ 395000: uvm_test_top.env.slave_agent.drv [axi4_slave_driver] Reset asserted - aborting
# UVM_INFO ../src/tb_top.sv(67) @ 475000: reporter [TB_TOP] Mid-sim reset pulse complete - rst_n deasserted
# UVM_INFO ../src/slv/axi4_slave_driver.sv(131) @ 475000: uvm_test_top.env.slave_agent.drv [axi4_slave_driver] Reset deasserted - slave driver active
# UVM_INFO ../src/mst/axi4_master_driver.sv(64) @ 475000: uvm_test_top.env.master_agent.drv [axi4_master_driver] Reset deasserted - master driver active
# UVM_INFO ../src/mst/axi4_master_monitor.sv(77) @ 475000: uvm_test_top.env.master_agent.mon [axi4_master_monitor] Reset deasserted - monitor active
# UVM_INFO ../src/slv/axi4_slave_monitor.sv(71) @ 475000: uvm_test_top.env.slave_agent.mon [axi4_slave_monitor] Reset deasserted - monitor active
# UVM_INFO ../src/test/axi4_reset_mid_burst_test.sv(62) @ 475000: uvm_test_top [axi4_reset_mid_burst_test] rst_n deasserted - verifying recovery
# UVM_INFO ../src/seq/axi4_data_integrity_seq.sv(42) @ 575000: uvm_test_top.env.master_agent.sqr@@recover_seq [axi4_data_integrity_seq] Starting data integrity demo (write known data -> read-back -> compare on waveform)
# UVM_INFO ../src/mst/axi4_master_driver.sv(73) @ 575000: uvm_test_top.env.master_agent.drv [axi4_master_driver] Driving AXI4_WRITE  ID=0xc  ADDR=0x0000c000  LEN=3
# UVM_INFO ../src/slv/axi4_slave_driver.sv(228) @ 635000: uvm_test_top.env.slave_agent.drv [axi4_slave_driver] AW received: ID=0xc ADDR=0x0000c000 LEN=3 LOCK=AXI4_LOCK_NORMAL
# UVM_INFO ../src/slv/axi4_slave_monitor.sv(116) @ 635000: uvm_test_top.env.slave_agent.mon [axi4_slave_monitor] AW received: ID=0xc ADDR=0x0000c000 LEN=3
# UVM_INFO ../src/mst/axi4_master_monitor.sv(124) @ 635000: uvm_test_top.env.master_agent.mon [axi4_master_monitor] AW observed: ID=0xc ADDR=0x0000c000 LEN=3
# UVM_INFO ../src/mst/axi4_master_monitor.sv(184) @ 645000: uvm_test_top.env.master_agent.mon [axi4_master_monitor] W data assembled: ID=0xc ADDR=0x0000c000 4 beats
# UVM_INFO ../src/slv/axi4_slave_monitor.sv(167) @ 645000: uvm_test_top.env.slave_agent.mon [axi4_slave_monitor] W data assembled: ID=0xc ADDR=0x0000c000 4 beats
# UVM_INFO ../src/mst/axi4_master_driver.sv(289) @ 675000: uvm_test_top.env.master_agent.drv [axi4_master_driver] Master driver received B response: ID=0xc RESP=AXI4_RESP_OKAY
# UVM_INFO ../src/slv/axi4_slave_driver.sv(348) @ 675000: uvm_test_top.env.slave_agent.drv [axi4_slave_driver] Write complete: ID=0xc RESP=AXI4_RESP_OKAY
# UVM_INFO ../src/slv/axi4_slave_monitor.sv(189) @ 675000: uvm_test_top.env.slave_agent.mon [axi4_slave_monitor] Write response sent: ID=0xc ADDR=0x0000c000 RESP=AXI4_RESP_OKAY
# UVM_INFO ../src/mst/axi4_master_monitor.sv(210) @ 675000: uvm_test_top.env.master_agent.mon [axi4_master_monitor] Write complete: ID=0xc ADDR=0x0000c000 RESP=AXI4_RESP_OKAY
# UVM_INFO ../src/seq/axi4_data_integrity_seq.sv(79) @ 675000: uvm_test_top.env.master_agent.sqr@@recover_seq [axi4_data_integrity_seq] WRITE #1 done: ADDR=0x0000c000 DATA={0xdeadbeef, 0xcafebabe, 0x12345678, 0xa5a5a5a5} RESP=AXI4_RESP_OKAY
