sim/report/logs/axi4_cache_prot_test_run_2_seed_51477671.log
# vsim -c -coverage -sv_seed 51477671 "+UVM_TESTNAME=axi4_cache_prot_test" "+UVM_VERBOSITY=UVM_HIGH" "+DUMP_VCD" -l ./report/logs/axi4_cache_prot_test_run_2_seed_51477671.log -do "coverage save -onexit ./report/coverage/axi4_cache_prot_test_run_2_seed_51477671.ucdb; run -all; quit -f" opt_tb_top 
# Start time: 09:36:18 on Jun 11,2026
# //  Questa Sim-64
# //  Version 10.6b linux_x86_64 May 25 2017
# //
# //  Copyright 1991-2017 Mentor Graphics Corporation
# //  All Rights Reserved.
# //
# //  QuestaSim and its associated documentation contain trade
# //  secrets and commercial or financial information that are the property of
# //  Mentor Graphics Corporation and are privileged, confidential,
# //  and exempt from disclosure under the Freedom of Information Act,
# //  5 U.S.C. Section 552. Furthermore, this information
# //  is prohibited from disclosure under the Trade Secrets Act,
# //  18 U.S.C. Section 1905.
# //
# Loading sv_std.std
# Loading work.axi4_if(fast)
# Loading mtiUvm.uvm_pkg
# Loading work.axi4_pkg(fast)
# Loading work.axi4_test_pkg(fast)
# Loading work.tb_top(fast)
# Loading work.axi4_if(fast)
# Loading work.axi4_sva(fast)
# Loading mtiUvm.questa_uvm_pkg(fast)
# Loading /cadtools/mentor/Questa_10.6b/questasim/uvm-1.1d/linux_x86_64/uvm_dpi.so
# coverage save -onexit ./report/coverage/axi4_cache_prot_test_run_2_seed_51477671.ucdb
#  run -all
# ----------------------------------------------------------------
# UVM-1.1d
# (C) 2007-2013 Mentor Graphics Corporation
# (C) 2007-2013 Cadence Design Systems, Inc.
# (C) 2006-2013 Synopsys, Inc.
# (C) 2011-2013 Cypress Semiconductor Corp.
# ----------------------------------------------------------------
# 
#   ***********       IMPORTANT RELEASE NOTES         ************
# 
#   You are using a version of the UVM library that has been compiled
#   with `UVM_NO_DEPRECATED undefined.
#   See http://www.eda.org/svdb/view.php?id=3313 for more details.
# 
#   You are using a version of the UVM library that has been compiled
#   with `UVM_OBJECT_MUST_HAVE_CONSTRUCTOR undefined.
#   See http://www.eda.org/svdb/view.php?id=3770 for more details.
# 
#       (Specify +UVM_NO_RELNOTES to turn off this notice)
# 
# UVM_INFO verilog_src/questa_uvm_pkg-1.2/src/questa_uvm_pkg.sv(215) @ 0: reporter [Questa UVM] QUESTA_UVM-1.2.3
# UVM_INFO verilog_src/questa_uvm_pkg-1.2/src/questa_uvm_pkg.sv(217) @ 0: reporter [Questa UVM]  questa_uvm::init(+struct)
# UVM_INFO ../src/tb_top.sv(128) @ 0: reporter [TB_TOP] Virtual interface set in config_db
# UVM_INFO @ 0: reporter [RNTST] Running test axi4_cache_prot_test...
# UVM_INFO ../src/tb_top.sv(142) @ 0: reporter [TB_TOP] Waveform VCD dumping enabled (axi4_vip.vcd)
# UVM_INFO ../src/env/axi4_vip_env.sv(83) @ 0: uvm_test_top.env [axi4_vip_env] slave_vif not set - reusing master_vif (passthrough mode)
# UVM_INFO ../src/env/axi4_vip_env.sv(93) @ 0: uvm_test_top.env [axi4_vip_env] Scoreboard created
# UVM_INFO ../src/env/axi4_vip_env.sv(100) @ 0: uvm_test_top.env [axi4_vip_env] Coverage collectors created
# UVM_INFO ../src/mst/axi4_master_agent.sv(69) @ 0: uvm_test_top.env.master_agent [axi4_master_agent] ACTIVE mode - driver + sequencer created
# UVM_INFO ../src/slv/axi4_slave_agent.sv(82) @ 0: uvm_test_top.env.slave_agent [axi4_slave_agent] ACTIVE mode — ready_delay=[0:0] resp_delay=[0:0]
# UVM_INFO ../src/env/axi4_vip_env.sv(116) @ 0: uvm_test_top.env [axi4_vip_env] Scoreboard connected: master_mon.ap -> scb, slave_mon.ap -> scb
# UVM_INFO ../src/env/axi4_vip_env.sv(124) @ 0: uvm_test_top.env [axi4_vip_env] Coverage connected: master_mon.ap -> master_cov, slave_mon.ap -> slave_cov
# UVM_INFO @ 0: reporter [UVMTOP] UVM testbench topology:
# ---------------------------------------------------------------
# Name                       Type                     Size  Value
# ---------------------------------------------------------------
# uvm_test_top               axi4_cache_prot_test     -     @473 
#   env                      axi4_vip_env             -     @488 
#     master_agent           axi4_master_agent        -     @503 
#       drv                  axi4_master_driver       -     @567 
#         rsp_port           uvm_analysis_port        -     @582 
#         seq_item_port      uvm_seq_item_pull_port   -     @574 
#       mon                  axi4_master_monitor      -     @559 
#         ap                 uvm_analysis_port        -     @700 
#       sqr                  axi4_master_sequencer    -     @590 
#         rsp_export         uvm_analysis_export      -     @597 
#         seq_item_export    uvm_seq_item_pull_imp    -     @691 
#         arbitration_queue  array                    0     -    
#         lock_queue         array                    0     -    
#         num_last_reqs      integral                 32    'd1  
#         num_last_rsps      integral                 32    'd1  
#     master_cov             axi4_coverage            -     @524 
#       analysis_imp         uvm_analysis_imp         -     @531 
#     scb                    axi4_scoreboard          -     @517 
#       master_export        uvm_analysis_imp_master  -     @714 
#       slave_export         uvm_analysis_imp_slave   -     @722 
#     slave_agent            axi4_slave_agent         -     @510 
#       drv                  axi4_slave_driver        -     @753 
#         rsp_port           uvm_analysis_port        -     @768 
#         seq_item_port      uvm_seq_item_pull_port   -     @760 
#       mon                  axi4_slave_monitor       -     @735 
#         ap                 uvm_analysis_port        -     @892 
#       sqr                  axi4_slave_sequencer     -     @776 
#         rsp_export         uvm_analysis_export      -     @783 
#         seq_item_export    uvm_seq_item_pull_imp    -     @877 
#         arbitration_queue  array                    0     -    
#         lock_queue         array                    0     -    
#         num_last_reqs      integral                 32    'd1  
#         num_last_rsps      integral                 32    'd1  
#     slave_cov              axi4_coverage            -     @539 
#       analysis_imp         uvm_analysis_imp         -     @546 
# ---------------------------------------------------------------
# 
# UVM_INFO verilog_src/questa_uvm_pkg-1.2/src/questa_uvm_pkg.sv(277) @ 0: reporter [Questa UVM] End Of Elaboration
# UVM_INFO ../src/test/axi4_cache_prot_test.sv(24) @ 0: uvm_test_top [axi4_cache_prot_test] Starting cache and protection attributes sweep test
# UVM_INFO ../src/seq/axi4_cache_prot_seq.sv(22) @ 0: uvm_test_top.env.master_agent.sqr@@cp_seq [axi4_cache_prot_seq] Starting cache and prot attribute sweep sequence
# UVM_INFO ../src/tb_top.sv(49) @ 95000: reporter [TOP_TB] Reset de-asserted
# UVM_INFO ../src/slv/axi4_slave_driver.sv(122) @ 95000: uvm_test_top.env.slave_agent.drv [axi4_slave_driver] Reset deasserted - slave driver active
# UVM_INFO ../src/mst/axi4_master_driver.sv(64) @ 95000: uvm_test_top.env.master_agent.drv [axi4_master_driver] Reset deasserted - master driver active
# UVM_INFO ../src/mst/axi4_master_monitor.sv(77) @ 95000: uvm_test_top.env.master_agent.mon [axi4_master_monitor] Reset deasserted - monitor active
# UVM_INFO ../src/slv/axi4_slave_monitor.sv(71) @ 95000: uvm_test_top.env.slave_agent.mon [axi4_slave_monitor] Reset deasserted - monitor active
# UVM_INFO ../src/mst/axi4_master_driver.sv(73) @ 95000: uvm_test_top.env.master_agent.drv [axi4_master_driver] Driving AXI4_WRITE  ID=0x4  ADDR=0x72bbdc42  LEN=11
# UVM_INFO ../src/mst/axi4_master_driver.sv(73) @ 95000: uvm_test_top.env.master_agent.drv [axi4_master_driver] Driving AXI4_READ  ID=0x7  ADDR=0x454853ac  LEN=120
# UVM_INFO ../src/seq/axi4_cache_prot_seq.sv(57) @ 95000: uvm_test_top.env.master_agent.sqr@@cp_seq [axi4_cache_prot_seq] [1/16] Swept CACHE=0b0000 PROT=0b000 (Write & Read)
# UVM_INFO ../src/mst/axi4_master_driver.sv(73) @ 95000: uvm_test_top.env.master_agent.drv [axi4_master_driver] Driving AXI4_WRITE  ID=0x5  ADDR=0x1611d47e  LEN=97
# UVM_INFO ../src/mst/axi4_master_driver.sv(73) @ 95000: uvm_test_top.env.master_agent.drv [axi4_master_driver] Driving AXI4_READ  ID=0xc  ADDR=0x465ee263  LEN=219
# UVM_INFO ../src/seq/axi4_cache_prot_seq.sv(57) @ 95000: uvm_test_top.env.master_agent.sqr@@cp_seq [axi4_cache_prot_seq] [2/16] Swept CACHE=0b0001 PROT=0b001 (Write & Read)
# UVM_INFO ../src/mst/axi4_master_driver.sv(73) @ 95000: uvm_test_top.env.master_agent.drv [axi4_master_driver] Driving AXI4_WRITE  ID=0xd  ADDR=0x7dc655cd  LEN=225
# UVM_INFO ../src/mst/axi4_master_driver.sv(73) @ 95000: uvm_test_top.env.master_agent.drv [axi4_master_driver] Driving AXI4_READ  ID=0x6  ADDR=0xdbf1f435  LEN=16
# UVM_INFO ../src/seq/axi4_cache_prot_seq.sv(57) @ 95000: uvm_test_top.env.master_agent.sqr@@cp_seq [axi4_cache_prot_seq] [3/16] Swept CACHE=0b0010 PROT=0b010 (Write & Read)
# UVM_INFO ../src/mst/axi4_master_driver.sv(73) @ 95000: uvm_test_top.env.master_agent.drv [axi4_master_driver] Driving AXI4_WRITE  ID=0x2  ADDR=0x256f74ca  LEN=204
# UVM_INFO ../src/mst/axi4_master_driver.sv(73) @ 95000: uvm_test_top.env.master_agent.drv [axi4_master_driver] Driving AXI4_READ  ID=0x9  ADDR=0x54cf64cd  LEN=12
# UVM_INFO ../src/seq/axi4_cache_prot_seq.sv(57) @ 95000: uvm_test_top.env.master_agent.sqr@@cp_seq [axi4_cache_prot_seq] [4/16] Swept CACHE=0b0011 PROT=0b011 (Write & Read)
# UVM_INFO ../src/mst/axi4_master_driver.sv(73) @ 95000: uvm_test_top.env.master_agent.drv [axi4_master_driver] Driving AXI4_WRITE  ID=0x3  ADDR=0x5ace53c5  LEN=173
# UVM_INFO ../src/mst/axi4_master_driver.sv(73) @ 95000: uvm_test_top.env.master_agent.drv [axi4_master_driver] Driving AXI4_READ  ID=0xe  ADDR=0xdc4f5884  LEN=49
# UVM_INFO ../src/seq/axi4_cache_prot_seq.sv(57) @ 95000: uvm_test_top.env.master_agent.sqr@@cp_seq [axi4_cache_prot_seq] [5/16] Swept CACHE=0b0100 PROT=0b100 (Write & Read)
# UVM_INFO ../src/mst/axi4_master_driver.sv(73) @ 95000: uvm_test_top.env.master_agent.drv [axi4_master_driver] Driving AXI4_WRITE  ID=0xb  ADDR=0x71204c76  LEN=152
# UVM_INFO ../src/mst/axi4_master_driver.sv(73) @ 95000: uvm_test_top.env.master_agent.drv [axi4_master_driver] Driving AXI4_READ  ID=0xe  ADDR=0x4e01691b  LEN=206
# UVM_INFO ../src/seq/axi4_cache_prot_seq.sv(57) @ 95000: uvm_test_top.env.master_agent.sqr@@cp_seq [axi4_cache_prot_seq] [6/16] Swept CACHE=0b0101 PROT=0b101 (Write & Read)
# UVM_INFO ../src/mst/axi4_master_driver.sv(73) @ 95000: uvm_test_top.env.master_agent.drv [axi4_master_driver] Driving AXI4_WRITE  ID=0xc  ADDR=0xae99ef77  LEN=15
# UVM_INFO ../src/mst/axi4_master_driver.sv(73) @ 95000: uvm_test_top.env.master_agent.drv [axi4_master_driver] Driving AXI4_READ  ID=0xf  ADDR=0x58b788d2  LEN=187
# UVM_INFO ../src/seq/axi4_cache_prot_seq.sv(57) @ 95000: uvm_test_top.env.master_agent.sqr@@cp_seq [axi4_cache_prot_seq] [7/16] Swept CACHE=0b0110 PROT=0b110 (Write & Read)
# UVM_INFO ../src/mst/axi4_master_driver.sv(73) @ 95000: uvm_test_top.env.master_agent.drv [axi4_master_driver] Driving AXI4_WRITE  ID=0xc  ADDR=0xc9008847  LEN=246
# UVM_INFO ../src/mst/axi4_master_driver.sv(73) @ 95000: uvm_test_top.env.master_agent.drv [axi4_master_driver] Driving AXI4_READ  ID=0xd  ADDR=0x146b2d9d  LEN=14
# UVM_INFO ../src/seq/axi4_cache_prot_seq.sv(57) @ 95000: uvm_test_top.env.master_agent.sqr@@cp_seq [axi4_cache_prot_seq] [8/16] Swept CACHE=0b0111 PROT=0b111 (Write & Read)
# UVM_INFO ../src/mst/axi4_master_driver.sv(73) @ 95000: uvm_test_top.env.master_agent.drv [axi4_master_driver] Driving AXI4_WRITE  ID=0x4  ADDR=0xce143be5  LEN=83
# UVM_INFO ../src/mst/axi4_master_driver.sv(73) @ 95000: uvm_test_top.env.master_agent.drv [axi4_master_driver] Driving AXI4_READ  ID=0xa  ADDR=0xaa6fa15d  LEN=135
# UVM_INFO ../src/seq/axi4_cache_prot_seq.sv(57) @ 95000: uvm_test_top.env.master_agent.sqr@@cp_seq [axi4_cache_prot_seq] [9/16] Swept CACHE=0b1000 PROT=0b000 (Write & Read)
# UVM_INFO ../src/mst/axi4_master_driver.sv(73) @ 95000: uvm_test_top.env.master_agent.drv [axi4_master_driver] Driving AXI4_WRITE  ID=0x6  ADDR=0x6648b72a  LEN=2
# UVM_INFO ../src/mst/axi4_master_driver.sv(73) @ 95000: uvm_test_top.env.master_agent.drv [axi4_master_driver] Driving AXI4_READ  ID=0x9  ADDR=0x8a269571  LEN=7
# UVM_INFO ../src/seq/axi4_cache_prot_seq.sv(57) @ 95000: uvm_test_top.env.master_agent.sqr@@cp_seq [axi4_cache_prot_seq] [10/16] Swept CACHE=0b1001 PROT=0b001 (Write & Read)
# UVM_INFO ../src/mst/axi4_master_driver.sv(73) @ 95000: uvm_test_top.env.master_agent.drv [axi4_master_driver] Driving AXI4_WRITE  ID=0x1  ADDR=0x16687334  LEN=205
# UVM_INFO ../src/mst/axi4_master_driver.sv(73) @ 95000: uvm_test_top.env.master_agent.drv [axi4_master_driver] Driving AXI4_READ  ID=0xe  ADDR=0x6a08d32a  LEN=104
# UVM_INFO ../src/seq/axi4_cache_prot_seq.sv(57) @ 95000: uvm_test_top.env.master_agent.sqr@@cp_seq [axi4_cache_prot_seq] [11/16] Swept CACHE=0b1010 PROT=0b010 (Write & Read)
# UVM_INFO ../src/mst/axi4_master_driver.sv(73) @ 95000: uvm_test_top.env.master_agent.drv [axi4_master_driver] Driving AXI4_WRITE  ID=0x9  ADDR=0xd2bc750e  LEN=107
# UVM_INFO ../src/mst/axi4_master_driver.sv(73) @ 95000: uvm_test_top.env.master_agent.drv [axi4_master_driver] Driving AXI4_READ  ID=0x5  ADDR=0x324af85c  LEN=124
# UVM_INFO ../src/seq/axi4_cache_prot_seq.sv(57) @ 95000: uvm_test_top.env.master_agent.sqr@@cp_seq [axi4_cache_prot_seq] [12/16] Swept CACHE=0b1011 PROT=0b011 (Write & Read)
# UVM_INFO ../src/mst/axi4_master_driver.sv(73) @ 95000: uvm_test_top.env.master_agent.drv [axi4_master_driver] Driving AXI4_WRITE  ID=0xd  ADDR=0x15cac5fb  LEN=217
# UVM_INFO ../src/mst/axi4_master_driver.sv(73) @ 95000: uvm_test_top.env.master_agent.drv [axi4_master_driver] Driving AXI4_READ  ID=0xf  ADDR=0xb2fd867a  LEN=214
# UVM_INFO ../src/seq/axi4_cache_prot_seq.sv(57) @ 95000: uvm_test_top.env.master_agent.sqr@@cp_seq [axi4_cache_prot_seq] [13/16] Swept CACHE=0b1100 PROT=0b100 (Write & Read)
# UVM_INFO ../src/mst/axi4_master_driver.sv(73) @ 95000: uvm_test_top.env.master_agent.drv [axi4_master_driver] Driving AXI4_WRITE  ID=0x4  ADDR=0x3420a406  LEN=15
# UVM_INFO ../src/mst/axi4_master_driver.sv(73) @ 95000: uvm_test_top.env.master_agent.drv [axi4_master_driver] Driving AXI4_READ  ID=0x9  ADDR=0xa338e55c  LEN=213
# UVM_INFO ../src/seq/axi4_cache_prot_seq.sv(57) @ 95000: uvm_test_top.env.master_agent.sqr@@cp_seq [axi4_cache_prot_seq] [14/16] Swept CACHE=0b1101 PROT=0b101 (Write & Read)
# UVM_INFO ../src/mst/axi4_master_driver.sv(73) @ 95000: uvm_test_top.env.master_agent.drv [axi4_master_driver] Driving AXI4_WRITE  ID=0x6  ADDR=0x34204dab  LEN=28
# UVM_INFO ../src/mst/axi4_master_driver.sv(73) @ 95000: uvm_test_top.env.master_agent.drv [axi4_master_driver] Driving AXI4_READ  ID=0x6  ADDR=0x6b0cbcc8  LEN=234
# UVM_INFO ../src/seq/axi4_cache_prot_seq.sv(57) @ 95000: uvm_test_top.env.master_agent.sqr@@cp_seq [axi4_cache_prot_seq] [15/16] Swept CACHE=0b1110 PROT=0b110 (Write & Read)
# UVM_INFO ../src/mst/axi4_master_driver.sv(73) @ 95000: uvm_test_top.env.master_agent.drv [axi4_master_driver] Driving AXI4_WRITE  ID=0x2  ADDR=0x3eaf56bd  LEN=2
# UVM_INFO ../src/mst/axi4_master_driver.sv(73) @ 95000: uvm_test_top.env.master_agent.drv [axi4_master_driver] Driving AXI4_READ  ID=0xb  ADDR=0x11d89af3  LEN=28
# UVM_INFO ../src/seq/axi4_cache_prot_seq.sv(57) @ 95000: uvm_test_top.env.master_agent.sqr@@cp_seq [axi4_cache_prot_seq] [16/16] Swept CACHE=0b1111 PROT=0b111 (Write & Read)
# UVM_INFO ../src/seq/axi4_cache_prot_seq.sv(60) @ 95000: uvm_test_top.env.master_agent.sqr@@cp_seq [axi4_cache_prot_seq] Cache and prot attribute sweep sequence complete
# UVM_INFO ../src/slv/axi4_slave_driver.sv(358) @ 115000: uvm_test_top.env.slave_agent.drv [axi4_slave_driver] AR received: ID=0x7 ADDR=0x454853ac LEN=120 LOCK=AXI4_LOCK_NORMAL
# UVM_INFO ../src/slv/axi4_slave_driver.sv(212) @ 115000: uvm_test_top.env.slave_agent.drv [axi4_slave_driver] AW received: ID=0x4 ADDR=0x72bbdc42 LEN=11 LOCK=AXI4_LOCK_NORMAL
# UVM_INFO ../src/slv/axi4_slave_monitor.sv(224) @ 115000: uvm_test_top.env.slave_agent.mon [axi4_slave_monitor] AR received: ID=0x7 ADDR=0x454853ac LEN=120
# UVM_INFO ../src/slv/axi4_slave_monitor.sv(116) @ 115000: uvm_test_top.env.slave_agent.mon [axi4_slave_monitor] AW received: ID=0x4 ADDR=0x72bbdc42 LEN=11
# UVM_INFO ../src/mst/axi4_master_monitor.sv(246) @ 115000: uvm_test_top.env.master_agent.mon [axi4_master_monitor] AR observed: ID=0x7 ADDR=0x454853ac LEN=120
# UVM_INFO ../src/mst/axi4_master_monitor.sv(124) @ 115000: uvm_test_top.env.master_agent.mon [axi4_master_monitor] AW observed: ID=0x4 ADDR=0x72bbdc42 LEN=11
# UVM_INFO ../src/slv/axi4_slave_driver.sv(358) @ 145000: uvm_test_top.env.slave_agent.drv [axi4_slave_driver] AR received: ID=0xc ADDR=0x465ee263 LEN=219 LOCK=AXI4_LOCK_EXCLUSIVE
# UVM_INFO ../src/mst/axi4_master_monitor.sv(246) @ 145000: uvm_test_top.env.master_agent.mon [axi4_master_monitor] AR observed: ID=0xc ADDR=0x465ee263 LEN=219
# UVM_INFO ../src/slv/axi4_slave_monitor.sv(224) @ 145000: uvm_test_top.env.slave_agent.mon [axi4_slave_monitor] AR received: ID=0xc ADDR=0x465ee263 LEN=219
# UVM_INFO ../src/slv/axi4_slave_driver.sv(358) @ 175000: uvm_test_top.env.slave_agent.drv [axi4_slave_driver] AR received: ID=0x6 ADDR=0xdbf1f435 LEN=16 LOCK=AXI4_LOCK_NORMAL
# UVM_INFO ../src/slv/axi4_slave_monitor.sv(224) @ 175000: uvm_test_top.env.slave_agent.mon [axi4_slave_monitor] AR received: ID=0x6 ADDR=0xdbf1f435 LEN=16
# UVM_INFO ../src/mst/axi4_master_monitor.sv(246) @ 175000: uvm_test_top.env.master_agent.mon [axi4_master_monitor] AR observed: ID=0x6 ADDR=0xdbf1f435 LEN=16
# UVM_INFO ../src/slv/axi4_slave_driver.sv(358) @ 205000: uvm_test_top.env.slave_agent.drv [axi4_slave_driver] AR received: ID=0x9 ADDR=0x54cf64cd LEN=12 LOCK=AXI4_LOCK_EXCLUSIVE
# UVM_INFO ../src/mst/axi4_master_monitor.sv(246) @ 205000: uvm_test_top.env.master_agent.mon [axi4_master_monitor] AR observed: ID=0x9 ADDR=0x54cf64cd LEN=12
# UVM_INFO ../src/slv/axi4_slave_monitor.sv(224) @ 205000: uvm_test_top.env.slave_agent.mon [axi4_slave_monitor] AR received: ID=0x9 ADDR=0x54cf64cd LEN=12
# UVM_INFO ../src/slv/axi4_slave_driver.sv(358) @ 235000: uvm_test_top.env.slave_agent.drv [axi4_slave_driver] AR received: ID=0xe ADDR=0xdc4f5884 LEN=49 LOCK=AXI4_LOCK_EXCLUSIVE
# UVM_INFO ../src/slv/axi4_slave_monitor.sv(224) @ 235000: uvm_test_top.env.slave_agent.mon [axi4_slave_monitor] AR received: ID=0xe ADDR=0xdc4f5884 LEN=49
# UVM_INFO ../src/mst/axi4_master_monitor.sv(246) @ 235000: uvm_test_top.env.master_agent.mon [axi4_master_monitor] AR observed: ID=0xe ADDR=0xdc4f5884 LEN=49
# UVM_INFO ../src/slv/axi4_slave_driver.sv(358) @ 265000: uvm_test_top.env.slave_agent.drv [axi4_slave_driver] AR received: ID=0xe ADDR=0x4e01691b LEN=206 LOCK=AXI4_LOCK_NORMAL
# UVM_INFO ../src/mst/axi4_master_monitor.sv(246) @ 265000: uvm_test_top.env.master_agent.mon [axi4_master_monitor] AR observed: ID=0xe ADDR=0x4e01691b LEN=206
# UVM_INFO ../src/slv/axi4_slave_monitor.sv(224) @ 265000: uvm_test_top.env.slave_agent.mon [axi4_slave_monitor] AR received: ID=0xe ADDR=0x4e01691b LEN=206
# UVM_INFO ../src/slv/axi4_slave_driver.sv(358) @ 295000: uvm_test_top.env.slave_agent.drv [axi4_slave_driver] AR received: ID=0xf ADDR=0x58b788d2 LEN=187 LOCK=AXI4_LOCK_EXCLUSIVE
# UVM_INFO ../src/slv/axi4_slave_monitor.sv(224) @ 295000: uvm_test_top.env.slave_agent.mon [axi4_slave_monitor] AR received: ID=0xf ADDR=0x58b788d2 LEN=187
# UVM_INFO ../src/mst/axi4_master_monitor.sv(246) @ 295000: uvm_test_top.env.master_agent.mon [axi4_master_monitor] AR observed: ID=0xf ADDR=0x58b788d2 LEN=187
# UVM_INFO ../src/slv/axi4_slave_driver.sv(358) @ 325000: uvm_test_top.env.slave_agent.drv [axi4_slave_driver] AR received: ID=0xd ADDR=0x146b2d9d LEN=14 LOCK=AXI4_LOCK_EXCLUSIVE
# UVM_INFO ../src/mst/axi4_master_monitor.sv(246) @ 325000: uvm_test_top.env.master_agent.mon [axi4_master_monitor] AR observed: ID=0xd ADDR=0x146b2d9d LEN=14
# UVM_INFO ../src/slv/axi4_slave_monitor.sv(224) @ 325000: uvm_test_top.env.slave_agent.mon [axi4_slave_monitor] AR received: ID=0xd ADDR=0x146b2d9d LEN=14
# UVM_INFO ../src/mst/axi4_master_monitor.sv(184) @ 325000: uvm_test_top.env.master_agent.mon [axi4_master_monitor] W data assembled: ID=0x4 ADDR=0x72bbdc42 12 beats
# UVM_INFO ../src/slv/axi4_slave_monitor.sv(167) @ 325000: uvm_test_top.env.slave_agent.mon [axi4_slave_monitor] W data assembled: ID=0x4 ADDR=0x72bbdc42 12 beats
# UVM_INFO ../src/mst/axi4_master_driver.sv(289) @ 355000: uvm_test_top.env.master_agent.drv [axi4_master_driver] Master driver received B response: ID=0x4 RESP=AXI4_RESP_OKAY
# UVM_INFO ../src/slv/axi4_slave_driver.sv(358) @ 355000: uvm_test_top.env.slave_agent.drv [axi4_slave_driver] AR received: ID=0xa ADDR=0xaa6fa15d LEN=135 LOCK=AXI4_LOCK_NORMAL
# UVM_INFO ../src/slv/axi4_slave_driver.sv(320) @ 355000: uvm_test_top.env.slave_agent.drv [axi4_slave_driver] Write complete: ID=0x4 RESP=AXI4_RESP_OKAY
# UVM_INFO ../src/slv/axi4_slave_monitor.sv(224) @ 355000: uvm_test_top.env.slave_agent.mon [axi4_slave_monitor] AR received: ID=0xa ADDR=0xaa6fa15d LEN=135
# UVM_INFO ../src/slv/axi4_slave_monitor.sv(189) @ 355000: uvm_test_top.env.slave_agent.mon [axi4_slave_monitor] Write response sent: ID=0x4 ADDR=0x72bbdc42 RESP=AXI4_RESP_OKAY
# UVM_INFO ../src/env/axi4_scoreboard.sv(108) @ 355000: uvm_test_top.env.scb [axi4_scoreboard] Slave AXI4_WRITE received: ID=0x4 ADDR=0x72bbdc42 LEN=11
# UVM_INFO ../src/mst/axi4_master_monitor.sv(246) @ 355000: uvm_test_top.env.master_agent.mon [axi4_master_monitor] AR observed: ID=0xa ADDR=0xaa6fa15d LEN=135
# UVM_INFO ../src/mst/axi4_master_monitor.sv(210) @ 355000: uvm_test_top.env.master_agent.mon [axi4_master_monitor] Write complete: ID=0x4 ADDR=0x72bbdc42 RESP=AXI4_RESP_OKAY
# UVM_INFO ../src/env/axi4_scoreboard.sv(87) @ 355000: uvm_test_top.env.scb [axi4_scoreboard] Master AXI4_WRITE received: ID=0x4 ADDR=0x72bbdc42 LEN=11
# UVM_INFO ../src/env/axi4_scoreboard.sv(291) @ 355000: uvm_test_top.env.scb [axi4_scoreboard] [WRITE] MATCH #1: ID=0x4 ADDR=0x72bbdc42 LEN=11
# UVM_INFO ../src/env/axi4_scoreboard.sv(219) @ 355000: uvm_test_top.env.scb [axi4_scoreboard] [REF_MEM_WRITE] Addr=0x72bbdc41 Data=0x81
# UVM_INFO ../src/env/axi4_scoreboard.sv(219) @ 355000: uvm_test_top.env.scb [axi4_scoreboard] [REF_MEM_WRITE] Addr=0x72bbdc43 Data=0xf5
# UVM_INFO ../src/env/axi4_scoreboard.sv(219) @ 355000: uvm_test_top.env.scb [axi4_scoreboard] [REF_MEM_WRITE] Addr=0x72bbdc40 Data=0x7c
# UVM_INFO ../src/env/axi4_scoreboard.sv(219) @ 355000: uvm_test_top.env.scb [axi4_scoreboard] [REF_MEM_WRITE] Addr=0x72bbdc43 Data=0x1e
# UVM_INFO ../src/env/axi4_scoreboard.sv(219) @ 355000: uvm_test_top.env.scb [axi4_scoreboard] [REF_MEM_WRITE] Addr=0x72bbdc40 Data=0xb7
# UVM_INFO ../src/env/axi4_scoreboard.sv(219) @ 355000: uvm_test_top.env.scb [axi4_scoreboard] [REF_MEM_WRITE] Addr=0x72bbdc41 Data=0x49
# UVM_INFO ../src/env/axi4_scoreboard.sv(219) @ 355000: uvm_test_top.env.scb [axi4_scoreboard] [REF_MEM_WRITE] Addr=0x72bbdc43 Data=0x69
# UVM_INFO ../src/env/axi4_scoreboard.sv(219) @ 355000: uvm_test_top.env.scb [axi4_scoreboard] [REF_MEM_WRITE] Addr=0x72bbdc41 Data=0xeb
# UVM_INFO ../src/env/axi4_scoreboard.sv(219) @ 355000: uvm_test_top.env.scb [axi4_scoreboard] [REF_MEM_WRITE] Addr=0x72bbdc42 Data=0x3a
# UVM_INFO ../src/env/axi4_scoreboard.sv(219) @ 355000: uvm_test_top.env.scb [axi4_scoreboard] [REF_MEM_WRITE] Addr=0x72bbdc43 Data=0xfb
# UVM_INFO ../src/env/axi4_scoreboard.sv(219) @ 355000: uvm_test_top.env.scb [axi4_scoreboard] [REF_MEM_WRITE] Addr=0x72bbdc40 Data=0x8c
# UVM_INFO ../src/env/axi4_scoreboard.sv(219) @ 355000: uvm_test_top.env.scb [axi4_scoreboard] [REF_MEM_WRITE] Addr=0x72bbdc41 Data=0x6c
# UVM_INFO ../src/env/axi4_scoreboard.sv(219) @ 355000: uvm_test_top.env.scb [axi4_scoreboard] [REF_MEM_WRITE] Addr=0x72bbdc42 Data=0xe2
# UVM_INFO ../src/env/axi4_scoreboard.sv(219) @ 355000: uvm_test_top.env.scb [axi4_scoreboard] [REF_MEM_WRITE] Addr=0x72bbdc41 Data=0xd6
# UVM_INFO ../src/env/axi4_scoreboard.sv(219) @ 355000: uvm_test_top.env.scb [axi4_scoreboard] [REF_MEM_WRITE] Addr=0x72bbdc42 Data=0x9d
# UVM_INFO ../src/env/axi4_scoreboard.sv(219) @ 355000: uvm_test_top.env.scb [axi4_scoreboard] [REF_MEM_WRITE] Addr=0x72bbdc41 Data=0x95
# UVM_INFO ../src/env/axi4_scoreboard.sv(219) @ 355000: uvm_test_top.env.scb [axi4_scoreboard] [REF_MEM_WRITE] Addr=0x72bbdc42 Data=0xff
# UVM_INFO ../src/env/axi4_scoreboard.sv(219) @ 355000: uvm_test_top.env.scb [axi4_scoreboard] [REF_MEM_WRITE] Addr=0x72bbdc41 Data=0xf2
# UVM_INFO ../src/env/axi4_scoreboard.sv(219) @ 355000: uvm_test_top.env.scb [axi4_scoreboard] [REF_MEM_WRITE] Addr=0x72bbdc42 Data=0xc9
# UVM_INFO ../src/env/axi4_scoreboard.sv(219) @ 355000: uvm_test_top.env.scb [axi4_scoreboard] [REF_MEM_WRITE] Addr=0x72bbdc40 Data=0x24
# UVM_INFO ../src/env/axi4_scoreboard.sv(219) @ 355000: uvm_test_top.env.scb [axi4_scoreboard] [REF_MEM_WRITE] Addr=0x72bbdc41 Data=0x52
# UVM_INFO ../src/env/axi4_scoreboard.sv(219) @ 355000: uvm_test_top.env.scb [axi4_scoreboard] [REF_MEM_WRITE] Addr=0x72bbdc42 Data=0xc9
# UVM_INFO ../src/env/axi4_scoreboard.sv(219) @ 355000: uvm_test_top.env.scb [axi4_scoreboard] [REF_MEM_WRITE] Addr=0x72bbdc43 Data=0xe3
# UVM_INFO ../src/env/axi4_scoreboard.sv(219) @ 355000: uvm_test_top.env.scb [axi4_scoreboard] [REF_MEM_WRITE] Addr=0x72bbdc43 Data=0x4f
# UVM_INFO ../src/slv/axi4_slave_driver.sv(212) @ 375000: uvm_test_top.env.slave_agent.drv [axi4_slave_driver] AW received: ID=0x5 ADDR=0x1611d47e LEN=97 LOCK=AXI4_LOCK_EXCLUSIVE
# UVM_INFO ../src/slv/axi4_slave_monitor.sv(116) @ 375000: uvm_test_top.env.slave_agent.mon [axi4_slave_monitor] AW received: ID=0x5 ADDR=0x1611d47e LEN=97
