sim/report/logs/axi4_back_to_back_test_run_3_seed_24607761.log
# vsim -c -coverage -sv_seed 24607761 "+UVM_TESTNAME=axi4_back_to_back_test" "+UVM_VERBOSITY=UVM_HIGH" "+DUMP_VCD" -l ./report/logs/axi4_back_to_back_test_run_3_seed_24607761.log -do "coverage save -onexit ./report/coverage/axi4_back_to_back_test_run_3_seed_24607761.ucdb; run -all; quit -f" opt_tb_top 
# Start time: 14:44:02 on Jul 08,2026
# //  Questa Sim-64
# //  Version 10.6b linux_x86_64 May 25 2017
# //
# //  Copyright 1991-2017 Mentor Graphics Corporation
# //  All Rights Reserved.
# //
# //  QuestaSim and its associated documentation contain trade
# //  secrets and commercial or financial information that are the property of
# //  Mentor Graphics Corporation and are privileged, confidential,
# //  and exempt from disclosure under the Freedom of Information Act,
# //  5 U.S.C. Section 552. Furthermore, this information
# //  is prohibited from disclosure under the Trade Secrets Act,
# //  18 U.S.C. Section 1905.
# //
# Loading sv_std.std
# Loading work.axi4_if(fast)
# Loading mtiUvm.uvm_pkg
# Loading work.axi4_pkg(fast)
# Loading work.axi4_test_pkg(fast)
# Loading work.tb_top(fast)
# Loading work.axi4_if(fast)
# Loading work.axi4_sva(fast)
# Loading mtiUvm.questa_uvm_pkg(fast)
# Loading /cadtools/mentor/Questa_10.6b/questasim/uvm-1.1d/linux_x86_64/uvm_dpi.so
# coverage save -onexit ./report/coverage/axi4_back_to_back_test_run_3_seed_24607761.ucdb
#  run -all
# ----------------------------------------------------------------
# UVM-1.1d
# (C) 2007-2013 Mentor Graphics Corporation
# (C) 2007-2013 Cadence Design Systems, Inc.
# (C) 2006-2013 Synopsys, Inc.
# (C) 2011-2013 Cypress Semiconductor Corp.
# ----------------------------------------------------------------
# 
#   ***********       IMPORTANT RELEASE NOTES         ************
# 
#   You are using a version of the UVM library that has been compiled
#   with `UVM_NO_DEPRECATED undefined.
#   See http://www.eda.org/svdb/view.php?id=3313 for more details.
# 
#   You are using a version of the UVM library that has been compiled
#   with `UVM_OBJECT_MUST_HAVE_CONSTRUCTOR undefined.
#   See http://www.eda.org/svdb/view.php?id=3770 for more details.
# 
#       (Specify +UVM_NO_RELNOTES to turn off this notice)
# 
# UVM_INFO verilog_src/questa_uvm_pkg-1.2/src/questa_uvm_pkg.sv(215) @ 0: reporter [Questa UVM] QUESTA_UVM-1.2.3
# UVM_INFO verilog_src/questa_uvm_pkg-1.2/src/questa_uvm_pkg.sv(217) @ 0: reporter [Questa UVM]  questa_uvm::init(+struct)
# UVM_INFO ../src/tb_top.sv(147) @ 0: reporter [TB_TOP] Virtual interface set in config_db
# UVM_INFO @ 0: reporter [RNTST] Running test axi4_back_to_back_test...
# UVM_INFO ../src/tb_top.sv(161) @ 0: reporter [TB_TOP] Waveform VCD dumping enabled (axi4_vip.vcd)
# UVM_INFO ../src/env/axi4_vip_env.sv(83) @ 0: uvm_test_top.env [axi4_vip_env] slave_vif not set - reusing master_vif (passthrough mode)
# UVM_INFO ../src/env/axi4_vip_env.sv(93) @ 0: uvm_test_top.env [axi4_vip_env] Scoreboard created
# UVM_INFO ../src/env/axi4_vip_env.sv(100) @ 0: uvm_test_top.env [axi4_vip_env] Coverage collectors created
# UVM_INFO ../src/mst/axi4_master_agent.sv(69) @ 0: uvm_test_top.env.master_agent [axi4_master_agent] ACTIVE mode - driver + sequencer created
# UVM_INFO ../src/slv/axi4_slave_agent.sv(82) @ 0: uvm_test_top.env.slave_agent [axi4_slave_agent] ACTIVE mode - ready_delay=[0:0] resp_delay=[0:0]
# UVM_INFO ../src/env/axi4_vip_env.sv(116) @ 0: uvm_test_top.env [axi4_vip_env] Scoreboard connected: master_mon.ap -> scb, slave_mon.ap -> scb
# UVM_INFO ../src/env/axi4_vip_env.sv(124) @ 0: uvm_test_top.env [axi4_vip_env] Coverage connected: master_mon.ap -> master_cov, slave_mon.ap -> slave_cov
# UVM_INFO @ 0: reporter [UVMTOP] UVM testbench topology:
# ---------------------------------------------------------------
# Name                       Type                     Size  Value
# ---------------------------------------------------------------
# uvm_test_top               axi4_back_to_back_test   -     @475 
#   env                      axi4_vip_env             -     @490 
#     master_agent           axi4_master_agent        -     @505 
#       drv                  axi4_master_driver       -     @569 
#         rsp_port           uvm_analysis_port        -     @584 
#         seq_item_port      uvm_seq_item_pull_port   -     @576 
#       mon                  axi4_master_monitor      -     @561 
#         ap                 uvm_analysis_port        -     @702 
#       sqr                  axi4_master_sequencer    -     @592 
#         rsp_export         uvm_analysis_export      -     @599 
#         seq_item_export    uvm_seq_item_pull_imp    -     @693 
#         arbitration_queue  array                    0     -    
#         lock_queue         array                    0     -    
#         num_last_reqs      integral                 32    'd1  
#         num_last_rsps      integral                 32    'd1  
#     master_cov             axi4_coverage            -     @526 
#       analysis_imp         uvm_analysis_imp         -     @533 
#     scb                    axi4_scoreboard          -     @519 
#       master_export        uvm_analysis_imp_master  -     @716 
#       slave_export         uvm_analysis_imp_slave   -     @724 
#     slave_agent            axi4_slave_agent         -     @512 
#       drv                  axi4_slave_driver        -     @755 
#         rsp_port           uvm_analysis_port        -     @770 
#         seq_item_port      uvm_seq_item_pull_port   -     @762 
#       mon                  axi4_slave_monitor       -     @737 
#         ap                 uvm_analysis_port        -     @894 
#       sqr                  axi4_slave_sequencer     -     @778 
#         rsp_export         uvm_analysis_export      -     @785 
#         seq_item_export    uvm_seq_item_pull_imp    -     @879 
#         arbitration_queue  array                    0     -    
#         lock_queue         array                    0     -    
#         num_last_reqs      integral                 32    'd1  
#         num_last_rsps      integral                 32    'd1  
#     slave_cov              axi4_coverage            -     @541 
#       analysis_imp         uvm_analysis_imp         -     @548 
# ---------------------------------------------------------------
# 
# UVM_INFO verilog_src/questa_uvm_pkg-1.2/src/questa_uvm_pkg.sv(277) @ 0: reporter [Questa UVM] End Of Elaboration
# UVM_INFO ../src/test/axi4_back_to_back_test.sv(29) @ 0: uvm_test_top [axi4_back_to_back_test] Starting back-to-back pipeline test (8 transactions)
# UVM_INFO ../src/seq/axi4_back_to_back_seq.sv(38) @ 0: uvm_test_top.env.master_agent.sqr@@b2b_seq [axi4_back_to_back_seq] Starting back-to-back demo sequence (4 writes + 4 reads)
# UVM_INFO ../src/tb_top.sv(49) @ 95000: reporter [TOP_TB] Reset de-asserted
# UVM_INFO ../src/slv/axi4_slave_driver.sv(131) @ 95000: uvm_test_top.env.slave_agent.drv [axi4_slave_driver] Reset deasserted - slave driver active
# UVM_INFO ../src/mst/axi4_master_driver.sv(64) @ 95000: uvm_test_top.env.master_agent.drv [axi4_master_driver] Reset deasserted - master driver active
# UVM_INFO ../src/mst/axi4_master_monitor.sv(77) @ 95000: uvm_test_top.env.master_agent.mon [axi4_master_monitor] Reset deasserted - monitor active
# UVM_INFO ../src/slv/axi4_slave_monitor.sv(71) @ 95000: uvm_test_top.env.slave_agent.mon [axi4_slave_monitor] Reset deasserted - monitor active
# UVM_INFO ../src/mst/axi4_master_driver.sv(73) @ 95000: uvm_test_top.env.master_agent.drv [axi4_master_driver] Driving AXI4_WRITE  ID=0x0  ADDR=0x0000a000  LEN=1
# UVM_INFO ../src/mst/axi4_master_driver.sv(73) @ 95000: uvm_test_top.env.master_agent.drv [axi4_master_driver] Driving AXI4_WRITE  ID=0x1  ADDR=0x0000a100  LEN=1
# UVM_INFO ../src/mst/axi4_master_driver.sv(73) @ 95000: uvm_test_top.env.master_agent.drv [axi4_master_driver] Driving AXI4_WRITE  ID=0x2  ADDR=0x0000a200  LEN=1
# UVM_INFO ../src/mst/axi4_master_driver.sv(73) @ 95000: uvm_test_top.env.master_agent.drv [axi4_master_driver] Driving AXI4_WRITE  ID=0x3  ADDR=0x0000a300  LEN=1
# UVM_INFO ../src/seq/axi4_back_to_back_seq.sv(66) @ 95000: uvm_test_top.env.master_agent.sqr@@b2b_seq [axi4_back_to_back_seq] All 4 back-to-back writes submitted
# UVM_INFO ../src/slv/axi4_slave_driver.sv(228) @ 135000: uvm_test_top.env.slave_agent.drv [axi4_slave_driver] AW received: ID=0x0 ADDR=0x0000a000 LEN=1 LOCK=AXI4_LOCK_EXCLUSIVE
# UVM_INFO ../src/slv/axi4_slave_monitor.sv(116) @ 135000: uvm_test_top.env.slave_agent.mon [axi4_slave_monitor] AW received: ID=0x0 ADDR=0x0000a000 LEN=1
# UVM_INFO ../src/mst/axi4_master_monitor.sv(124) @ 135000: uvm_test_top.env.master_agent.mon [axi4_master_monitor] AW observed: ID=0x0 ADDR=0x0000a000 LEN=1
# UVM_INFO ../src/slv/axi4_slave_monitor.sv(167) @ 135000: uvm_test_top.env.slave_agent.mon [axi4_slave_monitor] W data assembled: ID=0x0 ADDR=0x0000a000 2 beats
# UVM_INFO ../src/mst/axi4_master_monitor.sv(184) @ 135000: uvm_test_top.env.master_agent.mon [axi4_master_monitor] W data assembled: ID=0x0 ADDR=0x0000a000 2 beats
# UVM_INFO ../src/mst/axi4_master_driver.sv(289) @ 155000: uvm_test_top.env.master_agent.drv [axi4_master_driver] Master driver received B response: ID=0x0 RESP=AXI4_RESP_OKAY
# UVM_INFO ../src/slv/axi4_slave_driver.sv(348) @ 155000: uvm_test_top.env.slave_agent.drv [axi4_slave_driver] Write complete: ID=0x0 RESP=AXI4_RESP_OKAY
# UVM_INFO ../src/slv/axi4_slave_monitor.sv(189) @ 155000: uvm_test_top.env.slave_agent.mon [axi4_slave_monitor] Write response sent: ID=0x0 ADDR=0x0000a000 RESP=AXI4_RESP_OKAY
# UVM_INFO ../src/env/axi4_scoreboard.sv(108) @ 155000: uvm_test_top.env.scb [axi4_scoreboard] Slave AXI4_WRITE received: ID=0x0 ADDR=0x0000a000 LEN=1
# UVM_INFO ../src/mst/axi4_master_monitor.sv(210) @ 155000: uvm_test_top.env.master_agent.mon [axi4_master_monitor] Write complete: ID=0x0 ADDR=0x0000a000 RESP=AXI4_RESP_OKAY
# UVM_INFO ../src/env/axi4_scoreboard.sv(87) @ 155000: uvm_test_top.env.scb [axi4_scoreboard] Master AXI4_WRITE received: ID=0x0 ADDR=0x0000a000 LEN=1
# UVM_INFO ../src/env/axi4_scoreboard.sv(291) @ 155000: uvm_test_top.env.scb [axi4_scoreboard] [WRITE] MATCH #1: ID=0x0 ADDR=0x0000a000 LEN=1
# UVM_INFO ../src/env/axi4_scoreboard.sv(226) @ 155000: uvm_test_top.env.scb [axi4_scoreboard] [REF_MEM_WRITE_IGNORED] Write ignored for ADDR=0x0000a000 LOCK=AXI4_LOCK_EXCLUSIVE RESP=AXI4_RESP_OKAY
# UVM_INFO ../src/slv/axi4_slave_driver.sv(228) @ 165000: uvm_test_top.env.slave_agent.drv [axi4_slave_driver] AW received: ID=0x1 ADDR=0x0000a100 LEN=1 LOCK=AXI4_LOCK_EXCLUSIVE
# UVM_INFO ../src/mst/axi4_master_monitor.sv(124) @ 165000: uvm_test_top.env.master_agent.mon [axi4_master_monitor] AW observed: ID=0x1 ADDR=0x0000a100 LEN=1
# UVM_INFO ../src/slv/axi4_slave_monitor.sv(116) @ 165000: uvm_test_top.env.slave_agent.mon [axi4_slave_monitor] AW received: ID=0x1 ADDR=0x0000a100 LEN=1
# UVM_INFO ../src/mst/axi4_master_monitor.sv(184) @ 165000: uvm_test_top.env.master_agent.mon [axi4_master_monitor] W data assembled: ID=0x1 ADDR=0x0000a100 2 beats
# UVM_INFO ../src/slv/axi4_slave_monitor.sv(167) @ 165000: uvm_test_top.env.slave_agent.mon [axi4_slave_monitor] W data assembled: ID=0x1 ADDR=0x0000a100 2 beats
# UVM_INFO ../src/mst/axi4_master_driver.sv(289) @ 195000: uvm_test_top.env.master_agent.drv [axi4_master_driver] Master driver received B response: ID=0x1 RESP=AXI4_RESP_OKAY
# UVM_INFO ../src/slv/axi4_slave_driver.sv(228) @ 195000: uvm_test_top.env.slave_agent.drv [axi4_slave_driver] AW received: ID=0x2 ADDR=0x0000a200 LEN=1 LOCK=AXI4_LOCK_NORMAL
# UVM_INFO ../src/slv/axi4_slave_driver.sv(348) @ 195000: uvm_test_top.env.slave_agent.drv [axi4_slave_driver] Write complete: ID=0x1 RESP=AXI4_RESP_OKAY
# UVM_INFO ../src/slv/axi4_slave_monitor.sv(189) @ 195000: uvm_test_top.env.slave_agent.mon [axi4_slave_monitor] Write response sent: ID=0x1 ADDR=0x0000a100 RESP=AXI4_RESP_OKAY
# UVM_INFO ../src/env/axi4_scoreboard.sv(108) @ 195000: uvm_test_top.env.scb [axi4_scoreboard] Slave AXI4_WRITE received: ID=0x1 ADDR=0x0000a100 LEN=1
# UVM_INFO ../src/slv/axi4_slave_monitor.sv(116) @ 195000: uvm_test_top.env.slave_agent.mon [axi4_slave_monitor] AW received: ID=0x2 ADDR=0x0000a200 LEN=1
# UVM_INFO ../src/mst/axi4_master_monitor.sv(210) @ 195000: uvm_test_top.env.master_agent.mon [axi4_master_monitor] Write complete: ID=0x1 ADDR=0x0000a100 RESP=AXI4_RESP_OKAY
# UVM_INFO ../src/env/axi4_scoreboard.sv(87) @ 195000: uvm_test_top.env.scb [axi4_scoreboard] Master AXI4_WRITE received: ID=0x1 ADDR=0x0000a100 LEN=1
# UVM_INFO ../src/env/axi4_scoreboard.sv(291) @ 195000: uvm_test_top.env.scb [axi4_scoreboard] [WRITE] MATCH #2: ID=0x1 ADDR=0x0000a100 LEN=1
# UVM_INFO ../src/env/axi4_scoreboard.sv(226) @ 195000: uvm_test_top.env.scb [axi4_scoreboard] [REF_MEM_WRITE_IGNORED] Write ignored for ADDR=0x0000a100 LOCK=AXI4_LOCK_EXCLUSIVE RESP=AXI4_RESP_OKAY
# UVM_INFO ../src/mst/axi4_master_monitor.sv(124) @ 195000: uvm_test_top.env.master_agent.mon [axi4_master_monitor] AW observed: ID=0x2 ADDR=0x0000a200 LEN=1
# UVM_INFO ../src/mst/axi4_master_monitor.sv(184) @ 205000: uvm_test_top.env.master_agent.mon [axi4_master_monitor] W data assembled: ID=0x2 ADDR=0x0000a200 2 beats
# UVM_INFO ../src/slv/axi4_slave_monitor.sv(167) @ 205000: uvm_test_top.env.slave_agent.mon [axi4_slave_monitor] W data assembled: ID=0x2 ADDR=0x0000a200 2 beats
# UVM_INFO ../src/slv/axi4_slave_driver.sv(228) @ 225000: uvm_test_top.env.slave_agent.drv [axi4_slave_driver] AW received: ID=0x3 ADDR=0x0000a300 LEN=1 LOCK=AXI4_LOCK_EXCLUSIVE
# UVM_INFO ../src/mst/axi4_master_monitor.sv(124) @ 225000: uvm_test_top.env.master_agent.mon [axi4_master_monitor] AW observed: ID=0x3 ADDR=0x0000a300 LEN=1
# UVM_INFO ../src/slv/axi4_slave_monitor.sv(116) @ 225000: uvm_test_top.env.slave_agent.mon [axi4_slave_monitor] AW received: ID=0x3 ADDR=0x0000a300 LEN=1
# UVM_INFO ../src/mst/axi4_master_driver.sv(289) @ 235000: uvm_test_top.env.master_agent.drv [axi4_master_driver] Master driver received B response: ID=0x2 RESP=AXI4_RESP_OKAY
# UVM_INFO ../src/slv/axi4_slave_driver.sv(348) @ 235000: uvm_test_top.env.slave_agent.drv [axi4_slave_driver] Write complete: ID=0x2 RESP=AXI4_RESP_OKAY
# UVM_INFO ../src/slv/axi4_slave_monitor.sv(189) @ 235000: uvm_test_top.env.slave_agent.mon [axi4_slave_monitor] Write response sent: ID=0x2 ADDR=0x0000a200 RESP=AXI4_RESP_OKAY
# UVM_INFO ../src/env/axi4_scoreboard.sv(108) @ 235000: uvm_test_top.env.scb [axi4_scoreboard] Slave AXI4_WRITE received: ID=0x2 ADDR=0x0000a200 LEN=1
# UVM_INFO ../src/mst/axi4_master_monitor.sv(210) @ 235000: uvm_test_top.env.master_agent.mon [axi4_master_monitor] Write complete: ID=0x2 ADDR=0x0000a200 RESP=AXI4_RESP_OKAY
# UVM_INFO ../src/env/axi4_scoreboard.sv(87) @ 235000: uvm_test_top.env.scb [axi4_scoreboard] Master AXI4_WRITE received: ID=0x2 ADDR=0x0000a200 LEN=1
# UVM_INFO ../src/env/axi4_scoreboard.sv(291) @ 235000: uvm_test_top.env.scb [axi4_scoreboard] [WRITE] MATCH #3: ID=0x2 ADDR=0x0000a200 LEN=1
# UVM_INFO ../src/env/axi4_scoreboard.sv(219) @ 235000: uvm_test_top.env.scb [axi4_scoreboard] [REF_MEM_WRITE] Addr=0x0000a200 Data=0x61
# UVM_INFO ../src/env/axi4_scoreboard.sv(219) @ 235000: uvm_test_top.env.scb [axi4_scoreboard] [REF_MEM_WRITE] Addr=0x0000a201 Data=0x4c
# UVM_INFO ../src/env/axi4_scoreboard.sv(219) @ 235000: uvm_test_top.env.scb [axi4_scoreboard] [REF_MEM_WRITE] Addr=0x0000a202 Data=0xde
# UVM_INFO ../src/env/axi4_scoreboard.sv(219) @ 235000: uvm_test_top.env.scb [axi4_scoreboard] [REF_MEM_WRITE] Addr=0x0000a203 Data=0x17
# UVM_INFO ../src/env/axi4_scoreboard.sv(219) @ 235000: uvm_test_top.env.scb [axi4_scoreboard] [REF_MEM_WRITE] Addr=0x0000a204 Data=0x3b
# UVM_INFO ../src/env/axi4_scoreboard.sv(219) @ 235000: uvm_test_top.env.scb [axi4_scoreboard] [REF_MEM_WRITE] Addr=0x0000a205 Data=0xcf
# UVM_INFO ../src/env/axi4_scoreboard.sv(219) @ 235000: uvm_test_top.env.scb [axi4_scoreboard] [REF_MEM_WRITE] Addr=0x0000a206 Data=0x98
# UVM_INFO ../src/env/axi4_scoreboard.sv(219) @ 235000: uvm_test_top.env.scb [axi4_scoreboard] [REF_MEM_WRITE] Addr=0x0000a207 Data=0xc2
# UVM_INFO ../src/mst/axi4_master_monitor.sv(184) @ 265000: uvm_test_top.env.master_agent.mon [axi4_master_monitor] W data assembled: ID=0x3 ADDR=0x0000a300 2 beats
# UVM_INFO ../src/slv/axi4_slave_monitor.sv(167) @ 265000: uvm_test_top.env.slave_agent.mon [axi4_slave_monitor] W data assembled: ID=0x3 ADDR=0x0000a300 2 beats
# UVM_INFO ../src/mst/axi4_master_driver.sv(289) @ 295000: uvm_test_top.env.master_agent.drv [axi4_master_driver] Master driver received B response: ID=0x3 RESP=AXI4_RESP_OKAY
# UVM_INFO ../src/slv/axi4_slave_driver.sv(348) @ 295000: uvm_test_top.env.slave_agent.drv [axi4_slave_driver] Write complete: ID=0x3 RESP=AXI4_RESP_OKAY
# UVM_INFO ../src/slv/axi4_slave_monitor.sv(189) @ 295000: uvm_test_top.env.slave_agent.mon [axi4_slave_monitor] Write response sent: ID=0x3 ADDR=0x0000a300 RESP=AXI4_RESP_OKAY
# UVM_INFO ../src/env/axi4_scoreboard.sv(108) @ 295000: uvm_test_top.env.scb [axi4_scoreboard] Slave AXI4_WRITE received: ID=0x3 ADDR=0x0000a300 LEN=1
# UVM_INFO ../src/mst/axi4_master_monitor.sv(210) @ 295000: uvm_test_top.env.master_agent.mon [axi4_master_monitor] Write complete: ID=0x3 ADDR=0x0000a300 RESP=AXI4_RESP_OKAY
# UVM_INFO ../src/env/axi4_scoreboard.sv(87) @ 295000: uvm_test_top.env.scb [axi4_scoreboard] Master AXI4_WRITE received: ID=0x3 ADDR=0x0000a300 LEN=1
# UVM_INFO ../src/env/axi4_scoreboard.sv(291) @ 295000: uvm_test_top.env.scb [axi4_scoreboard] [WRITE] MATCH #4: ID=0x3 ADDR=0x0000a300 LEN=1
# UVM_INFO ../src/env/axi4_scoreboard.sv(226) @ 295000: uvm_test_top.env.scb [axi4_scoreboard] [REF_MEM_WRITE_IGNORED] Write ignored for ADDR=0x0000a300 LOCK=AXI4_LOCK_EXCLUSIVE RESP=AXI4_RESP_OKAY
# UVM_INFO ../src/mst/axi4_master_driver.sv(73) @ 295000: uvm_test_top.env.master_agent.drv [axi4_master_driver] Driving AXI4_READ  ID=0x0  ADDR=0x0000a000  LEN=1
# UVM_INFO ../src/mst/axi4_master_driver.sv(73) @ 295000: uvm_test_top.env.master_agent.drv [axi4_master_driver] Driving AXI4_READ  ID=0x1  ADDR=0x0000a100  LEN=1
# UVM_INFO ../src/mst/axi4_master_driver.sv(73) @ 295000: uvm_test_top.env.master_agent.drv [axi4_master_driver] Driving AXI4_READ  ID=0x2  ADDR=0x0000a200  LEN=1
# UVM_INFO ../src/mst/axi4_master_driver.sv(73) @ 295000: uvm_test_top.env.master_agent.drv [axi4_master_driver] Driving AXI4_READ  ID=0x3  ADDR=0x0000a300  LEN=1
# UVM_INFO ../src/seq/axi4_back_to_back_seq.sv(93) @ 295000: uvm_test_top.env.master_agent.sqr@@b2b_seq [axi4_back_to_back_seq] All 4 back-to-back reads submitted
# UVM_INFO ../src/seq/axi4_back_to_back_seq.sv(97) @ 295000: uvm_test_top.env.master_agent.sqr@@b2b_seq [axi4_back_to_back_seq] Back-to-back demo complete (8/8 transactions sent)
# UVM_INFO ../src/slv/axi4_slave_driver.sv(386) @ 325000: uvm_test_top.env.slave_agent.drv [axi4_slave_driver] AR received: ID=0x0 ADDR=0x0000a000 LEN=1 LOCK=AXI4_LOCK_EXCLUSIVE
# UVM_INFO ../src/mst/axi4_master_monitor.sv(246) @ 325000: uvm_test_top.env.master_agent.mon [axi4_master_monitor] AR observed: ID=0x0 ADDR=0x0000a000 LEN=1
# UVM_INFO ../src/slv/axi4_slave_monitor.sv(224) @ 325000: uvm_test_top.env.slave_agent.mon [axi4_slave_monitor] AR received: ID=0x0 ADDR=0x0000a000 LEN=1
# UVM_INFO ../src/slv/axi4_slave_driver.sv(386) @ 355000: uvm_test_top.env.slave_agent.drv [axi4_slave_driver] AR received: ID=0x1 ADDR=0x0000a100 LEN=1 LOCK=AXI4_LOCK_NORMAL
# UVM_INFO ../src/slv/axi4_slave_monitor.sv(224) @ 355000: uvm_test_top.env.slave_agent.mon [axi4_slave_monitor] AR received: ID=0x1 ADDR=0x0000a100 LEN=1
# UVM_INFO ../src/mst/axi4_master_monitor.sv(246) @ 355000: uvm_test_top.env.master_agent.mon [axi4_master_monitor] AR observed: ID=0x1 ADDR=0x0000a100 LEN=1
# UVM_INFO ../src/mst/axi4_master_driver.sv(348) @ 365000: uvm_test_top.env.master_agent.drv [axi4_master_driver] Master driver received all R beats for ID=0x0
# UVM_INFO ../src/slv/axi4_slave_driver.sv(501) @ 365000: uvm_test_top.env.slave_agent.drv [axi4_slave_driver] Read complete: ID=0x0 ADDR=0x0000a000 RESP=AXI4_RESP_EXOKAY  2 beats sent
# UVM_INFO ../src/mst/axi4_master_monitor.sv(314) @ 365000: uvm_test_top.env.master_agent.mon [axi4_master_monitor] Read complete: ID=0x0 ADDR=0x0000a000 2 beats
# UVM_INFO ../src/env/axi4_scoreboard.sv(87) @ 365000: uvm_test_top.env.scb [axi4_scoreboard] Master AXI4_READ received: ID=0x0 ADDR=0x0000a000 LEN=1
# UVM_INFO ../src/slv/axi4_slave_monitor.sv(287) @ 365000: uvm_test_top.env.slave_agent.mon [axi4_slave_monitor] Read data sent: ID=0x0 ADDR=0x0000a000 2 beats
# UVM_INFO ../src/env/axi4_scoreboard.sv(108) @ 365000: uvm_test_top.env.scb [axi4_scoreboard] Slave AXI4_READ received: ID=0x0 ADDR=0x0000a000 LEN=1
# UVM_INFO ../src/env/axi4_scoreboard.sv(291) @ 365000: uvm_test_top.env.scb [axi4_scoreboard] [READ] MATCH #5: ID=0x0 ADDR=0x0000a000 LEN=1
# UVM_INFO ../src/slv/axi4_slave_driver.sv(386) @ 385000: uvm_test_top.env.slave_agent.drv [axi4_slave_driver] AR received: ID=0x2 ADDR=0x0000a200 LEN=1 LOCK=AXI4_LOCK_NORMAL
# UVM_INFO ../src/mst/axi4_master_monitor.sv(246) @ 385000: uvm_test_top.env.master_agent.mon [axi4_master_monitor] AR observed: ID=0x2 ADDR=0x0000a200 LEN=1
# UVM_INFO ../src/slv/axi4_slave_monitor.sv(224) @ 385000: uvm_test_top.env.slave_agent.mon [axi4_slave_monitor] AR received: ID=0x2 ADDR=0x0000a200 LEN=1
# UVM_INFO ../src/mst/axi4_master_driver.sv(348) @ 405000: uvm_test_top.env.master_agent.drv [axi4_master_driver] Master driver received all R beats for ID=0x1
# UVM_INFO ../src/slv/axi4_slave_driver.sv(501) @ 405000: uvm_test_top.env.slave_agent.drv [axi4_slave_driver] Read complete: ID=0x1 ADDR=0x0000a100 RESP=AXI4_RESP_OKAY  2 beats sent
# UVM_INFO ../src/mst/axi4_master_monitor.sv(314) @ 405000: uvm_test_top.env.master_agent.mon [axi4_master_monitor] Read complete: ID=0x1 ADDR=0x0000a100 2 beats
# UVM_INFO ../src/env/axi4_scoreboard.sv(87) @ 405000: uvm_test_top.env.scb [axi4_scoreboard] Master AXI4_READ received: ID=0x1 ADDR=0x0000a100 LEN=1
# UVM_INFO ../src/slv/axi4_slave_monitor.sv(287) @ 405000: uvm_test_top.env.slave_agent.mon [axi4_slave_monitor] Read data sent: ID=0x1 ADDR=0x0000a100 2 beats
# UVM_INFO ../src/env/axi4_scoreboard.sv(108) @ 405000: uvm_test_top.env.scb [axi4_scoreboard] Slave AXI4_READ received: ID=0x1 ADDR=0x0000a100 LEN=1
# UVM_INFO ../src/env/axi4_scoreboard.sv(291) @ 405000: uvm_test_top.env.scb [axi4_scoreboard] [READ] MATCH #6: ID=0x1 ADDR=0x0000a100 LEN=1
# UVM_INFO ../src/slv/axi4_slave_driver.sv(386) @ 415000: uvm_test_top.env.slave_agent.drv [axi4_slave_driver] AR received: ID=0x3 ADDR=0x0000a300 LEN=1 LOCK=AXI4_LOCK_NORMAL
# UVM_INFO ../src/slv/axi4_slave_monitor.sv(224) @ 415000: uvm_test_top.env.slave_agent.mon [axi4_slave_monitor] AR received: ID=0x3 ADDR=0x0000a300 LEN=1
# UVM_INFO ../src/mst/axi4_master_monitor.sv(246) @ 415000: uvm_test_top.env.master_agent.mon [axi4_master_monitor] AR observed: ID=0x3 ADDR=0x0000a300 LEN=1
# UVM_INFO ../src/mst/axi4_master_driver.sv(348) @ 445000: uvm_test_top.env.master_agent.drv [axi4_master_driver] Master driver received all R beats for ID=0x2
# UVM_INFO ../src/slv/axi4_slave_driver.sv(501) @ 445000: uvm_test_top.env.slave_agent.drv [axi4_slave_driver] Read complete: ID=0x2 ADDR=0x0000a200 RESP=AXI4_RESP_OKAY  2 beats sent
# UVM_INFO ../src/mst/axi4_master_monitor.sv(314) @ 445000: uvm_test_top.env.master_agent.mon [axi4_master_monitor] Read complete: ID=0x2 ADDR=0x0000a200 2 beats
# UVM_INFO ../src/env/axi4_scoreboard.sv(87) @ 445000: uvm_test_top.env.scb [axi4_scoreboard] Master AXI4_READ received: ID=0x2 ADDR=0x0000a200 LEN=1
# UVM_INFO ../src/slv/axi4_slave_monitor.sv(287) @ 445000: uvm_test_top.env.slave_agent.mon [axi4_slave_monitor] Read data sent: ID=0x2 ADDR=0x0000a200 2 beats
# UVM_INFO ../src/env/axi4_scoreboard.sv(108) @ 445000: uvm_test_top.env.scb [axi4_scoreboard] Slave AXI4_READ received: ID=0x2 ADDR=0x0000a200 LEN=1
# UVM_INFO ../src/env/axi4_scoreboard.sv(291) @ 445000: uvm_test_top.env.scb [axi4_scoreboard] [READ] MATCH #7: ID=0x2 ADDR=0x0000a200 LEN=1
# UVM_INFO ../src/mst/axi4_master_driver.sv(348) @ 485000: uvm_test_top.env.master_agent.drv [axi4_master_driver] Master driver received all R beats for ID=0x3
# UVM_INFO ../src/slv/axi4_slave_driver.sv(501) @ 485000: uvm_test_top.env.slave_agent.drv [axi4_slave_driver] Read complete: ID=0x3 ADDR=0x0000a300 RESP=AXI4_RESP_OKAY  2 beats sent
# UVM_INFO ../src/mst/axi4_master_monitor.sv(314) @ 485000: uvm_test_top.env.master_agent.mon [axi4_master_monitor] Read complete: ID=0x3 ADDR=0x0000a300 2 beats
# UVM_INFO ../src/env/axi4_scoreboard.sv(87) @ 485000: uvm_test_top.env.scb [axi4_scoreboard] Master AXI4_READ received: ID=0x3 ADDR=0x0000a300 LEN=1
# UVM_INFO ../src/slv/axi4_slave_monitor.sv(287) @ 485000: uvm_test_top.env.slave_agent.mon [axi4_slave_monitor] Read data sent: ID=0x3 ADDR=0x0000a300 2 beats
# UVM_INFO ../src/env/axi4_scoreboard.sv(108) @ 485000: uvm_test_top.env.scb [axi4_scoreboard] Slave AXI4_READ received: ID=0x3 ADDR=0x0000a300 LEN=1
# UVM_INFO ../src/env/axi4_scoreboard.sv(291) @ 485000: uvm_test_top.env.scb [axi4_scoreboard] [READ] MATCH #8: ID=0x3 ADDR=0x0000a300 LEN=1
# UVM_INFO ../src/test/axi4_back_to_back_test.sv(38) @ 1295000: uvm_test_top [axi4_back_to_back_test] Back-to-back pipeline test complete
# UVM_INFO verilog_src/uvm-1.1d/src/base/uvm_objection.svh(1268) @ 1295000: reporter [TEST_DONE] 'run' phase is ready to proceed to the 'extract' phase
# UVM_INFO ../src/env/axi4_scoreboard.sv(360) @ 1295000: uvm_test_top.env.scb [axi4_scoreboard] 
# ========================================
#          SCOREBOARD SUMMARY
# ========================================
#   Master transactions : 8
#   Slave transactions  : 8
#   Matches             : 8
#   Mismatches          : 0
#   Unmatched master WR : 0
#   Unmatched master RD : 0
#   Unmatched slave  WR : 0
#   Unmatched slave  RD : 0
# ========================================
#   RESULT : PASS
# ========================================
# UVM_INFO ../src/test/axi4_base_test.sv(91) @ 1295000: uvm_test_top [axi4_back_to_back_test] 
# === TEST PASSED ===
# 
# 
# --- UVM Report Summary ---
# 
# ** Report counts by severity
# UVM_INFO :  135
# UVM_WARNING :    0
# UVM_ERROR :    0
# UVM_FATAL :    0
# ** Report counts by id
# [Questa UVM]     3
# [RNTST]     1
# [TB_TOP]     2
# [TEST_DONE]     1
# [TOP_TB]     1
# [UVMTOP]     1
# [axi4_back_to_back_seq]     4
# [axi4_back_to_back_test]     3
