sim/report/logs/axi4_illegal_exclusive_test_run_2_seed_91291579.log
# vsim -c -coverage -sv_seed 91291579 "+UVM_TESTNAME=axi4_illegal_exclusive_test" "+UVM_VERBOSITY=UVM_HIGH" "+DUMP_VCD" -l ./report/logs/axi4_illegal_exclusive_test_run_2_seed_91291579.log -do "coverage save -onexit ./report/coverage/axi4_illegal_exclusive_test_run_2_seed_91291579.ucdb; run -all; quit -f" opt_tb_top 
# Start time: 14:26:21 on Jul 06,2026
# //  Questa Sim-64
# //  Version 10.6b linux_x86_64 May 25 2017
# //
# //  Copyright 1991-2017 Mentor Graphics Corporation
# //  All Rights Reserved.
# //
# //  QuestaSim and its associated documentation contain trade
# //  secrets and commercial or financial information that are the property of
# //  Mentor Graphics Corporation and are privileged, confidential,
# //  and exempt from disclosure under the Freedom of Information Act,
# //  5 U.S.C. Section 552. Furthermore, this information
# //  is prohibited from disclosure under the Trade Secrets Act,
# //  18 U.S.C. Section 1905.
# //
# Loading sv_std.std
# Loading work.axi4_if(fast)
# Loading mtiUvm.uvm_pkg
# Loading work.axi4_pkg(fast)
# Loading work.axi4_test_pkg(fast)
# Loading work.tb_top(fast)
# Loading work.axi4_if(fast)
# Loading work.axi4_sva(fast)
# Loading mtiUvm.questa_uvm_pkg(fast)
# Loading /cadtools/mentor/Questa_10.6b/questasim/uvm-1.1d/linux_x86_64/uvm_dpi.so
# coverage save -onexit ./report/coverage/axi4_illegal_exclusive_test_run_2_seed_91291579.ucdb
#  run -all
# ----------------------------------------------------------------
# UVM-1.1d
# (C) 2007-2013 Mentor Graphics Corporation
# (C) 2007-2013 Cadence Design Systems, Inc.
# (C) 2006-2013 Synopsys, Inc.
# (C) 2011-2013 Cypress Semiconductor Corp.
# ----------------------------------------------------------------
# 
#   ***********       IMPORTANT RELEASE NOTES         ************
# 
#   You are using a version of the UVM library that has been compiled
#   with `UVM_NO_DEPRECATED undefined.
#   See http://www.eda.org/svdb/view.php?id=3313 for more details.
# 
#   You are using a version of the UVM library that has been compiled
#   with `UVM_OBJECT_MUST_HAVE_CONSTRUCTOR undefined.
#   See http://www.eda.org/svdb/view.php?id=3770 for more details.
# 
#       (Specify +UVM_NO_RELNOTES to turn off this notice)
# 
# UVM_INFO verilog_src/questa_uvm_pkg-1.2/src/questa_uvm_pkg.sv(215) @ 0: reporter [Questa UVM] QUESTA_UVM-1.2.3
# UVM_INFO verilog_src/questa_uvm_pkg-1.2/src/questa_uvm_pkg.sv(217) @ 0: reporter [Questa UVM]  questa_uvm::init(+struct)
# UVM_INFO ../src/tb_top.sv(147) @ 0: reporter [TB_TOP] Virtual interface set in config_db
# UVM_INFO @ 0: reporter [RNTST] Running test axi4_illegal_exclusive_test...
# UVM_INFO ../src/tb_top.sv(161) @ 0: reporter [TB_TOP] Waveform VCD dumping enabled (axi4_vip.vcd)
# UVM_INFO ../src/env/axi4_vip_env.sv(83) @ 0: uvm_test_top.env [axi4_vip_env] slave_vif not set - reusing master_vif (passthrough mode)
# UVM_INFO ../src/env/axi4_vip_env.sv(93) @ 0: uvm_test_top.env [axi4_vip_env] Scoreboard created
# UVM_INFO ../src/env/axi4_vip_env.sv(100) @ 0: uvm_test_top.env [axi4_vip_env] Coverage collectors created
# UVM_INFO ../src/mst/axi4_master_agent.sv(69) @ 0: uvm_test_top.env.master_agent [axi4_master_agent] ACTIVE mode - driver + sequencer created
# UVM_INFO ../src/slv/axi4_slave_agent.sv(82) @ 0: uvm_test_top.env.slave_agent [axi4_slave_agent] ACTIVE mode — ready_delay=[0:0] resp_delay=[0:0]
# UVM_INFO ../src/env/axi4_vip_env.sv(116) @ 0: uvm_test_top.env [axi4_vip_env] Scoreboard connected: master_mon.ap -> scb, slave_mon.ap -> scb
# UVM_INFO ../src/env/axi4_vip_env.sv(124) @ 0: uvm_test_top.env [axi4_vip_env] Coverage connected: master_mon.ap -> master_cov, slave_mon.ap -> slave_cov
# UVM_INFO @ 0: reporter [UVMTOP] UVM testbench topology:
# -------------------------------------------------------------------
# Name                       Type                         Size  Value
# -------------------------------------------------------------------
# uvm_test_top               axi4_illegal_exclusive_test  -     @475 
#   env                      axi4_vip_env                 -     @490 
#     master_agent           axi4_master_agent            -     @506 
#       drv                  axi4_master_driver           -     @570 
#         rsp_port           uvm_analysis_port            -     @585 
#         seq_item_port      uvm_seq_item_pull_port       -     @577 
#       mon                  axi4_master_monitor          -     @562 
#         ap                 uvm_analysis_port            -     @703 
#       sqr                  axi4_master_sequencer        -     @593 
#         rsp_export         uvm_analysis_export          -     @600 
#         seq_item_export    uvm_seq_item_pull_imp        -     @694 
#         arbitration_queue  array                        0     -    
#         lock_queue         array                        0     -    
#         num_last_reqs      integral                     32    'd1  
#         num_last_rsps      integral                     32    'd1  
#     master_cov             axi4_coverage                -     @527 
#       analysis_imp         uvm_analysis_imp             -     @534 
#     scb                    axi4_scoreboard              -     @520 
#       master_export        uvm_analysis_imp_master      -     @717 
#       slave_export         uvm_analysis_imp_slave       -     @725 
#     slave_agent            axi4_slave_agent             -     @513 
#       drv                  axi4_slave_driver            -     @756 
#         rsp_port           uvm_analysis_port            -     @771 
#         seq_item_port      uvm_seq_item_pull_port       -     @763 
#       mon                  axi4_slave_monitor           -     @738 
#         ap                 uvm_analysis_port            -     @895 
#       sqr                  axi4_slave_sequencer         -     @779 
#         rsp_export         uvm_analysis_export          -     @786 
#         seq_item_export    uvm_seq_item_pull_imp        -     @880 
#         arbitration_queue  array                        0     -    
#         lock_queue         array                        0     -    
#         num_last_reqs      integral                     32    'd1  
#         num_last_rsps      integral                     32    'd1  
#     slave_cov              axi4_coverage                -     @542 
#       analysis_imp         uvm_analysis_imp             -     @549 
# -------------------------------------------------------------------
# 
# UVM_INFO verilog_src/questa_uvm_pkg-1.2/src/questa_uvm_pkg.sv(277) @ 0: reporter [Questa UVM] End Of Elaboration
# UVM_INFO ../src/test/axi4_illegal_exclusive_test.sv(80) @ 0: uvm_test_top [axi4_illegal_exclusive_test] Starting illegal-exclusive negative test
# UVM_INFO ../src/seq/axi4_illegal_exclusive_seq.sv(82) @ 0: uvm_test_top.env.master_agent.sqr@@illegal_excl_seq [axi4_illegal_exclusive_seq] Starting illegal-exclusive negative sequence (expect slave protocol errors)
# UVM_INFO ../src/tb_top.sv(49) @ 95000: reporter [TOP_TB] Reset de-asserted
# UVM_INFO ../src/slv/axi4_slave_driver.sv(131) @ 95000: uvm_test_top.env.slave_agent.drv [axi4_slave_driver] Reset deasserted - slave driver active
# UVM_INFO ../src/mst/axi4_master_driver.sv(64) @ 95000: uvm_test_top.env.master_agent.drv [axi4_master_driver] Reset deasserted - master driver active
# UVM_INFO ../src/mst/axi4_master_monitor.sv(77) @ 95000: uvm_test_top.env.master_agent.mon [axi4_master_monitor] Reset deasserted - monitor active
# UVM_INFO ../src/slv/axi4_slave_monitor.sv(71) @ 95000: uvm_test_top.env.slave_agent.mon [axi4_slave_monitor] Reset deasserted - monitor active
# UVM_INFO ../src/mst/axi4_master_driver.sv(73) @ 95000: uvm_test_top.env.master_agent.drv [axi4_master_driver] Driving AXI4_READ  ID=0xa  ADDR=0x00001000  LEN=2
# UVM_INFO ../src/slv/axi4_slave_driver.sv(386) @ 115000: uvm_test_top.env.slave_agent.drv [axi4_slave_driver] AR received: ID=0xa ADDR=0x00001000 LEN=2 LOCK=AXI4_LOCK_EXCLUSIVE
# UVM_INFO ../src/slv/axi4_slave_monitor.sv(224) @ 115000: uvm_test_top.env.slave_agent.mon [axi4_slave_monitor] AR received: ID=0xa ADDR=0x00001000 LEN=2
# UVM_INFO ../src/mst/axi4_master_monitor.sv(246) @ 115000: uvm_test_top.env.master_agent.mon [axi4_master_monitor] AR observed: ID=0xa ADDR=0x00001000 LEN=2
# UVM_INFO ../src/slv/axi4_slave_driver.sv(435) @ 115000: uvm_test_top.env.slave_agent.drv [axi4_slave_driver] Illegal exclusive READ: ID=0xa ADDR=0x00001000 SIZE=2 LEN=2 violates AXI4 exclusive constraints (pow2 bytes<=128, len<=16, aligned)
# UVM_INFO ../src/mst/axi4_master_driver.sv(348) @ 175000: uvm_test_top.env.master_agent.drv [axi4_master_driver] Master driver received all R beats for ID=0xa
# UVM_INFO ../src/slv/axi4_slave_driver.sv(501) @ 175000: uvm_test_top.env.slave_agent.drv [axi4_slave_driver] Read complete: ID=0xa ADDR=0x00001000 RESP=AXI4_RESP_OKAY  3 beats sent
# UVM_INFO ../src/slv/axi4_slave_monitor.sv(287) @ 175000: uvm_test_top.env.slave_agent.mon [axi4_slave_monitor] Read data sent: ID=0xa ADDR=0x00001000 3 beats
# UVM_INFO ../src/env/axi4_scoreboard.sv(108) @ 175000: uvm_test_top.env.scb [axi4_scoreboard] Slave AXI4_READ received: ID=0xa ADDR=0x00001000 LEN=2
# UVM_INFO ../src/mst/axi4_master_monitor.sv(314) @ 175000: uvm_test_top.env.master_agent.mon [axi4_master_monitor] Read complete: ID=0xa ADDR=0x00001000 3 beats
# UVM_INFO ../src/env/axi4_scoreboard.sv(87) @ 175000: uvm_test_top.env.scb [axi4_scoreboard] Master AXI4_READ received: ID=0xa ADDR=0x00001000 LEN=2
# UVM_INFO ../src/env/axi4_scoreboard.sv(291) @ 175000: uvm_test_top.env.scb [axi4_scoreboard] [READ] MATCH #1: ID=0xa ADDR=0x00001000 LEN=2
# UVM_INFO ../src/seq/axi4_illegal_exclusive_seq.sv(73) @ 175000: uvm_test_top.env.master_agent.sqr@@illegal_excl_seq [axi4_illegal_exclusive_seq] Sent illegal exclusive AXI4_READ [V1_non_pow2_beats]: ADDR=0x00001000 SIZE=2 LEN=2 (expect slave UVM_ERROR)
# UVM_INFO ../src/mst/axi4_master_driver.sv(73) @ 175000: uvm_test_top.env.master_agent.drv [axi4_master_driver] Driving AXI4_WRITE  ID=0x6  ADDR=0x00001000  LEN=2
# UVM_INFO ../src/slv/axi4_slave_driver.sv(228) @ 205000: uvm_test_top.env.slave_agent.drv [axi4_slave_driver] AW received: ID=0x6 ADDR=0x00001000 LEN=2 LOCK=AXI4_LOCK_EXCLUSIVE
# UVM_INFO ../src/mst/axi4_master_monitor.sv(124) @ 205000: uvm_test_top.env.master_agent.mon [axi4_master_monitor] AW observed: ID=0x6 ADDR=0x00001000 LEN=2
# UVM_INFO ../src/slv/axi4_slave_monitor.sv(116) @ 205000: uvm_test_top.env.slave_agent.mon [axi4_slave_monitor] AW received: ID=0x6 ADDR=0x00001000 LEN=2
# UVM_INFO ../src/slv/axi4_slave_monitor.sv(167) @ 235000: uvm_test_top.env.slave_agent.mon [axi4_slave_monitor] W data assembled: ID=0x6 ADDR=0x00001000 3 beats
# UVM_INFO ../src/mst/axi4_master_monitor.sv(184) @ 235000: uvm_test_top.env.master_agent.mon [axi4_master_monitor] W data assembled: ID=0x6 ADDR=0x00001000 3 beats
# UVM_INFO ../src/slv/axi4_slave_driver.sv(286) @ 245000: uvm_test_top.env.slave_agent.drv [axi4_slave_driver] Illegal exclusive WRITE: ID=0x6 ADDR=0x00001000 SIZE=2 LEN=2 violates AXI4 exclusive constraints (pow2 bytes<=128, len<=16, aligned)
# UVM_INFO ../src/mst/axi4_master_driver.sv(289) @ 265000: uvm_test_top.env.master_agent.drv [axi4_master_driver] Master driver received B response: ID=0x6 RESP=AXI4_RESP_OKAY
# UVM_INFO ../src/slv/axi4_slave_driver.sv(348) @ 265000: uvm_test_top.env.slave_agent.drv [axi4_slave_driver] Write complete: ID=0x6 RESP=AXI4_RESP_OKAY
# UVM_INFO ../src/mst/axi4_master_monitor.sv(210) @ 265000: uvm_test_top.env.master_agent.mon [axi4_master_monitor] Write complete: ID=0x6 ADDR=0x00001000 RESP=AXI4_RESP_OKAY
# UVM_INFO ../src/env/axi4_scoreboard.sv(87) @ 265000: uvm_test_top.env.scb [axi4_scoreboard] Master AXI4_WRITE received: ID=0x6 ADDR=0x00001000 LEN=2
# UVM_INFO ../src/slv/axi4_slave_monitor.sv(189) @ 265000: uvm_test_top.env.slave_agent.mon [axi4_slave_monitor] Write response sent: ID=0x6 ADDR=0x00001000 RESP=AXI4_RESP_OKAY
# UVM_INFO ../src/env/axi4_scoreboard.sv(108) @ 265000: uvm_test_top.env.scb [axi4_scoreboard] Slave AXI4_WRITE received: ID=0x6 ADDR=0x00001000 LEN=2
# UVM_INFO ../src/env/axi4_scoreboard.sv(291) @ 265000: uvm_test_top.env.scb [axi4_scoreboard] [WRITE] MATCH #2: ID=0x6 ADDR=0x00001000 LEN=2
# UVM_INFO ../src/env/axi4_scoreboard.sv(226) @ 265000: uvm_test_top.env.scb [axi4_scoreboard] [REF_MEM_WRITE_IGNORED] Write ignored for ADDR=0x00001000 LOCK=AXI4_LOCK_EXCLUSIVE RESP=AXI4_RESP_OKAY
# UVM_INFO ../src/seq/axi4_illegal_exclusive_seq.sv(73) @ 265000: uvm_test_top.env.master_agent.sqr@@illegal_excl_seq [axi4_illegal_exclusive_seq] Sent illegal exclusive AXI4_WRITE [V1_non_pow2_beats]: ADDR=0x00001000 SIZE=2 LEN=2 (expect slave UVM_ERROR)
# UVM_INFO ../src/mst/axi4_master_driver.sv(73) @ 265000: uvm_test_top.env.master_agent.drv [axi4_master_driver] Driving AXI4_READ  ID=0x5  ADDR=0x00002000  LEN=17
# UVM_INFO ../src/slv/axi4_slave_driver.sv(386) @ 295000: uvm_test_top.env.slave_agent.drv [axi4_slave_driver] AR received: ID=0x5 ADDR=0x00002000 LEN=17 LOCK=AXI4_LOCK_EXCLUSIVE
# UVM_INFO ../src/slv/axi4_slave_monitor.sv(224) @ 295000: uvm_test_top.env.slave_agent.mon [axi4_slave_monitor] AR received: ID=0x5 ADDR=0x00002000 LEN=17
# UVM_INFO ../src/mst/axi4_master_monitor.sv(246) @ 295000: uvm_test_top.env.master_agent.mon [axi4_master_monitor] AR observed: ID=0x5 ADDR=0x00002000 LEN=17
# UVM_INFO ../src/slv/axi4_slave_driver.sv(435) @ 295000: uvm_test_top.env.slave_agent.drv [axi4_slave_driver] Illegal exclusive READ: ID=0x5 ADDR=0x00002000 SIZE=2 LEN=17 violates AXI4 exclusive constraints (pow2 bytes<=128, len<=16, aligned)
# UVM_INFO ../src/mst/axi4_master_driver.sv(348) @ 655000: uvm_test_top.env.master_agent.drv [axi4_master_driver] Master driver received all R beats for ID=0x5
# UVM_INFO ../src/slv/axi4_slave_driver.sv(501) @ 655000: uvm_test_top.env.slave_agent.drv [axi4_slave_driver] Read complete: ID=0x5 ADDR=0x00002000 RESP=AXI4_RESP_OKAY  18 beats sent
# UVM_INFO ../src/slv/axi4_slave_monitor.sv(287) @ 655000: uvm_test_top.env.slave_agent.mon [axi4_slave_monitor] Read data sent: ID=0x5 ADDR=0x00002000 18 beats
# UVM_INFO ../src/env/axi4_scoreboard.sv(108) @ 655000: uvm_test_top.env.scb [axi4_scoreboard] Slave AXI4_READ received: ID=0x5 ADDR=0x00002000 LEN=17
# UVM_INFO ../src/mst/axi4_master_monitor.sv(314) @ 655000: uvm_test_top.env.master_agent.mon [axi4_master_monitor] Read complete: ID=0x5 ADDR=0x00002000 18 beats
# UVM_INFO ../src/env/axi4_scoreboard.sv(87) @ 655000: uvm_test_top.env.scb [axi4_scoreboard] Master AXI4_READ received: ID=0x5 ADDR=0x00002000 LEN=17
# UVM_INFO ../src/env/axi4_scoreboard.sv(291) @ 655000: uvm_test_top.env.scb [axi4_scoreboard] [READ] MATCH #3: ID=0x5 ADDR=0x00002000 LEN=17
# UVM_INFO ../src/seq/axi4_illegal_exclusive_seq.sv(73) @ 655000: uvm_test_top.env.master_agent.sqr@@illegal_excl_seq [axi4_illegal_exclusive_seq] Sent illegal exclusive AXI4_READ [V2_too_many_beats]: ADDR=0x00002000 SIZE=2 LEN=17 (expect slave UVM_ERROR)
# UVM_INFO ../src/mst/axi4_master_driver.sv(73) @ 655000: uvm_test_top.env.master_agent.drv [axi4_master_driver] Driving AXI4_WRITE  ID=0x5  ADDR=0x00002000  LEN=17
# UVM_INFO ../src/slv/axi4_slave_driver.sv(228) @ 685000: uvm_test_top.env.slave_agent.drv [axi4_slave_driver] AW received: ID=0x5 ADDR=0x00002000 LEN=17 LOCK=AXI4_LOCK_EXCLUSIVE
# UVM_INFO ../src/mst/axi4_master_monitor.sv(124) @ 685000: uvm_test_top.env.master_agent.mon [axi4_master_monitor] AW observed: ID=0x5 ADDR=0x00002000 LEN=17
# UVM_INFO ../src/slv/axi4_slave_monitor.sv(116) @ 685000: uvm_test_top.env.slave_agent.mon [axi4_slave_monitor] AW received: ID=0x5 ADDR=0x00002000 LEN=17
# UVM_INFO ../src/mst/axi4_master_monitor.sv(184) @ 1045000: uvm_test_top.env.master_agent.mon [axi4_master_monitor] W data assembled: ID=0x5 ADDR=0x00002000 18 beats
# UVM_INFO ../src/slv/axi4_slave_monitor.sv(167) @ 1045000: uvm_test_top.env.slave_agent.mon [axi4_slave_monitor] W data assembled: ID=0x5 ADDR=0x00002000 18 beats
# UVM_INFO ../src/slv/axi4_slave_driver.sv(286) @ 1055000: uvm_test_top.env.slave_agent.drv [axi4_slave_driver] Illegal exclusive WRITE: ID=0x5 ADDR=0x00002000 SIZE=2 LEN=17 violates AXI4 exclusive constraints (pow2 bytes<=128, len<=16, aligned)
# UVM_INFO ../src/mst/axi4_master_driver.sv(289) @ 1075000: uvm_test_top.env.master_agent.drv [axi4_master_driver] Master driver received B response: ID=0x5 RESP=AXI4_RESP_OKAY
# UVM_INFO ../src/slv/axi4_slave_driver.sv(348) @ 1075000: uvm_test_top.env.slave_agent.drv [axi4_slave_driver] Write complete: ID=0x5 RESP=AXI4_RESP_OKAY
# UVM_INFO ../src/slv/axi4_slave_monitor.sv(189) @ 1075000: uvm_test_top.env.slave_agent.mon [axi4_slave_monitor] Write response sent: ID=0x5 ADDR=0x00002000 RESP=AXI4_RESP_OKAY
# UVM_INFO ../src/env/axi4_scoreboard.sv(108) @ 1075000: uvm_test_top.env.scb [axi4_scoreboard] Slave AXI4_WRITE received: ID=0x5 ADDR=0x00002000 LEN=17
# UVM_INFO ../src/mst/axi4_master_monitor.sv(210) @ 1075000: uvm_test_top.env.master_agent.mon [axi4_master_monitor] Write complete: ID=0x5 ADDR=0x00002000 RESP=AXI4_RESP_OKAY
# UVM_INFO ../src/env/axi4_scoreboard.sv(87) @ 1075000: uvm_test_top.env.scb [axi4_scoreboard] Master AXI4_WRITE received: ID=0x5 ADDR=0x00002000 LEN=17
# UVM_INFO ../src/env/axi4_scoreboard.sv(291) @ 1075000: uvm_test_top.env.scb [axi4_scoreboard] [WRITE] MATCH #4: ID=0x5 ADDR=0x00002000 LEN=17
# UVM_INFO ../src/env/axi4_scoreboard.sv(226) @ 1075000: uvm_test_top.env.scb [axi4_scoreboard] [REF_MEM_WRITE_IGNORED] Write ignored for ADDR=0x00002000 LOCK=AXI4_LOCK_EXCLUSIVE RESP=AXI4_RESP_OKAY
# UVM_INFO ../src/seq/axi4_illegal_exclusive_seq.sv(73) @ 1075000: uvm_test_top.env.master_agent.sqr@@illegal_excl_seq [axi4_illegal_exclusive_seq] Sent illegal exclusive AXI4_WRITE [V2_too_many_beats]: ADDR=0x00002000 SIZE=2 LEN=17 (expect slave UVM_ERROR)
# UVM_INFO ../src/mst/axi4_master_driver.sv(73) @ 1075000: uvm_test_top.env.master_agent.drv [axi4_master_driver] Driving AXI4_READ  ID=0xc  ADDR=0x00003004  LEN=1
# UVM_INFO ../src/slv/axi4_slave_driver.sv(386) @ 1105000: uvm_test_top.env.slave_agent.drv [axi4_slave_driver] AR received: ID=0xc ADDR=0x00003004 LEN=1 LOCK=AXI4_LOCK_EXCLUSIVE
# UVM_INFO ../src/mst/axi4_master_monitor.sv(246) @ 1105000: uvm_test_top.env.master_agent.mon [axi4_master_monitor] AR observed: ID=0xc ADDR=0x00003004 LEN=1
# UVM_INFO ../src/slv/axi4_slave_monitor.sv(224) @ 1105000: uvm_test_top.env.slave_agent.mon [axi4_slave_monitor] AR received: ID=0xc ADDR=0x00003004 LEN=1
# UVM_INFO ../src/slv/axi4_slave_driver.sv(435) @ 1105000: uvm_test_top.env.slave_agent.drv [axi4_slave_driver] Illegal exclusive READ: ID=0xc ADDR=0x00003004 SIZE=2 LEN=1 violates AXI4 exclusive constraints (pow2 bytes<=128, len<=16, aligned)
# UVM_INFO ../src/mst/axi4_master_driver.sv(348) @ 1145000: uvm_test_top.env.master_agent.drv [axi4_master_driver] Master driver received all R beats for ID=0xc
# UVM_INFO ../src/slv/axi4_slave_driver.sv(501) @ 1145000: uvm_test_top.env.slave_agent.drv [axi4_slave_driver] Read complete: ID=0xc ADDR=0x00003004 RESP=AXI4_RESP_OKAY  2 beats sent
# UVM_INFO ../src/mst/axi4_master_monitor.sv(314) @ 1145000: uvm_test_top.env.master_agent.mon [axi4_master_monitor] Read complete: ID=0xc ADDR=0x00003004 2 beats
# UVM_INFO ../src/env/axi4_scoreboard.sv(87) @ 1145000: uvm_test_top.env.scb [axi4_scoreboard] Master AXI4_READ received: ID=0xc ADDR=0x00003004 LEN=1
# UVM_INFO ../src/slv/axi4_slave_monitor.sv(287) @ 1145000: uvm_test_top.env.slave_agent.mon [axi4_slave_monitor] Read data sent: ID=0xc ADDR=0x00003004 2 beats
# UVM_INFO ../src/env/axi4_scoreboard.sv(108) @ 1145000: uvm_test_top.env.scb [axi4_scoreboard] Slave AXI4_READ received: ID=0xc ADDR=0x00003004 LEN=1
# UVM_INFO ../src/env/axi4_scoreboard.sv(291) @ 1145000: uvm_test_top.env.scb [axi4_scoreboard] [READ] MATCH #5: ID=0xc ADDR=0x00003004 LEN=1
# UVM_INFO ../src/seq/axi4_illegal_exclusive_seq.sv(73) @ 1145000: uvm_test_top.env.master_agent.sqr@@illegal_excl_seq [axi4_illegal_exclusive_seq] Sent illegal exclusive AXI4_READ [V3_unaligned]: ADDR=0x00003004 SIZE=2 LEN=1 (expect slave UVM_ERROR)
# UVM_INFO ../src/mst/axi4_master_driver.sv(73) @ 1145000: uvm_test_top.env.master_agent.drv [axi4_master_driver] Driving AXI4_WRITE  ID=0xe  ADDR=0x00003004  LEN=1
# UVM_INFO ../src/slv/axi4_slave_driver.sv(228) @ 1175000: uvm_test_top.env.slave_agent.drv [axi4_slave_driver] AW received: ID=0xe ADDR=0x00003004 LEN=1 LOCK=AXI4_LOCK_EXCLUSIVE
# UVM_INFO ../src/slv/axi4_slave_monitor.sv(116) @ 1175000: uvm_test_top.env.slave_agent.mon [axi4_slave_monitor] AW received: ID=0xe ADDR=0x00003004 LEN=1
# UVM_INFO ../src/mst/axi4_master_monitor.sv(124) @ 1175000: uvm_test_top.env.master_agent.mon [axi4_master_monitor] AW observed: ID=0xe ADDR=0x00003004 LEN=1
# UVM_INFO ../src/mst/axi4_master_monitor.sv(184) @ 1185000: uvm_test_top.env.master_agent.mon [axi4_master_monitor] W data assembled: ID=0xe ADDR=0x00003004 2 beats
# UVM_INFO ../src/slv/axi4_slave_monitor.sv(167) @ 1185000: uvm_test_top.env.slave_agent.mon [axi4_slave_monitor] W data assembled: ID=0xe ADDR=0x00003004 2 beats
# UVM_INFO ../src/slv/axi4_slave_driver.sv(286) @ 1195000: uvm_test_top.env.slave_agent.drv [axi4_slave_driver] Illegal exclusive WRITE: ID=0xe ADDR=0x00003004 SIZE=2 LEN=1 violates AXI4 exclusive constraints (pow2 bytes<=128, len<=16, aligned)
# UVM_INFO ../src/mst/axi4_master_driver.sv(289) @ 1215000: uvm_test_top.env.master_agent.drv [axi4_master_driver] Master driver received B response: ID=0xe RESP=AXI4_RESP_OKAY
# UVM_INFO ../src/slv/axi4_slave_driver.sv(348) @ 1215000: uvm_test_top.env.slave_agent.drv [axi4_slave_driver] Write complete: ID=0xe RESP=AXI4_RESP_OKAY
# UVM_INFO ../src/slv/axi4_slave_monitor.sv(189) @ 1215000: uvm_test_top.env.slave_agent.mon [axi4_slave_monitor] Write response sent: ID=0xe ADDR=0x00003004 RESP=AXI4_RESP_OKAY
# UVM_INFO ../src/env/axi4_scoreboard.sv(108) @ 1215000: uvm_test_top.env.scb [axi4_scoreboard] Slave AXI4_WRITE received: ID=0xe ADDR=0x00003004 LEN=1
# UVM_INFO ../src/mst/axi4_master_monitor.sv(210) @ 1215000: uvm_test_top.env.master_agent.mon [axi4_master_monitor] Write complete: ID=0xe ADDR=0x00003004 RESP=AXI4_RESP_OKAY
# UVM_INFO ../src/env/axi4_scoreboard.sv(87) @ 1215000: uvm_test_top.env.scb [axi4_scoreboard] Master AXI4_WRITE received: ID=0xe ADDR=0x00003004 LEN=1
# UVM_INFO ../src/env/axi4_scoreboard.sv(291) @ 1215000: uvm_test_top.env.scb [axi4_scoreboard] [WRITE] MATCH #6: ID=0xe ADDR=0x00003004 LEN=1
# UVM_INFO ../src/env/axi4_scoreboard.sv(226) @ 1215000: uvm_test_top.env.scb [axi4_scoreboard] [REF_MEM_WRITE_IGNORED] Write ignored for ADDR=0x00003004 LOCK=AXI4_LOCK_EXCLUSIVE RESP=AXI4_RESP_OKAY
# UVM_INFO ../src/seq/axi4_illegal_exclusive_seq.sv(73) @ 1215000: uvm_test_top.env.master_agent.sqr@@illegal_excl_seq [axi4_illegal_exclusive_seq] Sent illegal exclusive AXI4_WRITE [V3_unaligned]: ADDR=0x00003004 SIZE=2 LEN=1 (expect slave UVM_ERROR)
# UVM_INFO ../src/seq/axi4_illegal_exclusive_seq.sv(99) @ 1215000: uvm_test_top.env.master_agent.sqr@@illegal_excl_seq [axi4_illegal_exclusive_seq] Illegal-exclusive sequence complete: 6 illegal transactions sent
# UVM_INFO ../src/test/axi4_illegal_exclusive_test.sv(96) @ 2215000: uvm_test_top [axi4_illegal_exclusive_test] PASS: slave correctly flagged all 6 illegal exclusive accesses
# UVM_INFO ../src/test/axi4_illegal_exclusive_test.sv(98) @ 2215000: uvm_test_top [axi4_illegal_exclusive_test] Illegal-exclusive negative test complete
# UVM_INFO verilog_src/uvm-1.1d/src/base/uvm_objection.svh(1268) @ 2215000: reporter [TEST_DONE] 'run' phase is ready to proceed to the 'extract' phase
# UVM_INFO ../src/env/axi4_scoreboard.sv(360) @ 2215000: uvm_test_top.env.scb [axi4_scoreboard] 
# ========================================
#          SCOREBOARD SUMMARY
# ========================================
#   Master transactions : 6
#   Slave transactions  : 6
#   Matches             : 6
#   Mismatches          : 0
#   Unmatched master WR : 0
#   Unmatched master RD : 0
#   Unmatched slave  WR : 0
#   Unmatched slave  RD : 0
# ========================================
#   RESULT : PASS
# ========================================
# UVM_INFO ../src/test/axi4_base_test.sv(91) @ 2215000: uvm_test_top [axi4_illegal_exclusive_test] 
# === TEST PASSED ===
# 
# 
# --- UVM Report catcher Summary ---
# 
# 
# Number of demoted UVM_FATAL reports  :    0
# Number of demoted UVM_ERROR reports  :    6
# Number of demoted UVM_WARNING reports:    0
# Number of caught UVM_FATAL reports   :    0
# Number of caught UVM_ERROR reports   :    0
# Number of caught UVM_WARNING reports :    0
# 
# --- UVM Report Summary ---
# 
# ** Report counts by severity
# UVM_INFO :  114
# UVM_WARNING :    0
# UVM_ERROR :    0
# UVM_FATAL :    0
# ** Report counts by id
# [Questa UVM]     3
# [RNTST]     1
# [TB_TOP]     2
# [TEST_DONE]     1
# [TOP_TB]     1
# [UVMTOP]     1
# [axi4_illegal_exclusive_seq]     8
# [axi4_illegal_exclusive_test]     4
# [axi4_master_agent]     1
# [axi4_master_driver]    13
# [axi4_master_monitor]    16
# [axi4_scoreboard]    22
# [axi4_slave_agent]     1
# [axi4_slave_driver]    19
# [axi4_slave_monitor]    16
# [axi4_vip_env]     5
# ** Note: $finish    : /cadtools/mentor/Questa_10.6b/questasim/linux_x86_64/../verilog_src/uvm-1.1d/src/base/uvm_root.svh(430)
#    Time: 2215 ns  Iteration: 55  Instance: /tb_top
# Saving coverage database on exit...
# End time: 14:26:23 on Jul 06,2026, Elapsed time: 0:00:02
# Errors: 0, Warnings: 0
