sim/report/logs/axi4_sanity_test_run_2_seed_10443318.log
# vsim -c -coverage -sv_seed 10443318 "+UVM_TESTNAME=axi4_sanity_test" "+UVM_VERBOSITY=UVM_HIGH" "+DUMP_VCD" -l ./report/logs/axi4_sanity_test_run_2_seed_10443318.log -do "coverage save -onexit ./report/coverage/axi4_sanity_test_run_2_seed_10443318.ucdb; run -all; quit -f" opt_tb_top 
# Start time: 14:43:03 on Jul 08,2026
# //  Questa Sim-64
# //  Version 10.6b linux_x86_64 May 25 2017
# //
# //  Copyright 1991-2017 Mentor Graphics Corporation
# //  All Rights Reserved.
# //
# //  QuestaSim and its associated documentation contain trade
# //  secrets and commercial or financial information that are the property of
# //  Mentor Graphics Corporation and are privileged, confidential,
# //  and exempt from disclosure under the Freedom of Information Act,
# //  5 U.S.C. Section 552. Furthermore, this information
# //  is prohibited from disclosure under the Trade Secrets Act,
# //  18 U.S.C. Section 1905.
# //
# Loading sv_std.std
# Loading work.axi4_if(fast)
# Loading mtiUvm.uvm_pkg
# Loading work.axi4_pkg(fast)
# Loading work.axi4_test_pkg(fast)
# Loading work.tb_top(fast)
# Loading work.axi4_if(fast)
# Loading work.axi4_sva(fast)
# Loading mtiUvm.questa_uvm_pkg(fast)
# Loading /cadtools/mentor/Questa_10.6b/questasim/uvm-1.1d/linux_x86_64/uvm_dpi.so
# coverage save -onexit ./report/coverage/axi4_sanity_test_run_2_seed_10443318.ucdb
#  run -all
# ----------------------------------------------------------------
# UVM-1.1d
# (C) 2007-2013 Mentor Graphics Corporation
# (C) 2007-2013 Cadence Design Systems, Inc.
# (C) 2006-2013 Synopsys, Inc.
# (C) 2011-2013 Cypress Semiconductor Corp.
# ----------------------------------------------------------------
# 
#   ***********       IMPORTANT RELEASE NOTES         ************
# 
#   You are using a version of the UVM library that has been compiled
#   with `UVM_NO_DEPRECATED undefined.
#   See http://www.eda.org/svdb/view.php?id=3313 for more details.
# 
#   You are using a version of the UVM library that has been compiled
#   with `UVM_OBJECT_MUST_HAVE_CONSTRUCTOR undefined.
#   See http://www.eda.org/svdb/view.php?id=3770 for more details.
# 
#       (Specify +UVM_NO_RELNOTES to turn off this notice)
# 
# UVM_INFO verilog_src/questa_uvm_pkg-1.2/src/questa_uvm_pkg.sv(215) @ 0: reporter [Questa UVM] QUESTA_UVM-1.2.3
# UVM_INFO verilog_src/questa_uvm_pkg-1.2/src/questa_uvm_pkg.sv(217) @ 0: reporter [Questa UVM]  questa_uvm::init(+struct)
# UVM_INFO ../src/tb_top.sv(147) @ 0: reporter [TB_TOP] Virtual interface set in config_db
# UVM_INFO @ 0: reporter [RNTST] Running test axi4_sanity_test...
# UVM_INFO ../src/tb_top.sv(161) @ 0: reporter [TB_TOP] Waveform VCD dumping enabled (axi4_vip.vcd)
# UVM_INFO ../src/env/axi4_vip_env.sv(83) @ 0: uvm_test_top.env [axi4_vip_env] slave_vif not set - reusing master_vif (passthrough mode)
# UVM_INFO ../src/env/axi4_vip_env.sv(93) @ 0: uvm_test_top.env [axi4_vip_env] Scoreboard created
# UVM_INFO ../src/env/axi4_vip_env.sv(100) @ 0: uvm_test_top.env [axi4_vip_env] Coverage collectors created
# UVM_INFO ../src/mst/axi4_master_agent.sv(69) @ 0: uvm_test_top.env.master_agent [axi4_master_agent] ACTIVE mode - driver + sequencer created
# UVM_INFO ../src/slv/axi4_slave_agent.sv(82) @ 0: uvm_test_top.env.slave_agent [axi4_slave_agent] ACTIVE mode - ready_delay=[0:0] resp_delay=[0:0]
# UVM_INFO ../src/env/axi4_vip_env.sv(116) @ 0: uvm_test_top.env [axi4_vip_env] Scoreboard connected: master_mon.ap -> scb, slave_mon.ap -> scb
# UVM_INFO ../src/env/axi4_vip_env.sv(124) @ 0: uvm_test_top.env [axi4_vip_env] Coverage connected: master_mon.ap -> master_cov, slave_mon.ap -> slave_cov
# UVM_INFO @ 0: reporter [UVMTOP] UVM testbench topology:
# ---------------------------------------------------------------
# Name                       Type                     Size  Value
# ---------------------------------------------------------------
# uvm_test_top               axi4_sanity_test         -     @475 
#   env                      axi4_vip_env             -     @490 
#     master_agent           axi4_master_agent        -     @505 
#       drv                  axi4_master_driver       -     @569 
#         rsp_port           uvm_analysis_port        -     @584 
#         seq_item_port      uvm_seq_item_pull_port   -     @576 
#       mon                  axi4_master_monitor      -     @561 
#         ap                 uvm_analysis_port        -     @702 
#       sqr                  axi4_master_sequencer    -     @592 
#         rsp_export         uvm_analysis_export      -     @599 
#         seq_item_export    uvm_seq_item_pull_imp    -     @693 
#         arbitration_queue  array                    0     -    
#         lock_queue         array                    0     -    
#         num_last_reqs      integral                 32    'd1  
#         num_last_rsps      integral                 32    'd1  
#     master_cov             axi4_coverage            -     @526 
#       analysis_imp         uvm_analysis_imp         -     @533 
#     scb                    axi4_scoreboard          -     @519 
#       master_export        uvm_analysis_imp_master  -     @716 
#       slave_export         uvm_analysis_imp_slave   -     @724 
#     slave_agent            axi4_slave_agent         -     @512 
#       drv                  axi4_slave_driver        -     @755 
#         rsp_port           uvm_analysis_port        -     @770 
#         seq_item_port      uvm_seq_item_pull_port   -     @762 
#       mon                  axi4_slave_monitor       -     @737 
#         ap                 uvm_analysis_port        -     @894 
#       sqr                  axi4_slave_sequencer     -     @778 
#         rsp_export         uvm_analysis_export      -     @785 
#         seq_item_export    uvm_seq_item_pull_imp    -     @879 
#         arbitration_queue  array                    0     -    
#         lock_queue         array                    0     -    
#         num_last_reqs      integral                 32    'd1  
#         num_last_rsps      integral                 32    'd1  
#     slave_cov              axi4_coverage            -     @541 
#       analysis_imp         uvm_analysis_imp         -     @548 
# ---------------------------------------------------------------
# 
# UVM_INFO verilog_src/questa_uvm_pkg-1.2/src/questa_uvm_pkg.sv(277) @ 0: reporter [Questa UVM] End Of Elaboration
# UVM_INFO ../src/test/axi4_sanity_test.sv(37) @ 0: uvm_test_top [axi4_sanity_test] Starting sanity test with 10 write-read-back iterations
# UVM_INFO ../src/test/axi4_sanity_test.sv(52) @ 0: uvm_test_top [axi4_sanity_test] [1/10] ADDR=0xfeb17d59 LEN=9 BURST=AXI4_BURST_INCR
# UVM_INFO ../src/tb_top.sv(49) @ 95000: reporter [TOP_TB] Reset de-asserted
# UVM_INFO ../src/slv/axi4_slave_driver.sv(131) @ 95000: uvm_test_top.env.slave_agent.drv [axi4_slave_driver] Reset deasserted - slave driver active
# UVM_INFO ../src/mst/axi4_master_driver.sv(64) @ 95000: uvm_test_top.env.master_agent.drv [axi4_master_driver] Reset deasserted - master driver active
# UVM_INFO ../src/mst/axi4_master_monitor.sv(77) @ 95000: uvm_test_top.env.master_agent.mon [axi4_master_monitor] Reset deasserted - monitor active
# UVM_INFO ../src/slv/axi4_slave_monitor.sv(71) @ 95000: uvm_test_top.env.slave_agent.mon [axi4_slave_monitor] Reset deasserted - monitor active
# UVM_INFO ../src/mst/axi4_master_driver.sv(73) @ 95000: uvm_test_top.env.master_agent.drv [axi4_master_driver] Driving AXI4_WRITE  ID=0x3  ADDR=0xfeb17d59  LEN=9
# UVM_INFO ../src/slv/axi4_slave_driver.sv(228) @ 115000: uvm_test_top.env.slave_agent.drv [axi4_slave_driver] AW received: ID=0x3 ADDR=0xfeb17d59 LEN=9 LOCK=AXI4_LOCK_NORMAL
# UVM_INFO ../src/slv/axi4_slave_monitor.sv(116) @ 115000: uvm_test_top.env.slave_agent.mon [axi4_slave_monitor] AW received: ID=0x3 ADDR=0xfeb17d59 LEN=9
# UVM_INFO ../src/mst/axi4_master_monitor.sv(124) @ 115000: uvm_test_top.env.master_agent.mon [axi4_master_monitor] AW observed: ID=0x3 ADDR=0xfeb17d59 LEN=9
# UVM_INFO ../src/mst/axi4_master_monitor.sv(184) @ 285000: uvm_test_top.env.master_agent.mon [axi4_master_monitor] W data assembled: ID=0x3 ADDR=0xfeb17d59 10 beats
# UVM_INFO ../src/slv/axi4_slave_monitor.sv(167) @ 285000: uvm_test_top.env.slave_agent.mon [axi4_slave_monitor] W data assembled: ID=0x3 ADDR=0xfeb17d59 10 beats
# UVM_INFO ../src/mst/axi4_master_driver.sv(289) @ 315000: uvm_test_top.env.master_agent.drv [axi4_master_driver] Master driver received B response: ID=0x3 RESP=AXI4_RESP_DECERR
# UVM_INFO ../src/slv/axi4_slave_driver.sv(348) @ 315000: uvm_test_top.env.slave_agent.drv [axi4_slave_driver] Write complete: ID=0x3 RESP=AXI4_RESP_DECERR
# UVM_INFO ../src/slv/axi4_slave_monitor.sv(189) @ 315000: uvm_test_top.env.slave_agent.mon [axi4_slave_monitor] Write response sent: ID=0x3 ADDR=0xfeb17d59 RESP=AXI4_RESP_DECERR
# UVM_INFO ../src/env/axi4_scoreboard.sv(108) @ 315000: uvm_test_top.env.scb [axi4_scoreboard] Slave AXI4_WRITE received: ID=0x3 ADDR=0xfeb17d59 LEN=9
# UVM_INFO ../src/mst/axi4_master_monitor.sv(210) @ 315000: uvm_test_top.env.master_agent.mon [axi4_master_monitor] Write complete: ID=0x3 ADDR=0xfeb17d59 RESP=AXI4_RESP_DECERR
# UVM_INFO ../src/env/axi4_scoreboard.sv(87) @ 315000: uvm_test_top.env.scb [axi4_scoreboard] Master AXI4_WRITE received: ID=0x3 ADDR=0xfeb17d59 LEN=9
# UVM_INFO ../src/env/axi4_scoreboard.sv(291) @ 315000: uvm_test_top.env.scb [axi4_scoreboard] [WRITE] MATCH #1: ID=0x3 ADDR=0xfeb17d59 LEN=9
# UVM_INFO ../src/env/axi4_scoreboard.sv(226) @ 315000: uvm_test_top.env.scb [axi4_scoreboard] [REF_MEM_WRITE_IGNORED] Write ignored for ADDR=0xfeb17d59 LOCK=AXI4_LOCK_NORMAL RESP=AXI4_RESP_DECERR
# UVM_INFO ../src/seq/axi4_write_read_back_seq.sv(61) @ 315000: uvm_test_top.env.master_agent.sqr@@wr_rd_seq_0 [axi4_write_read_back_seq] Write phase: ADDR=0xfeb17d59 LEN=9 SIZE=AXI4_SIZE_4B BURST=AXI4_BURST_INCR
# UVM_INFO ../src/mst/axi4_master_driver.sv(73) @ 315000: uvm_test_top.env.master_agent.drv [axi4_master_driver] Driving AXI4_READ  ID=0x8  ADDR=0xfeb17d59  LEN=9
# UVM_INFO ../src/slv/axi4_slave_driver.sv(386) @ 345000: uvm_test_top.env.slave_agent.drv [axi4_slave_driver] AR received: ID=0x8 ADDR=0xfeb17d59 LEN=9 LOCK=AXI4_LOCK_NORMAL
# UVM_INFO ../src/mst/axi4_master_monitor.sv(246) @ 345000: uvm_test_top.env.master_agent.mon [axi4_master_monitor] AR observed: ID=0x8 ADDR=0xfeb17d59 LEN=9
# UVM_INFO ../src/slv/axi4_slave_monitor.sv(224) @ 345000: uvm_test_top.env.slave_agent.mon [axi4_slave_monitor] AR received: ID=0x8 ADDR=0xfeb17d59 LEN=9
# UVM_INFO ../src/mst/axi4_master_driver.sv(348) @ 545000: uvm_test_top.env.master_agent.drv [axi4_master_driver] Master driver received all R beats for ID=0x8
# UVM_INFO ../src/slv/axi4_slave_driver.sv(501) @ 545000: uvm_test_top.env.slave_agent.drv [axi4_slave_driver] Read complete: ID=0x8 ADDR=0xfeb17d59 RESP=AXI4_RESP_DECERR  10 beats sent
# UVM_INFO ../src/mst/axi4_master_monitor.sv(314) @ 545000: uvm_test_top.env.master_agent.mon [axi4_master_monitor] Read complete: ID=0x8 ADDR=0xfeb17d59 10 beats
# UVM_INFO ../src/env/axi4_scoreboard.sv(87) @ 545000: uvm_test_top.env.scb [axi4_scoreboard] Master AXI4_READ received: ID=0x8 ADDR=0xfeb17d59 LEN=9
# UVM_INFO ../src/slv/axi4_slave_monitor.sv(287) @ 545000: uvm_test_top.env.slave_agent.mon [axi4_slave_monitor] Read data sent: ID=0x8 ADDR=0xfeb17d59 10 beats
# UVM_INFO ../src/env/axi4_scoreboard.sv(108) @ 545000: uvm_test_top.env.scb [axi4_scoreboard] Slave AXI4_READ received: ID=0x8 ADDR=0xfeb17d59 LEN=9
# UVM_INFO ../src/env/axi4_scoreboard.sv(291) @ 545000: uvm_test_top.env.scb [axi4_scoreboard] [READ] MATCH #2: ID=0x8 ADDR=0xfeb17d59 LEN=9
# UVM_INFO ../src/seq/axi4_write_read_back_seq.sv(82) @ 545000: uvm_test_top.env.master_agent.sqr@@wr_rd_seq_0 [axi4_write_read_back_seq] Read-back phase: ADDR=0xfeb17d59 LEN=9 - data integrity check via scoreboard
# UVM_INFO ../src/test/axi4_sanity_test.sv(52) @ 545000: uvm_test_top [axi4_sanity_test] [2/10] ADDR=0x16f7e780 LEN=4 BURST=AXI4_BURST_INCR
# UVM_INFO ../src/mst/axi4_master_driver.sv(73) @ 545000: uvm_test_top.env.master_agent.drv [axi4_master_driver] Driving AXI4_WRITE  ID=0xb  ADDR=0x16f7e780  LEN=4
# UVM_INFO ../src/slv/axi4_slave_driver.sv(228) @ 575000: uvm_test_top.env.slave_agent.drv [axi4_slave_driver] AW received: ID=0xb ADDR=0x16f7e780 LEN=4 LOCK=AXI4_LOCK_NORMAL
# UVM_INFO ../src/slv/axi4_slave_monitor.sv(116) @ 575000: uvm_test_top.env.slave_agent.mon [axi4_slave_monitor] AW received: ID=0xb ADDR=0x16f7e780 LEN=4
# UVM_INFO ../src/mst/axi4_master_monitor.sv(124) @ 575000: uvm_test_top.env.master_agent.mon [axi4_master_monitor] AW observed: ID=0xb ADDR=0x16f7e780 LEN=4
# UVM_INFO ../src/slv/axi4_slave_monitor.sv(167) @ 675000: uvm_test_top.env.slave_agent.mon [axi4_slave_monitor] W data assembled: ID=0xb ADDR=0x16f7e780 5 beats
# UVM_INFO ../src/mst/axi4_master_monitor.sv(184) @ 675000: uvm_test_top.env.master_agent.mon [axi4_master_monitor] W data assembled: ID=0xb ADDR=0x16f7e780 5 beats
# UVM_INFO ../src/mst/axi4_master_driver.sv(289) @ 705000: uvm_test_top.env.master_agent.drv [axi4_master_driver] Master driver received B response: ID=0xb RESP=AXI4_RESP_OKAY
# UVM_INFO ../src/slv/axi4_slave_driver.sv(348) @ 705000: uvm_test_top.env.slave_agent.drv [axi4_slave_driver] Write complete: ID=0xb RESP=AXI4_RESP_OKAY
# UVM_INFO ../src/mst/axi4_master_monitor.sv(210) @ 705000: uvm_test_top.env.master_agent.mon [axi4_master_monitor] Write complete: ID=0xb ADDR=0x16f7e780 RESP=AXI4_RESP_OKAY
# UVM_INFO ../src/env/axi4_scoreboard.sv(87) @ 705000: uvm_test_top.env.scb [axi4_scoreboard] Master AXI4_WRITE received: ID=0xb ADDR=0x16f7e780 LEN=4
# UVM_INFO ../src/slv/axi4_slave_monitor.sv(189) @ 705000: uvm_test_top.env.slave_agent.mon [axi4_slave_monitor] Write response sent: ID=0xb ADDR=0x16f7e780 RESP=AXI4_RESP_OKAY
# UVM_INFO ../src/env/axi4_scoreboard.sv(108) @ 705000: uvm_test_top.env.scb [axi4_scoreboard] Slave AXI4_WRITE received: ID=0xb ADDR=0x16f7e780 LEN=4
# UVM_INFO ../src/env/axi4_scoreboard.sv(291) @ 705000: uvm_test_top.env.scb [axi4_scoreboard] [WRITE] MATCH #3: ID=0xb ADDR=0x16f7e780 LEN=4
# UVM_INFO ../src/env/axi4_scoreboard.sv(219) @ 705000: uvm_test_top.env.scb [axi4_scoreboard] [REF_MEM_WRITE] Addr=0x16f7e781 Data=0x29
# UVM_INFO ../src/env/axi4_scoreboard.sv(219) @ 705000: uvm_test_top.env.scb [axi4_scoreboard] [REF_MEM_WRITE] Addr=0x16f7e782 Data=0xd5
# UVM_INFO ../src/env/axi4_scoreboard.sv(219) @ 705000: uvm_test_top.env.scb [axi4_scoreboard] [REF_MEM_WRITE] Addr=0x16f7e784 Data=0x63
# UVM_INFO ../src/env/axi4_scoreboard.sv(219) @ 705000: uvm_test_top.env.scb [axi4_scoreboard] [REF_MEM_WRITE] Addr=0x16f7e785 Data=0x2e
# UVM_INFO ../src/env/axi4_scoreboard.sv(219) @ 705000: uvm_test_top.env.scb [axi4_scoreboard] [REF_MEM_WRITE] Addr=0x16f7e786 Data=0xa5
# UVM_INFO ../src/env/axi4_scoreboard.sv(219) @ 705000: uvm_test_top.env.scb [axi4_scoreboard] [REF_MEM_WRITE] Addr=0x16f7e787 Data=0x17
# UVM_INFO ../src/env/axi4_scoreboard.sv(219) @ 705000: uvm_test_top.env.scb [axi4_scoreboard] [REF_MEM_WRITE] Addr=0x16f7e789 Data=0x7e
# UVM_INFO ../src/env/axi4_scoreboard.sv(219) @ 705000: uvm_test_top.env.scb [axi4_scoreboard] [REF_MEM_WRITE] Addr=0x16f7e78d Data=0x03
# UVM_INFO ../src/env/axi4_scoreboard.sv(219) @ 705000: uvm_test_top.env.scb [axi4_scoreboard] [REF_MEM_WRITE] Addr=0x16f7e78f Data=0x8a
# UVM_INFO ../src/env/axi4_scoreboard.sv(219) @ 705000: uvm_test_top.env.scb [axi4_scoreboard] [REF_MEM_WRITE] Addr=0x16f7e790 Data=0xd7
# UVM_INFO ../src/env/axi4_scoreboard.sv(219) @ 705000: uvm_test_top.env.scb [axi4_scoreboard] [REF_MEM_WRITE] Addr=0x16f7e793 Data=0x1f
# UVM_INFO ../src/seq/axi4_write_read_back_seq.sv(61) @ 705000: uvm_test_top.env.master_agent.sqr@@wr_rd_seq_1 [axi4_write_read_back_seq] Write phase: ADDR=0x16f7e780 LEN=4 SIZE=AXI4_SIZE_4B BURST=AXI4_BURST_INCR
# UVM_INFO ../src/mst/axi4_master_driver.sv(73) @ 705000: uvm_test_top.env.master_agent.drv [axi4_master_driver] Driving AXI4_READ  ID=0xb  ADDR=0x16f7e780  LEN=4
# UVM_INFO ../src/slv/axi4_slave_driver.sv(386) @ 735000: uvm_test_top.env.slave_agent.drv [axi4_slave_driver] AR received: ID=0xb ADDR=0x16f7e780 LEN=4 LOCK=AXI4_LOCK_NORMAL
# UVM_INFO ../src/slv/axi4_slave_monitor.sv(224) @ 735000: uvm_test_top.env.slave_agent.mon [axi4_slave_monitor] AR received: ID=0xb ADDR=0x16f7e780 LEN=4
# UVM_INFO ../src/mst/axi4_master_monitor.sv(246) @ 735000: uvm_test_top.env.master_agent.mon [axi4_master_monitor] AR observed: ID=0xb ADDR=0x16f7e780 LEN=4
# UVM_INFO ../src/mst/axi4_master_driver.sv(348) @ 835000: uvm_test_top.env.master_agent.drv [axi4_master_driver] Master driver received all R beats for ID=0xb
# UVM_INFO ../src/slv/axi4_slave_driver.sv(501) @ 835000: uvm_test_top.env.slave_agent.drv [axi4_slave_driver] Read complete: ID=0xb ADDR=0x16f7e780 RESP=AXI4_RESP_OKAY  5 beats sent
# UVM_INFO ../src/slv/axi4_slave_monitor.sv(287) @ 835000: uvm_test_top.env.slave_agent.mon [axi4_slave_monitor] Read data sent: ID=0xb ADDR=0x16f7e780 5 beats
# UVM_INFO ../src/env/axi4_scoreboard.sv(108) @ 835000: uvm_test_top.env.scb [axi4_scoreboard] Slave AXI4_READ received: ID=0xb ADDR=0x16f7e780 LEN=4
# UVM_INFO ../src/mst/axi4_master_monitor.sv(314) @ 835000: uvm_test_top.env.master_agent.mon [axi4_master_monitor] Read complete: ID=0xb ADDR=0x16f7e780 5 beats
# UVM_INFO ../src/env/axi4_scoreboard.sv(87) @ 835000: uvm_test_top.env.scb [axi4_scoreboard] Master AXI4_READ received: ID=0xb ADDR=0x16f7e780 LEN=4
# UVM_INFO ../src/env/axi4_scoreboard.sv(291) @ 835000: uvm_test_top.env.scb [axi4_scoreboard] [READ] MATCH #4: ID=0xb ADDR=0x16f7e780 LEN=4
# UVM_INFO ../src/seq/axi4_write_read_back_seq.sv(82) @ 835000: uvm_test_top.env.master_agent.sqr@@wr_rd_seq_1 [axi4_write_read_back_seq] Read-back phase: ADDR=0x16f7e780 LEN=4 - data integrity check via scoreboard
# UVM_INFO ../src/test/axi4_sanity_test.sv(52) @ 835000: uvm_test_top [axi4_sanity_test] [3/10] ADDR=0xdf22cf8b LEN=3 BURST=AXI4_BURST_INCR
# UVM_INFO ../src/mst/axi4_master_driver.sv(73) @ 835000: uvm_test_top.env.master_agent.drv [axi4_master_driver] Driving AXI4_WRITE  ID=0x1  ADDR=0xdf22cf8b  LEN=3
# UVM_INFO ../src/slv/axi4_slave_driver.sv(228) @ 885000: uvm_test_top.env.slave_agent.drv [axi4_slave_driver] AW received: ID=0x1 ADDR=0xdf22cf8b LEN=3 LOCK=AXI4_LOCK_NORMAL
# UVM_INFO ../src/mst/axi4_master_monitor.sv(124) @ 885000: uvm_test_top.env.master_agent.mon [axi4_master_monitor] AW observed: ID=0x1 ADDR=0xdf22cf8b LEN=3
# UVM_INFO ../src/slv/axi4_slave_monitor.sv(116) @ 885000: uvm_test_top.env.slave_agent.mon [axi4_slave_monitor] AW received: ID=0x1 ADDR=0xdf22cf8b LEN=3
# UVM_INFO ../src/slv/axi4_slave_monitor.sv(167) @ 915000: uvm_test_top.env.slave_agent.mon [axi4_slave_monitor] W data assembled: ID=0x1 ADDR=0xdf22cf8b 4 beats
# UVM_INFO ../src/mst/axi4_master_monitor.sv(184) @ 915000: uvm_test_top.env.master_agent.mon [axi4_master_monitor] W data assembled: ID=0x1 ADDR=0xdf22cf8b 4 beats
# UVM_INFO ../src/mst/axi4_master_driver.sv(289) @ 945000: uvm_test_top.env.master_agent.drv [axi4_master_driver] Master driver received B response: ID=0x1 RESP=AXI4_RESP_OKAY
# UVM_INFO ../src/slv/axi4_slave_driver.sv(348) @ 945000: uvm_test_top.env.slave_agent.drv [axi4_slave_driver] Write complete: ID=0x1 RESP=AXI4_RESP_OKAY
# UVM_INFO ../src/mst/axi4_master_monitor.sv(210) @ 945000: uvm_test_top.env.master_agent.mon [axi4_master_monitor] Write complete: ID=0x1 ADDR=0xdf22cf8b RESP=AXI4_RESP_OKAY
# UVM_INFO ../src/env/axi4_scoreboard.sv(87) @ 945000: uvm_test_top.env.scb [axi4_scoreboard] Master AXI4_WRITE received: ID=0x1 ADDR=0xdf22cf8b LEN=3
# UVM_INFO ../src/slv/axi4_slave_monitor.sv(189) @ 945000: uvm_test_top.env.slave_agent.mon [axi4_slave_monitor] Write response sent: ID=0x1 ADDR=0xdf22cf8b RESP=AXI4_RESP_OKAY
# UVM_INFO ../src/env/axi4_scoreboard.sv(108) @ 945000: uvm_test_top.env.scb [axi4_scoreboard] Slave AXI4_WRITE received: ID=0x1 ADDR=0xdf22cf8b LEN=3
# UVM_INFO ../src/env/axi4_scoreboard.sv(291) @ 945000: uvm_test_top.env.scb [axi4_scoreboard] [WRITE] MATCH #5: ID=0x1 ADDR=0xdf22cf8b LEN=3
# UVM_INFO ../src/env/axi4_scoreboard.sv(219) @ 945000: uvm_test_top.env.scb [axi4_scoreboard] [REF_MEM_WRITE] Addr=0xdf22cf88 Data=0xd3
# UVM_INFO ../src/env/axi4_scoreboard.sv(219) @ 945000: uvm_test_top.env.scb [axi4_scoreboard] [REF_MEM_WRITE] Addr=0xdf22cf8c Data=0xc5
# UVM_INFO ../src/env/axi4_scoreboard.sv(219) @ 945000: uvm_test_top.env.scb [axi4_scoreboard] [REF_MEM_WRITE] Addr=0xdf22cf8d Data=0xeb
# UVM_INFO ../src/env/axi4_scoreboard.sv(219) @ 945000: uvm_test_top.env.scb [axi4_scoreboard] [REF_MEM_WRITE] Addr=0xdf22cf8f Data=0x61
# UVM_INFO ../src/env/axi4_scoreboard.sv(219) @ 945000: uvm_test_top.env.scb [axi4_scoreboard] [REF_MEM_WRITE] Addr=0xdf22cf90 Data=0x2e
# UVM_INFO ../src/env/axi4_scoreboard.sv(219) @ 945000: uvm_test_top.env.scb [axi4_scoreboard] [REF_MEM_WRITE] Addr=0xdf22cf92 Data=0x04
# UVM_INFO ../src/env/axi4_scoreboard.sv(219) @ 945000: uvm_test_top.env.scb [axi4_scoreboard] [REF_MEM_WRITE] Addr=0xdf22cf94 Data=0x78
# UVM_INFO ../src/env/axi4_scoreboard.sv(219) @ 945000: uvm_test_top.env.scb [axi4_scoreboard] [REF_MEM_WRITE] Addr=0xdf22cf96 Data=0xf8
# UVM_INFO ../src/seq/axi4_write_read_back_seq.sv(61) @ 945000: uvm_test_top.env.master_agent.sqr@@wr_rd_seq_2 [axi4_write_read_back_seq] Write phase: ADDR=0xdf22cf8b LEN=3 SIZE=AXI4_SIZE_4B BURST=AXI4_BURST_INCR
# UVM_INFO ../src/mst/axi4_master_driver.sv(73) @ 945000: uvm_test_top.env.master_agent.drv [axi4_master_driver] Driving AXI4_READ  ID=0x1  ADDR=0xdf22cf8b  LEN=3
# UVM_INFO ../src/slv/axi4_slave_driver.sv(386) @ 975000: uvm_test_top.env.slave_agent.drv [axi4_slave_driver] AR received: ID=0x1 ADDR=0xdf22cf8b LEN=3 LOCK=AXI4_LOCK_NORMAL
# UVM_INFO ../src/slv/axi4_slave_monitor.sv(224) @ 975000: uvm_test_top.env.slave_agent.mon [axi4_slave_monitor] AR received: ID=0x1 ADDR=0xdf22cf8b LEN=3
# UVM_INFO ../src/mst/axi4_master_monitor.sv(246) @ 975000: uvm_test_top.env.master_agent.mon [axi4_master_monitor] AR observed: ID=0x1 ADDR=0xdf22cf8b LEN=3
# UVM_INFO ../src/mst/axi4_master_driver.sv(348) @ 1055000: uvm_test_top.env.master_agent.drv [axi4_master_driver] Master driver received all R beats for ID=0x1
# UVM_INFO ../src/slv/axi4_slave_driver.sv(501) @ 1055000: uvm_test_top.env.slave_agent.drv [axi4_slave_driver] Read complete: ID=0x1 ADDR=0xdf22cf8b RESP=AXI4_RESP_OKAY  4 beats sent
# UVM_INFO ../src/slv/axi4_slave_monitor.sv(287) @ 1055000: uvm_test_top.env.slave_agent.mon [axi4_slave_monitor] Read data sent: ID=0x1 ADDR=0xdf22cf8b 4 beats
# UVM_INFO ../src/env/axi4_scoreboard.sv(108) @ 1055000: uvm_test_top.env.scb [axi4_scoreboard] Slave AXI4_READ received: ID=0x1 ADDR=0xdf22cf8b LEN=3
# UVM_INFO ../src/mst/axi4_master_monitor.sv(314) @ 1055000: uvm_test_top.env.master_agent.mon [axi4_master_monitor] Read complete: ID=0x1 ADDR=0xdf22cf8b 4 beats
# UVM_INFO ../src/env/axi4_scoreboard.sv(87) @ 1055000: uvm_test_top.env.scb [axi4_scoreboard] Master AXI4_READ received: ID=0x1 ADDR=0xdf22cf8b LEN=3
# UVM_INFO ../src/env/axi4_scoreboard.sv(291) @ 1055000: uvm_test_top.env.scb [axi4_scoreboard] [READ] MATCH #6: ID=0x1 ADDR=0xdf22cf8b LEN=3
# UVM_INFO ../src/seq/axi4_write_read_back_seq.sv(82) @ 1055000: uvm_test_top.env.master_agent.sqr@@wr_rd_seq_2 [axi4_write_read_back_seq] Read-back phase: ADDR=0xdf22cf8b LEN=3 - data integrity check via scoreboard
# UVM_INFO ../src/test/axi4_sanity_test.sv(52) @ 1055000: uvm_test_top [axi4_sanity_test] [4/10] ADDR=0x801d9e1d LEN=3 BURST=AXI4_BURST_INCR
# UVM_INFO ../src/mst/axi4_master_driver.sv(73) @ 1055000: uvm_test_top.env.master_agent.drv [axi4_master_driver] Driving AXI4_WRITE  ID=0x2  ADDR=0x801d9e1d  LEN=3
# UVM_INFO ../src/slv/axi4_slave_driver.sv(228) @ 1085000: uvm_test_top.env.slave_agent.drv [axi4_slave_driver] AW received: ID=0x2 ADDR=0x801d9e1d LEN=3 LOCK=AXI4_LOCK_NORMAL
# UVM_INFO ../src/mst/axi4_master_monitor.sv(124) @ 1085000: uvm_test_top.env.master_agent.mon [axi4_master_monitor] AW observed: ID=0x2 ADDR=0x801d9e1d LEN=3
# UVM_INFO ../src/slv/axi4_slave_monitor.sv(116) @ 1085000: uvm_test_top.env.slave_agent.mon [axi4_slave_monitor] AW received: ID=0x2 ADDR=0x801d9e1d LEN=3
# UVM_INFO ../src/slv/axi4_slave_monitor.sv(167) @ 1135000: uvm_test_top.env.slave_agent.mon [axi4_slave_monitor] W data assembled: ID=0x2 ADDR=0x801d9e1d 4 beats
# UVM_INFO ../src/mst/axi4_master_monitor.sv(184) @ 1135000: uvm_test_top.env.master_agent.mon [axi4_master_monitor] W data assembled: ID=0x2 ADDR=0x801d9e1d 4 beats
# UVM_INFO ../src/mst/axi4_master_driver.sv(289) @ 1165000: uvm_test_top.env.master_agent.drv [axi4_master_driver] Master driver received B response: ID=0x2 RESP=AXI4_RESP_OKAY
# UVM_INFO ../src/slv/axi4_slave_driver.sv(348) @ 1165000: uvm_test_top.env.slave_agent.drv [axi4_slave_driver] Write complete: ID=0x2 RESP=AXI4_RESP_OKAY
# UVM_INFO ../src/mst/axi4_master_monitor.sv(210) @ 1165000: uvm_test_top.env.master_agent.mon [axi4_master_monitor] Write complete: ID=0x2 ADDR=0x801d9e1d RESP=AXI4_RESP_OKAY
# UVM_INFO ../src/env/axi4_scoreboard.sv(87) @ 1165000: uvm_test_top.env.scb [axi4_scoreboard] Master AXI4_WRITE received: ID=0x2 ADDR=0x801d9e1d LEN=3
# UVM_INFO ../src/slv/axi4_slave_monitor.sv(189) @ 1165000: uvm_test_top.env.slave_agent.mon [axi4_slave_monitor] Write response sent: ID=0x2 ADDR=0x801d9e1d RESP=AXI4_RESP_OKAY
# UVM_INFO ../src/env/axi4_scoreboard.sv(108) @ 1165000: uvm_test_top.env.scb [axi4_scoreboard] Slave AXI4_WRITE received: ID=0x2 ADDR=0x801d9e1d LEN=3
# UVM_INFO ../src/env/axi4_scoreboard.sv(291) @ 1165000: uvm_test_top.env.scb [axi4_scoreboard] [WRITE] MATCH #7: ID=0x2 ADDR=0x801d9e1d LEN=3
# UVM_INFO ../src/env/axi4_scoreboard.sv(219) @ 1165000: uvm_test_top.env.scb [axi4_scoreboard] [REF_MEM_WRITE] Addr=0x801d9e1c Data=0x3b
